;OperatingPoint,measurementType,sysType,jetFlavor,etaMin,etaMax,ptMin,ptMax,discrMin,discrMax,formula
0,wpluscharm,central,1,-2.4,2.4,25,1000,-1,1,"1.029207"
0,wpluscharm,down,1,-2.4,2.4,25,1000,-1,1,"1.029207-0.021230"
0,wpluscharm,up,1,-2.4,2.4,25,1000,-1,1,"1.029207+0.021230"
1,wpluscharm,central,1,-2.4,2.4,25,1000,-1,1,"0.975577"
1,wpluscharm,down,1,-2.4,2.4,25,1000,-1,1,"0.975577-0.046109"
1,wpluscharm,up,1,-2.4,2.4,25,1000,-1,1,"0.975577+0.046109"
2,wpluscharm,central,1,-2.4,2.4,25,1000,-1,1,"0.840788"
2,wpluscharm,down,1,-2.4,2.4,25,1000,-1,1,"0.840788-0.191579"
2,wpluscharm,up,1,-2.4,2.4,25,1000,-1,1,"0.840788+0.191579"
