;OperatingPoint,measurementType,sysType,jetFlavor,etaMin,etaMax,ptMin,ptMax,discrMin,discrMax,formula
0,wpluscharm,down_brfrag,1,-2.4,2.4,25,1000,-1,1,"1.042069-0.012379"
0,wpluscharm,down_jer,1,-2.4,2.4,25,1000,-1,1,"1.042069-0.003074"
0,wpluscharm,down_jes,1,-2.4,2.4,25,1000,-1,1,"1.042069-0.002146"
0,wpluscharm,down_muonbr,1,-2.4,2.4,25,1000,-1,1,"1.042069-0.007807"
0,wpluscharm,down_ntrack,1,-2.4,2.4,25,1000,-1,1,"1.042069-0.003522"
0,wpluscharm,down_osss,1,-2.4,2.4,25,1000,-1,1,"1.042069-0.001001"
0,wpluscharm,down_pu,1,-2.4,2.4,25,1000,-1,1,"1.042069-0.000370"
0,wpluscharm,down_zid,1,-2.4,2.4,25,1000,-1,1,"1.042069-0.000316"
0,wpluscharm,up_brfrag,1,-2.4,2.4,25,1000,-1,1,"1.042069+0.012379"
0,wpluscharm,up_jer,1,-2.4,2.4,25,1000,-1,1,"1.042069+0.003074"
0,wpluscharm,up_jes,1,-2.4,2.4,25,1000,-1,1,"1.042069+0.002146"
0,wpluscharm,up_muonbr,1,-2.4,2.4,25,1000,-1,1,"1.042069+0.007807"
0,wpluscharm,up_ntrack,1,-2.4,2.4,25,1000,-1,1,"1.042069+0.003522"
0,wpluscharm,up_osss,1,-2.4,2.4,25,1000,-1,1,"1.042069+0.000480"
0,wpluscharm,up_pu,1,-2.4,2.4,25,1000,-1,1,"1.042069+0.000370"
0,wpluscharm,up_zid,1,-2.4,2.4,25,1000,-1,1,"1.042069+0.000316"
1,wpluscharm,down_brfrag,1,-2.4,2.4,25,1000,-1,1,"1.000796-0.006613"
1,wpluscharm,down_jer,1,-2.4,2.4,25,1000,-1,1,"1.000796-0.004654"
1,wpluscharm,down_jes,1,-2.4,2.4,25,1000,-1,1,"1.000796-0.001142"
1,wpluscharm,down_muonbr,1,-2.4,2.4,25,1000,-1,1,"1.000796-0.025732"
1,wpluscharm,down_ntrack,1,-2.4,2.4,25,1000,-1,1,"1.000796-0.013068"
1,wpluscharm,down_osss,1,-2.4,2.4,25,1000,-1,1,"1.000796-0.006308"
1,wpluscharm,down_pu,1,-2.4,2.4,25,1000,-1,1,"1.000796-0.001650"
1,wpluscharm,down_zid,1,-2.4,2.4,25,1000,-1,1,"1.000796-0.000026"
1,wpluscharm,up_brfrag,1,-2.4,2.4,25,1000,-1,1,"1.000796+0.006613"
1,wpluscharm,up_jer,1,-2.4,2.4,25,1000,-1,1,"1.000796+0.004654"
1,wpluscharm,up_jes,1,-2.4,2.4,25,1000,-1,1,"1.000796+0.001142"
1,wpluscharm,up_muonbr,1,-2.4,2.4,25,1000,-1,1,"1.000796+0.025732"
1,wpluscharm,up_ntrack,1,-2.4,2.4,25,1000,-1,1,"1.000796+0.013068"
1,wpluscharm,up_osss,1,-2.4,2.4,25,1000,-1,1,"1.000796+0.007474"
1,wpluscharm,up_pu,1,-2.4,2.4,25,1000,-1,1,"1.000796+0.001650"
1,wpluscharm,up_zid,1,-2.4,2.4,25,1000,-1,1,"1.000796+0.000026"
2,wpluscharm,down_brfrag,1,-2.4,2.4,25,1000,-1,1,"0.799942-0.016260"
2,wpluscharm,down_jer,1,-2.4,2.4,25,1000,-1,1,"0.799942-0.002077"
2,wpluscharm,down_jes,1,-2.4,2.4,25,1000,-1,1,"0.799942-0.009512"
2,wpluscharm,down_muonbr,1,-2.4,2.4,25,1000,-1,1,"0.799942-0.061577"
2,wpluscharm,down_ntrack,1,-2.4,2.4,25,1000,-1,1,"0.799942-0.029987"
2,wpluscharm,down_osss,1,-2.4,2.4,25,1000,-1,1,"0.799942-0.025228"
2,wpluscharm,down_pu,1,-2.4,2.4,25,1000,-1,1,"0.799942-0.007004"
2,wpluscharm,down_zid,1,-2.4,2.4,25,1000,-1,1,"0.799942-0.000736"
2,wpluscharm,up_brfrag,1,-2.4,2.4,25,1000,-1,1,"0.799942+0.016260"
2,wpluscharm,up_jer,1,-2.4,2.4,25,1000,-1,1,"0.799942+0.002077"
2,wpluscharm,up_jes,1,-2.4,2.4,25,1000,-1,1,"0.799942+0.009512"
2,wpluscharm,up_muonbr,1,-2.4,2.4,25,1000,-1,1,"0.799942+0.061577"
2,wpluscharm,up_ntrack,1,-2.4,2.4,25,1000,-1,1,"0.799942+0.029987"
2,wpluscharm,up_osss,1,-2.4,2.4,25,1000,-1,1,"0.799942+0.025811"
2,wpluscharm,up_pu,1,-2.4,2.4,25,1000,-1,1,"0.799942+0.007004"
2,wpluscharm,up_zid,1,-2.4,2.4,25,1000,-1,1,"0.799942+0.000736"
