;OperatingPoint,measurementType,sysType,jetFlavor,etaMin,etaMax,ptMin,ptMax,discrMin,discrMax,formula
0,wpluscharm,central,1,-2.4,2.4,25,1000,-1,1,"1.042069"
0,wpluscharm,down,1,-2.4,2.4,25,1000,-1,1,"1.042069-0.022472"
0,wpluscharm,up,1,-2.4,2.4,25,1000,-1,1,"1.042069+0.022472"
1,wpluscharm,central,1,-2.4,2.4,25,1000,-1,1,"1.000796"
1,wpluscharm,down,1,-2.4,2.4,25,1000,-1,1,"1.000796-0.044773"
1,wpluscharm,up,1,-2.4,2.4,25,1000,-1,1,"1.000796+0.044773"
2,wpluscharm,central,1,-2.4,2.4,25,1000,-1,1,"0.799942"
2,wpluscharm,down,1,-2.4,2.4,25,1000,-1,1,"0.799942-0.176598"
2,wpluscharm,up,1,-2.4,2.4,25,1000,-1,1,"0.799942+0.176598"
