;OperatingPoint,measurementType,sysType,jetFlavor,etaMin,etaMax,ptMin,ptMax,discrMin,discrMax,formula
0,wpluscharm,central,1,-2.4,2.4,25,30,-1,1,"1.066650"
0,wpluscharm,central,1,-2.4,2.4,30,50,-1,1,"1.043526"
0,wpluscharm,central,1,-2.4,2.4,50,70,-1,1,"1.012111"
0,wpluscharm,central,1,-2.4,2.4,70,100,-1,1,"1.066711"
0,wpluscharm,central,1,-2.4,2.4,100,130,-1,1,"1.039618"
0,wpluscharm,central,1,-2.4,2.4,130,160,-1,1,"1.003464"
0,wpluscharm,central,1,-2.4,2.4,160,250,-1,1,"1.030086"
0,wpluscharm,down,1,-2.4,2.4,25,30,-1,1,"1.066650-0.046200"
0,wpluscharm,down,1,-2.4,2.4,30,50,-1,1,"1.043526-0.027008"
0,wpluscharm,down,1,-2.4,2.4,50,70,-1,1,"1.012111-0.039685"
0,wpluscharm,down,1,-2.4,2.4,70,100,-1,1,"1.066711-0.065193"
0,wpluscharm,down,1,-2.4,2.4,100,130,-1,1,"1.039618-0.116802"
0,wpluscharm,down,1,-2.4,2.4,130,160,-1,1,"1.003464-0.225323"
0,wpluscharm,down,1,-2.4,2.4,160,250,-1,1,"1.030086-0.321141"
0,wpluscharm,down_brfrag,1,-2.4,2.4,25,30,-1,1,"1.066650-0.014873"
0,wpluscharm,down_brfrag,1,-2.4,2.4,30,50,-1,1,"1.043526-0.012778"
0,wpluscharm,down_brfrag,1,-2.4,2.4,50,70,-1,1,"1.012111-0.009424"
0,wpluscharm,down_brfrag,1,-2.4,2.4,70,100,-1,1,"1.066711-0.013659"
0,wpluscharm,down_brfrag,1,-2.4,2.4,100,130,-1,1,"1.039618-0.012902"
0,wpluscharm,down_brfrag,1,-2.4,2.4,130,160,-1,1,"1.003464-0.009693"
0,wpluscharm,down_brfrag,1,-2.4,2.4,160,250,-1,1,"1.030086-0.016437"
0,wpluscharm,down_jer,1,-2.4,2.4,25,30,-1,1,"1.066650-0.018503"
0,wpluscharm,down_jer,1,-2.4,2.4,30,50,-1,1,"1.043526-0.001922"
0,wpluscharm,down_jer,1,-2.4,2.4,50,70,-1,1,"1.012111-0.000271"
0,wpluscharm,down_jer,1,-2.4,2.4,70,100,-1,1,"1.066711-0.000444"
0,wpluscharm,down_jer,1,-2.4,2.4,100,130,-1,1,"1.039618-0.004720"
0,wpluscharm,down_jer,1,-2.4,2.4,130,160,-1,1,"1.003464-0.009117"
0,wpluscharm,down_jer,1,-2.4,2.4,160,250,-1,1,"1.030086-0.006690"
0,wpluscharm,down_jes,1,-2.4,2.4,25,30,-1,1,"1.066650-0.009926"
0,wpluscharm,down_jes,1,-2.4,2.4,30,50,-1,1,"1.043526-0.000775"
0,wpluscharm,down_jes,1,-2.4,2.4,50,70,-1,1,"1.012111-0.002477"
0,wpluscharm,down_jes,1,-2.4,2.4,70,100,-1,1,"1.066711-0.001005"
0,wpluscharm,down_jes,1,-2.4,2.4,100,130,-1,1,"1.039618-0.008273"
0,wpluscharm,down_jes,1,-2.4,2.4,130,160,-1,1,"1.003464-0.054773"
0,wpluscharm,down_jes,1,-2.4,2.4,160,250,-1,1,"1.030086-0.033673"
0,wpluscharm,down_muonbr,1,-2.4,2.4,25,30,-1,1,"1.066650-0.002931"
0,wpluscharm,down_muonbr,1,-2.4,2.4,30,50,-1,1,"1.043526-0.005064"
0,wpluscharm,down_muonbr,1,-2.4,2.4,50,70,-1,1,"1.012111-0.010936"
0,wpluscharm,down_muonbr,1,-2.4,2.4,70,100,-1,1,"1.066711-0.018501"
0,wpluscharm,down_muonbr,1,-2.4,2.4,100,130,-1,1,"1.039618-0.012302"
0,wpluscharm,down_muonbr,1,-2.4,2.4,130,160,-1,1,"1.003464-0.011374"
0,wpluscharm,down_muonbr,1,-2.4,2.4,160,250,-1,1,"1.030086-0.014187"
0,wpluscharm,down_ntrack,1,-2.4,2.4,25,30,-1,1,"1.066650-0.002784"
0,wpluscharm,down_ntrack,1,-2.4,2.4,30,50,-1,1,"1.043526-0.002951"
0,wpluscharm,down_ntrack,1,-2.4,2.4,50,70,-1,1,"1.012111-0.004510"
0,wpluscharm,down_ntrack,1,-2.4,2.4,70,100,-1,1,"1.066711-0.006072"
0,wpluscharm,down_ntrack,1,-2.4,2.4,100,130,-1,1,"1.039618-0.002912"
0,wpluscharm,down_ntrack,1,-2.4,2.4,130,160,-1,1,"1.003464-0.005220"
0,wpluscharm,down_ntrack,1,-2.4,2.4,160,250,-1,1,"1.030086-0.005261"
0,wpluscharm,down_osss,1,-2.4,2.4,25,30,-1,1,"1.066650-0.003355"
0,wpluscharm,down_osss,1,-2.4,2.4,30,50,-1,1,"1.043526-0.003967"
0,wpluscharm,down_osss,1,-2.4,2.4,50,70,-1,1,"1.012111-0.001266"
0,wpluscharm,down_osss,1,-2.4,2.4,70,100,-1,1,"1.066711-0.009173"
0,wpluscharm,down_osss,1,-2.4,2.4,100,130,-1,1,"1.039618-0.014811"
0,wpluscharm,down_osss,1,-2.4,2.4,130,160,-1,1,"1.003464-0.013558"
0,wpluscharm,down_osss,1,-2.4,2.4,160,250,-1,1,"1.030086-0.000985"
0,wpluscharm,down_pu,1,-2.4,2.4,25,30,-1,1,"1.066650-0.005611"
0,wpluscharm,down_pu,1,-2.4,2.4,30,50,-1,1,"1.043526-0.000701"
0,wpluscharm,down_pu,1,-2.4,2.4,50,70,-1,1,"1.012111-0.003000"
0,wpluscharm,down_pu,1,-2.4,2.4,70,100,-1,1,"1.066711-0.003362"
0,wpluscharm,down_pu,1,-2.4,2.4,100,130,-1,1,"1.039618-0.006362"
0,wpluscharm,down_pu,1,-2.4,2.4,130,160,-1,1,"1.003464-0.017267"
0,wpluscharm,down_pu,1,-2.4,2.4,160,250,-1,1,"1.030086-0.006321"
0,wpluscharm,down_statistic,1,-2.4,2.4,25,30,-1,1,"1.066650-0.037460"
0,wpluscharm,down_statistic,1,-2.4,2.4,30,50,-1,1,"1.043526-0.022313"
0,wpluscharm,down_statistic,1,-2.4,2.4,50,70,-1,1,"1.012111-0.036452"
0,wpluscharm,down_statistic,1,-2.4,2.4,70,100,-1,1,"1.066711-0.059146"
0,wpluscharm,down_statistic,1,-2.4,2.4,100,130,-1,1,"1.039618-0.112940"
0,wpluscharm,down_statistic,1,-2.4,2.4,130,160,-1,1,"1.003464-0.216244"
0,wpluscharm,down_statistic,1,-2.4,2.4,160,250,-1,1,"1.030086-0.318415"
0,wpluscharm,down_zid,1,-2.4,2.4,25,30,-1,1,"1.066650-0.000646"
0,wpluscharm,down_zid,1,-2.4,2.4,30,50,-1,1,"1.043526-0.000714"
0,wpluscharm,down_zid,1,-2.4,2.4,50,70,-1,1,"1.012111-0.000255"
0,wpluscharm,down_zid,1,-2.4,2.4,70,100,-1,1,"1.066711-0.001198"
0,wpluscharm,down_zid,1,-2.4,2.4,100,130,-1,1,"1.039618-0.000058"
0,wpluscharm,down_zid,1,-2.4,2.4,130,160,-1,1,"1.003464-0.000758"
0,wpluscharm,down_zid,1,-2.4,2.4,160,250,-1,1,"1.030086-0.004789"
0,wpluscharm,up,1,-2.4,2.4,25,30,-1,1,"1.066650+0.046200"
0,wpluscharm,up,1,-2.4,2.4,30,50,-1,1,"1.043526+0.027008"
0,wpluscharm,up,1,-2.4,2.4,50,70,-1,1,"1.012111+0.039685"
0,wpluscharm,up,1,-2.4,2.4,70,100,-1,1,"1.066711+0.065193"
0,wpluscharm,up,1,-2.4,2.4,100,130,-1,1,"1.039618+0.116802"
0,wpluscharm,up,1,-2.4,2.4,130,160,-1,1,"1.003464+0.225323"
0,wpluscharm,up,1,-2.4,2.4,160,250,-1,1,"1.030086+0.321141"
0,wpluscharm,up_brfrag,1,-2.4,2.4,25,30,-1,1,"1.066650+0.014873"
0,wpluscharm,up_brfrag,1,-2.4,2.4,30,50,-1,1,"1.043526+0.012778"
0,wpluscharm,up_brfrag,1,-2.4,2.4,50,70,-1,1,"1.012111+0.009424"
0,wpluscharm,up_brfrag,1,-2.4,2.4,70,100,-1,1,"1.066711+0.013659"
0,wpluscharm,up_brfrag,1,-2.4,2.4,100,130,-1,1,"1.039618+0.012902"
0,wpluscharm,up_brfrag,1,-2.4,2.4,130,160,-1,1,"1.003464+0.009693"
0,wpluscharm,up_brfrag,1,-2.4,2.4,160,250,-1,1,"1.030086+0.016437"
0,wpluscharm,up_jer,1,-2.4,2.4,25,30,-1,1,"1.066650+0.018503"
0,wpluscharm,up_jer,1,-2.4,2.4,30,50,-1,1,"1.043526+0.001922"
0,wpluscharm,up_jer,1,-2.4,2.4,50,70,-1,1,"1.012111+0.000271"
0,wpluscharm,up_jer,1,-2.4,2.4,70,100,-1,1,"1.066711+0.000444"
0,wpluscharm,up_jer,1,-2.4,2.4,100,130,-1,1,"1.039618+0.004720"
0,wpluscharm,up_jer,1,-2.4,2.4,130,160,-1,1,"1.003464+0.009117"
0,wpluscharm,up_jer,1,-2.4,2.4,160,250,-1,1,"1.030086+0.006690"
0,wpluscharm,up_jes,1,-2.4,2.4,25,30,-1,1,"1.066650+0.009926"
0,wpluscharm,up_jes,1,-2.4,2.4,30,50,-1,1,"1.043526+0.000775"
0,wpluscharm,up_jes,1,-2.4,2.4,50,70,-1,1,"1.012111+0.002477"
0,wpluscharm,up_jes,1,-2.4,2.4,70,100,-1,1,"1.066711+0.001005"
0,wpluscharm,up_jes,1,-2.4,2.4,100,130,-1,1,"1.039618+0.008273"
0,wpluscharm,up_jes,1,-2.4,2.4,130,160,-1,1,"1.003464+0.054773"
0,wpluscharm,up_jes,1,-2.4,2.4,160,250,-1,1,"1.030086+0.033673"
0,wpluscharm,up_muonbr,1,-2.4,2.4,25,30,-1,1,"1.066650+0.002931"
0,wpluscharm,up_muonbr,1,-2.4,2.4,30,50,-1,1,"1.043526+0.005064"
0,wpluscharm,up_muonbr,1,-2.4,2.4,50,70,-1,1,"1.012111+0.010936"
0,wpluscharm,up_muonbr,1,-2.4,2.4,70,100,-1,1,"1.066711+0.018501"
0,wpluscharm,up_muonbr,1,-2.4,2.4,100,130,-1,1,"1.039618+0.012302"
0,wpluscharm,up_muonbr,1,-2.4,2.4,130,160,-1,1,"1.003464+0.011374"
0,wpluscharm,up_muonbr,1,-2.4,2.4,160,250,-1,1,"1.030086+0.014187"
0,wpluscharm,up_ntrack,1,-2.4,2.4,25,30,-1,1,"1.066650+0.002784"
0,wpluscharm,up_ntrack,1,-2.4,2.4,30,50,-1,1,"1.043526+0.002951"
0,wpluscharm,up_ntrack,1,-2.4,2.4,50,70,-1,1,"1.012111+0.004510"
0,wpluscharm,up_ntrack,1,-2.4,2.4,70,100,-1,1,"1.066711+0.006072"
0,wpluscharm,up_ntrack,1,-2.4,2.4,100,130,-1,1,"1.039618+0.002912"
0,wpluscharm,up_ntrack,1,-2.4,2.4,130,160,-1,1,"1.003464+0.005220"
0,wpluscharm,up_ntrack,1,-2.4,2.4,160,250,-1,1,"1.030086+0.005261"
0,wpluscharm,up_osss,1,-2.4,2.4,25,30,-1,1,"1.066650+0.003087"
0,wpluscharm,up_osss,1,-2.4,2.4,30,50,-1,1,"1.043526+0.003585"
0,wpluscharm,up_osss,1,-2.4,2.4,50,70,-1,1,"1.012111+0.000730"
0,wpluscharm,up_osss,1,-2.4,2.4,70,100,-1,1,"1.066711+0.009385"
0,wpluscharm,up_osss,1,-2.4,2.4,100,130,-1,1,"1.039618+0.014502"
0,wpluscharm,up_osss,1,-2.4,2.4,130,160,-1,1,"1.003464+0.013877"
0,wpluscharm,up_osss,1,-2.4,2.4,160,250,-1,1,"1.030086+0.001400"
0,wpluscharm,up_pu,1,-2.4,2.4,25,30,-1,1,"1.066650+0.005611"
0,wpluscharm,up_pu,1,-2.4,2.4,30,50,-1,1,"1.043526+0.000701"
0,wpluscharm,up_pu,1,-2.4,2.4,50,70,-1,1,"1.012111+0.003000"
0,wpluscharm,up_pu,1,-2.4,2.4,70,100,-1,1,"1.066711+0.003362"
0,wpluscharm,up_pu,1,-2.4,2.4,100,130,-1,1,"1.039618+0.006362"
0,wpluscharm,up_pu,1,-2.4,2.4,130,160,-1,1,"1.003464+0.017267"
0,wpluscharm,up_pu,1,-2.4,2.4,160,250,-1,1,"1.030086+0.006321"
0,wpluscharm,up_statistic,1,-2.4,2.4,25,30,-1,1,"1.066650+0.037460"
0,wpluscharm,up_statistic,1,-2.4,2.4,30,50,-1,1,"1.043526+0.022313"
0,wpluscharm,up_statistic,1,-2.4,2.4,50,70,-1,1,"1.012111+0.036452"
0,wpluscharm,up_statistic,1,-2.4,2.4,70,100,-1,1,"1.066711+0.059146"
0,wpluscharm,up_statistic,1,-2.4,2.4,100,130,-1,1,"1.039618+0.112940"
0,wpluscharm,up_statistic,1,-2.4,2.4,130,160,-1,1,"1.003464+0.216244"
0,wpluscharm,up_statistic,1,-2.4,2.4,160,250,-1,1,"1.030086+0.318415"
0,wpluscharm,up_zid,1,-2.4,2.4,25,30,-1,1,"1.066650+0.000646"
0,wpluscharm,up_zid,1,-2.4,2.4,30,50,-1,1,"1.043526+0.000714"
0,wpluscharm,up_zid,1,-2.4,2.4,50,70,-1,1,"1.012111+0.000255"
0,wpluscharm,up_zid,1,-2.4,2.4,70,100,-1,1,"1.066711+0.001198"
0,wpluscharm,up_zid,1,-2.4,2.4,100,130,-1,1,"1.039618+0.000058"
0,wpluscharm,up_zid,1,-2.4,2.4,130,160,-1,1,"1.003464+0.000758"
0,wpluscharm,up_zid,1,-2.4,2.4,160,250,-1,1,"1.030086+0.004789"
1,wpluscharm,central,1,-2.4,2.4,25,30,-1,1,"1.063098"
1,wpluscharm,central,1,-2.4,2.4,30,50,-1,1,"1.047500"
1,wpluscharm,central,1,-2.4,2.4,50,70,-1,1,"0.880052"
1,wpluscharm,central,1,-2.4,2.4,70,100,-1,1,"0.925292"
1,wpluscharm,central,1,-2.4,2.4,100,130,-1,1,"1.045065"
1,wpluscharm,central,1,-2.4,2.4,130,160,-1,1,"0.996099"
1,wpluscharm,central,1,-2.4,2.4,160,250,-1,1,"1.284793"
1,wpluscharm,down,1,-2.4,2.4,25,30,-1,1,"1.063098-0.069002"
1,wpluscharm,down,1,-2.4,2.4,30,50,-1,1,"1.047500-0.048534"
1,wpluscharm,down,1,-2.4,2.4,50,70,-1,1,"0.880052-0.091148"
1,wpluscharm,down,1,-2.4,2.4,70,100,-1,1,"0.925292-0.148134"
1,wpluscharm,down,1,-2.4,2.4,100,130,-1,1,"1.045065-0.276391"
1,wpluscharm,down,1,-2.4,2.4,130,160,-1,1,"0.996099-0.582339"
1,wpluscharm,down,1,-2.4,2.4,160,250,-1,1,"1.284793-0.752223"
1,wpluscharm,down_brfrag,1,-2.4,2.4,25,30,-1,1,"1.063098-0.018295"
1,wpluscharm,down_brfrag,1,-2.4,2.4,30,50,-1,1,"1.047500-0.007950"
1,wpluscharm,down_brfrag,1,-2.4,2.4,50,70,-1,1,"0.880052-0.001523"
1,wpluscharm,down_brfrag,1,-2.4,2.4,70,100,-1,1,"0.925292-0.002250"
1,wpluscharm,down_brfrag,1,-2.4,2.4,100,130,-1,1,"1.045065-0.009407"
1,wpluscharm,down_brfrag,1,-2.4,2.4,130,160,-1,1,"0.996099-0.004097"
1,wpluscharm,down_brfrag,1,-2.4,2.4,160,250,-1,1,"1.284793-0.026041"
1,wpluscharm,down_jer,1,-2.4,2.4,25,30,-1,1,"1.063098-0.022917"
1,wpluscharm,down_jer,1,-2.4,2.4,30,50,-1,1,"1.047500-0.004034"
1,wpluscharm,down_jer,1,-2.4,2.4,50,70,-1,1,"0.880052-0.000079"
1,wpluscharm,down_jer,1,-2.4,2.4,70,100,-1,1,"0.925292-0.000159"
1,wpluscharm,down_jer,1,-2.4,2.4,100,130,-1,1,"1.045065-0.006101"
1,wpluscharm,down_jer,1,-2.4,2.4,130,160,-1,1,"0.996099-0.029681"
1,wpluscharm,down_jer,1,-2.4,2.4,160,250,-1,1,"1.284793-0.017461"
1,wpluscharm,down_jes,1,-2.4,2.4,25,30,-1,1,"1.063098-0.008491"
1,wpluscharm,down_jes,1,-2.4,2.4,30,50,-1,1,"1.047500-0.000796"
1,wpluscharm,down_jes,1,-2.4,2.4,50,70,-1,1,"0.880052-0.011602"
1,wpluscharm,down_jes,1,-2.4,2.4,70,100,-1,1,"0.925292-0.005964"
1,wpluscharm,down_jes,1,-2.4,2.4,100,130,-1,1,"1.045065-0.018531"
1,wpluscharm,down_jes,1,-2.4,2.4,130,160,-1,1,"0.996099-0.100596"
1,wpluscharm,down_jes,1,-2.4,2.4,160,250,-1,1,"1.284793-0.046880"
1,wpluscharm,down_muonbr,1,-2.4,2.4,25,30,-1,1,"1.063098-0.005939"
1,wpluscharm,down_muonbr,1,-2.4,2.4,30,50,-1,1,"1.047500-0.017266"
1,wpluscharm,down_muonbr,1,-2.4,2.4,50,70,-1,1,"0.880052-0.033697"
1,wpluscharm,down_muonbr,1,-2.4,2.4,70,100,-1,1,"0.925292-0.054617"
1,wpluscharm,down_muonbr,1,-2.4,2.4,100,130,-1,1,"1.045065-0.048942"
1,wpluscharm,down_muonbr,1,-2.4,2.4,130,160,-1,1,"0.996099-0.054750"
1,wpluscharm,down_muonbr,1,-2.4,2.4,160,250,-1,1,"1.284793-0.104461"
1,wpluscharm,down_ntrack,1,-2.4,2.4,25,30,-1,1,"1.063098-0.011660"
1,wpluscharm,down_ntrack,1,-2.4,2.4,30,50,-1,1,"1.047500-0.011617"
1,wpluscharm,down_ntrack,1,-2.4,2.4,50,70,-1,1,"0.880052-0.013548"
1,wpluscharm,down_ntrack,1,-2.4,2.4,70,100,-1,1,"0.925292-0.014132"
1,wpluscharm,down_ntrack,1,-2.4,2.4,100,130,-1,1,"1.045065-0.024030"
1,wpluscharm,down_ntrack,1,-2.4,2.4,130,160,-1,1,"0.996099-0.001782"
1,wpluscharm,down_ntrack,1,-2.4,2.4,160,250,-1,1,"1.284793-0.005944"
1,wpluscharm,down_osss,1,-2.4,2.4,25,30,-1,1,"1.063098-0.004418"
1,wpluscharm,down_osss,1,-2.4,2.4,30,50,-1,1,"1.047500-0.000960"
1,wpluscharm,down_osss,1,-2.4,2.4,50,70,-1,1,"0.880052-0.004704"
1,wpluscharm,down_osss,1,-2.4,2.4,70,100,-1,1,"0.925292-0.027127"
1,wpluscharm,down_osss,1,-2.4,2.4,100,130,-1,1,"1.045065-0.063390"
1,wpluscharm,down_osss,1,-2.4,2.4,130,160,-1,1,"0.996099-0.080743"
1,wpluscharm,down_osss,1,-2.4,2.4,160,250,-1,1,"1.284793-0.081030"
1,wpluscharm,down_pu,1,-2.4,2.4,25,30,-1,1,"1.063098-0.008426"
1,wpluscharm,down_pu,1,-2.4,2.4,30,50,-1,1,"1.047500-0.002430"
1,wpluscharm,down_pu,1,-2.4,2.4,50,70,-1,1,"0.880052-0.004353"
1,wpluscharm,down_pu,1,-2.4,2.4,70,100,-1,1,"0.925292-0.007158"
1,wpluscharm,down_pu,1,-2.4,2.4,100,130,-1,1,"1.045065-0.004256"
1,wpluscharm,down_pu,1,-2.4,2.4,130,160,-1,1,"0.996099-0.020747"
1,wpluscharm,down_pu,1,-2.4,2.4,160,250,-1,1,"1.284793-0.023453"
1,wpluscharm,down_statistic,1,-2.4,2.4,25,30,-1,1,"1.063098-0.059605"
1,wpluscharm,down_statistic,1,-2.4,2.4,30,50,-1,1,"1.047500-0.042839"
1,wpluscharm,down_statistic,1,-2.4,2.4,50,70,-1,1,"0.880052-0.082318"
1,wpluscharm,down_statistic,1,-2.4,2.4,70,100,-1,1,"0.925292-0.131176"
1,wpluscharm,down_statistic,1,-2.4,2.4,100,130,-1,1,"1.045065-0.256334"
1,wpluscharm,down_statistic,1,-2.4,2.4,130,160,-1,1,"0.996099-0.559657"
1,wpluscharm,down_statistic,1,-2.4,2.4,160,250,-1,1,"1.284793-0.733925"
1,wpluscharm,down_zid,1,-2.4,2.4,25,30,-1,1,"1.063098-0.000861"
1,wpluscharm,down_zid,1,-2.4,2.4,30,50,-1,1,"1.047500-0.000545"
1,wpluscharm,down_zid,1,-2.4,2.4,50,70,-1,1,"0.880052-0.000571"
1,wpluscharm,down_zid,1,-2.4,2.4,70,100,-1,1,"0.925292-0.002899"
1,wpluscharm,down_zid,1,-2.4,2.4,100,130,-1,1,"1.045065-0.001353"
1,wpluscharm,down_zid,1,-2.4,2.4,130,160,-1,1,"0.996099-0.005427"
1,wpluscharm,down_zid,1,-2.4,2.4,160,250,-1,1,"1.284793-0.019782"
1,wpluscharm,up,1,-2.4,2.4,25,30,-1,1,"1.063098+0.069002"
1,wpluscharm,up,1,-2.4,2.4,30,50,-1,1,"1.047500+0.048534"
1,wpluscharm,up,1,-2.4,2.4,50,70,-1,1,"0.880052+0.091148"
1,wpluscharm,up,1,-2.4,2.4,70,100,-1,1,"0.925292+0.148134"
1,wpluscharm,up,1,-2.4,2.4,100,130,-1,1,"1.045065+0.276391"
1,wpluscharm,up,1,-2.4,2.4,130,160,-1,1,"0.996099+0.582339"
1,wpluscharm,up,1,-2.4,2.4,160,250,-1,1,"1.284793+0.752223"
1,wpluscharm,up_brfrag,1,-2.4,2.4,25,30,-1,1,"1.063098+0.018295"
1,wpluscharm,up_brfrag,1,-2.4,2.4,30,50,-1,1,"1.047500+0.007950"
1,wpluscharm,up_brfrag,1,-2.4,2.4,50,70,-1,1,"0.880052+0.001523"
1,wpluscharm,up_brfrag,1,-2.4,2.4,70,100,-1,1,"0.925292+0.002250"
1,wpluscharm,up_brfrag,1,-2.4,2.4,100,130,-1,1,"1.045065+0.009407"
1,wpluscharm,up_brfrag,1,-2.4,2.4,130,160,-1,1,"0.996099+0.004097"
1,wpluscharm,up_brfrag,1,-2.4,2.4,160,250,-1,1,"1.284793+0.026041"
1,wpluscharm,up_jer,1,-2.4,2.4,25,30,-1,1,"1.063098+0.022917"
1,wpluscharm,up_jer,1,-2.4,2.4,30,50,-1,1,"1.047500+0.004034"
1,wpluscharm,up_jer,1,-2.4,2.4,50,70,-1,1,"0.880052+0.000079"
1,wpluscharm,up_jer,1,-2.4,2.4,70,100,-1,1,"0.925292+0.000159"
1,wpluscharm,up_jer,1,-2.4,2.4,100,130,-1,1,"1.045065+0.006101"
1,wpluscharm,up_jer,1,-2.4,2.4,130,160,-1,1,"0.996099+0.029681"
1,wpluscharm,up_jer,1,-2.4,2.4,160,250,-1,1,"1.284793+0.017461"
1,wpluscharm,up_jes,1,-2.4,2.4,25,30,-1,1,"1.063098+0.008491"
1,wpluscharm,up_jes,1,-2.4,2.4,30,50,-1,1,"1.047500+0.000796"
1,wpluscharm,up_jes,1,-2.4,2.4,50,70,-1,1,"0.880052+0.011602"
1,wpluscharm,up_jes,1,-2.4,2.4,70,100,-1,1,"0.925292+0.005964"
1,wpluscharm,up_jes,1,-2.4,2.4,100,130,-1,1,"1.045065+0.018531"
1,wpluscharm,up_jes,1,-2.4,2.4,130,160,-1,1,"0.996099+0.100596"
1,wpluscharm,up_jes,1,-2.4,2.4,160,250,-1,1,"1.284793+0.046880"
1,wpluscharm,up_muonbr,1,-2.4,2.4,25,30,-1,1,"1.063098+0.005939"
1,wpluscharm,up_muonbr,1,-2.4,2.4,30,50,-1,1,"1.047500+0.017266"
1,wpluscharm,up_muonbr,1,-2.4,2.4,50,70,-1,1,"0.880052+0.033697"
1,wpluscharm,up_muonbr,1,-2.4,2.4,70,100,-1,1,"0.925292+0.054617"
1,wpluscharm,up_muonbr,1,-2.4,2.4,100,130,-1,1,"1.045065+0.048942"
1,wpluscharm,up_muonbr,1,-2.4,2.4,130,160,-1,1,"0.996099+0.054750"
1,wpluscharm,up_muonbr,1,-2.4,2.4,160,250,-1,1,"1.284793+0.104461"
1,wpluscharm,up_ntrack,1,-2.4,2.4,25,30,-1,1,"1.063098+0.011660"
1,wpluscharm,up_ntrack,1,-2.4,2.4,30,50,-1,1,"1.047500+0.011617"
1,wpluscharm,up_ntrack,1,-2.4,2.4,50,70,-1,1,"0.880052+0.013548"
1,wpluscharm,up_ntrack,1,-2.4,2.4,70,100,-1,1,"0.925292+0.014132"
1,wpluscharm,up_ntrack,1,-2.4,2.4,100,130,-1,1,"1.045065+0.024030"
1,wpluscharm,up_ntrack,1,-2.4,2.4,130,160,-1,1,"0.996099+0.001782"
1,wpluscharm,up_ntrack,1,-2.4,2.4,160,250,-1,1,"1.284793+0.005944"
1,wpluscharm,up_osss,1,-2.4,2.4,25,30,-1,1,"1.063098+0.003742"
1,wpluscharm,up_osss,1,-2.4,2.4,30,50,-1,1,"1.047500+0.000195"
1,wpluscharm,up_osss,1,-2.4,2.4,50,70,-1,1,"0.880052+0.005869"
1,wpluscharm,up_osss,1,-2.4,2.4,70,100,-1,1,"0.925292+0.026789"
1,wpluscharm,up_osss,1,-2.4,2.4,100,130,-1,1,"1.045065+0.056611"
1,wpluscharm,up_osss,1,-2.4,2.4,130,160,-1,1,"0.996099+0.070039"
1,wpluscharm,up_osss,1,-2.4,2.4,160,250,-1,1,"1.284793+0.074563"
1,wpluscharm,up_pu,1,-2.4,2.4,25,30,-1,1,"1.063098+0.008426"
1,wpluscharm,up_pu,1,-2.4,2.4,30,50,-1,1,"1.047500+0.002430"
1,wpluscharm,up_pu,1,-2.4,2.4,50,70,-1,1,"0.880052+0.004353"
1,wpluscharm,up_pu,1,-2.4,2.4,70,100,-1,1,"0.925292+0.007158"
1,wpluscharm,up_pu,1,-2.4,2.4,100,130,-1,1,"1.045065+0.004256"
1,wpluscharm,up_pu,1,-2.4,2.4,130,160,-1,1,"0.996099+0.020747"
1,wpluscharm,up_pu,1,-2.4,2.4,160,250,-1,1,"1.284793+0.023453"
1,wpluscharm,up_statistic,1,-2.4,2.4,25,30,-1,1,"1.063098+0.059605"
1,wpluscharm,up_statistic,1,-2.4,2.4,30,50,-1,1,"1.047500+0.042839"
1,wpluscharm,up_statistic,1,-2.4,2.4,50,70,-1,1,"0.880052+0.082318"
1,wpluscharm,up_statistic,1,-2.4,2.4,70,100,-1,1,"0.925292+0.131176"
1,wpluscharm,up_statistic,1,-2.4,2.4,100,130,-1,1,"1.045065+0.256334"
1,wpluscharm,up_statistic,1,-2.4,2.4,130,160,-1,1,"0.996099+0.559657"
1,wpluscharm,up_statistic,1,-2.4,2.4,160,250,-1,1,"1.284793+0.733925"
1,wpluscharm,up_zid,1,-2.4,2.4,25,30,-1,1,"1.063098+0.000861"
1,wpluscharm,up_zid,1,-2.4,2.4,30,50,-1,1,"1.047500+0.000545"
1,wpluscharm,up_zid,1,-2.4,2.4,50,70,-1,1,"0.880052+0.000571"
1,wpluscharm,up_zid,1,-2.4,2.4,70,100,-1,1,"0.925292+0.002899"
1,wpluscharm,up_zid,1,-2.4,2.4,100,130,-1,1,"1.045065+0.001353"
1,wpluscharm,up_zid,1,-2.4,2.4,130,160,-1,1,"0.996099+0.005427"
1,wpluscharm,up_zid,1,-2.4,2.4,160,250,-1,1,"1.284793+0.019782"
2,wpluscharm,central,1,-2.4,2.4,25,30,-1,1,"1.010352"
2,wpluscharm,central,1,-2.4,2.4,30,50,-1,1,"0.878390"
2,wpluscharm,central,1,-2.4,2.4,50,70,-1,1,"0.665056"
2,wpluscharm,central,1,-2.4,2.4,70,100,-1,1,"0.594252"
2,wpluscharm,central,1,-2.4,2.4,100,130,-1,1,"0.976901"
2,wpluscharm,central,1,-2.4,2.4,130,160,-1,1,"1.281708"
2,wpluscharm,central,1,-2.4,2.4,160,250,-1,1,"1.427763"
2,wpluscharm,down,1,-2.4,2.4,25,30,-1,1,"1.010352-0.243897"
2,wpluscharm,down,1,-2.4,2.4,30,50,-1,1,"0.878390-0.213929"
2,wpluscharm,down,1,-2.4,2.4,50,70,-1,1,"0.665056-0.424437"
2,wpluscharm,down,1,-2.4,2.4,70,100,-1,1,"0.594252-0.705042"
2,wpluscharm,down,1,-2.4,2.4,100,130,-1,1,"0.976901-1.507715"
2,wpluscharm,down,1,-2.4,2.4,130,160,-1,1,"1.281708-2.407201"
2,wpluscharm,down,1,-2.4,2.4,160,250,-1,1,"1.427763-13.358902"
2,wpluscharm,down_brfrag,1,-2.4,2.4,25,30,-1,1,"1.010352-0.019695"
2,wpluscharm,down_brfrag,1,-2.4,2.4,30,50,-1,1,"0.878390-0.017803"
2,wpluscharm,down_brfrag,1,-2.4,2.4,50,70,-1,1,"0.665056-0.019066"
2,wpluscharm,down_brfrag,1,-2.4,2.4,70,100,-1,1,"0.594252-0.014219"
2,wpluscharm,down_brfrag,1,-2.4,2.4,100,130,-1,1,"0.976901-0.017880"
2,wpluscharm,down_brfrag,1,-2.4,2.4,130,160,-1,1,"1.281708-0.053716"
2,wpluscharm,down_brfrag,1,-2.4,2.4,160,250,-1,1,"1.427763-0.035900"
2,wpluscharm,down_jer,1,-2.4,2.4,25,30,-1,1,"1.010352-0.034742"
2,wpluscharm,down_jer,1,-2.4,2.4,30,50,-1,1,"0.878390-0.011588"
2,wpluscharm,down_jer,1,-2.4,2.4,50,70,-1,1,"0.665056-0.000835"
2,wpluscharm,down_jer,1,-2.4,2.4,70,100,-1,1,"0.594252-0.004033"
2,wpluscharm,down_jer,1,-2.4,2.4,100,130,-1,1,"0.976901-0.004729"
2,wpluscharm,down_jer,1,-2.4,2.4,130,160,-1,1,"1.281708-0.118194"
2,wpluscharm,down_jer,1,-2.4,2.4,160,250,-1,1,"1.427763-0.057395"
2,wpluscharm,down_jes,1,-2.4,2.4,25,30,-1,1,"1.010352-0.001920"
2,wpluscharm,down_jes,1,-2.4,2.4,30,50,-1,1,"0.878390-0.035529"
2,wpluscharm,down_jes,1,-2.4,2.4,50,70,-1,1,"0.665056-0.030944"
2,wpluscharm,down_jes,1,-2.4,2.4,70,100,-1,1,"0.594252-0.025526"
2,wpluscharm,down_jes,1,-2.4,2.4,100,130,-1,1,"0.976901-0.105353"
2,wpluscharm,down_jes,1,-2.4,2.4,130,160,-1,1,"1.281708-0.330452"
2,wpluscharm,down_jes,1,-2.4,2.4,160,250,-1,1,"1.427763-0.021689"
2,wpluscharm,down_muonbr,1,-2.4,2.4,25,30,-1,1,"1.010352-0.014373"
2,wpluscharm,down_muonbr,1,-2.4,2.4,30,50,-1,1,"0.878390-0.046841"
2,wpluscharm,down_muonbr,1,-2.4,2.4,50,70,-1,1,"0.665056-0.058049"
2,wpluscharm,down_muonbr,1,-2.4,2.4,70,100,-1,1,"0.594252-0.090187"
2,wpluscharm,down_muonbr,1,-2.4,2.4,100,130,-1,1,"0.976901-0.118146"
2,wpluscharm,down_muonbr,1,-2.4,2.4,130,160,-1,1,"1.281708-0.204479"
2,wpluscharm,down_muonbr,1,-2.4,2.4,160,250,-1,1,"1.427763-0.323511"
2,wpluscharm,down_ntrack,1,-2.4,2.4,25,30,-1,1,"1.010352-0.052022"
2,wpluscharm,down_ntrack,1,-2.4,2.4,30,50,-1,1,"0.878390-0.023444"
2,wpluscharm,down_ntrack,1,-2.4,2.4,50,70,-1,1,"0.665056-0.017620"
2,wpluscharm,down_ntrack,1,-2.4,2.4,70,100,-1,1,"0.594252-0.021958"
2,wpluscharm,down_ntrack,1,-2.4,2.4,100,130,-1,1,"0.976901-0.053184"
2,wpluscharm,down_ntrack,1,-2.4,2.4,130,160,-1,1,"1.281708-0.013025"
2,wpluscharm,down_ntrack,1,-2.4,2.4,160,250,-1,1,"1.427763-0.195433"
2,wpluscharm,down_osss,1,-2.4,2.4,25,30,-1,1,"1.010352-0.007080"
2,wpluscharm,down_osss,1,-2.4,2.4,30,50,-1,1,"0.878390-0.011167"
2,wpluscharm,down_osss,1,-2.4,2.4,50,70,-1,1,"0.665056-0.012113"
2,wpluscharm,down_osss,1,-2.4,2.4,70,100,-1,1,"0.594252-0.040462"
2,wpluscharm,down_osss,1,-2.4,2.4,100,130,-1,1,"0.976901-0.175329"
2,wpluscharm,down_osss,1,-2.4,2.4,130,160,-1,1,"1.281708-0.497677"
2,wpluscharm,down_osss,1,-2.4,2.4,160,250,-1,1,"1.427763-0.364026"
2,wpluscharm,down_pu,1,-2.4,2.4,25,30,-1,1,"1.010352-0.008258"
2,wpluscharm,down_pu,1,-2.4,2.4,30,50,-1,1,"0.878390-0.005957"
2,wpluscharm,down_pu,1,-2.4,2.4,50,70,-1,1,"0.665056-0.012192"
2,wpluscharm,down_pu,1,-2.4,2.4,70,100,-1,1,"0.594252-0.012279"
2,wpluscharm,down_pu,1,-2.4,2.4,100,130,-1,1,"0.976901-0.007011"
2,wpluscharm,down_pu,1,-2.4,2.4,130,160,-1,1,"1.281708-0.129196"
2,wpluscharm,down_pu,1,-2.4,2.4,160,250,-1,1,"1.427763-0.063222"
2,wpluscharm,down_statistic,1,-2.4,2.4,25,30,-1,1,"1.010352-0.234081"
2,wpluscharm,down_statistic,1,-2.4,2.4,30,50,-1,1,"0.878390-0.202490"
2,wpluscharm,down_statistic,1,-2.4,2.4,50,70,-1,1,"0.665056-0.417935"
2,wpluscharm,down_statistic,1,-2.4,2.4,70,100,-1,1,"0.594252-0.695990"
2,wpluscharm,down_statistic,1,-2.4,2.4,100,130,-1,1,"0.976901-1.482341"
2,wpluscharm,down_statistic,1,-2.4,2.4,130,160,-1,1,"1.281708-2.297904"
2,wpluscharm,down_statistic,1,-2.4,2.4,160,250,-1,1,"1.427763-13.346002"
2,wpluscharm,down_zid,1,-2.4,2.4,25,30,-1,1,"1.010352-0.001582"
2,wpluscharm,down_zid,1,-2.4,2.4,30,50,-1,1,"0.878390-0.000711"
2,wpluscharm,down_zid,1,-2.4,2.4,50,70,-1,1,"0.665056-0.001423"
2,wpluscharm,down_zid,1,-2.4,2.4,70,100,-1,1,"0.594252-0.004289"
2,wpluscharm,down_zid,1,-2.4,2.4,100,130,-1,1,"0.976901-0.004872"
2,wpluscharm,down_zid,1,-2.4,2.4,130,160,-1,1,"1.281708-0.039273"
2,wpluscharm,down_zid,1,-2.4,2.4,160,250,-1,1,"1.427763-0.037195"
2,wpluscharm,up,1,-2.4,2.4,25,30,-1,1,"1.010352+0.243897"
2,wpluscharm,up,1,-2.4,2.4,30,50,-1,1,"0.878390+0.213929"
2,wpluscharm,up,1,-2.4,2.4,50,70,-1,1,"0.665056+0.424437"
2,wpluscharm,up,1,-2.4,2.4,70,100,-1,1,"0.594252+0.705042"
2,wpluscharm,up,1,-2.4,2.4,100,130,-1,1,"0.976901+1.507715"
2,wpluscharm,up,1,-2.4,2.4,130,160,-1,1,"1.281708+2.407201"
2,wpluscharm,up,1,-2.4,2.4,160,250,-1,1,"1.427763+13.358902"
2,wpluscharm,up_brfrag,1,-2.4,2.4,25,30,-1,1,"1.010352+0.019695"
2,wpluscharm,up_brfrag,1,-2.4,2.4,30,50,-1,1,"0.878390+0.017803"
2,wpluscharm,up_brfrag,1,-2.4,2.4,50,70,-1,1,"0.665056+0.019066"
2,wpluscharm,up_brfrag,1,-2.4,2.4,70,100,-1,1,"0.594252+0.014219"
2,wpluscharm,up_brfrag,1,-2.4,2.4,100,130,-1,1,"0.976901+0.017880"
2,wpluscharm,up_brfrag,1,-2.4,2.4,130,160,-1,1,"1.281708+0.053716"
2,wpluscharm,up_brfrag,1,-2.4,2.4,160,250,-1,1,"1.427763+0.035900"
2,wpluscharm,up_jer,1,-2.4,2.4,25,30,-1,1,"1.010352+0.034742"
2,wpluscharm,up_jer,1,-2.4,2.4,30,50,-1,1,"0.878390+0.011588"
2,wpluscharm,up_jer,1,-2.4,2.4,50,70,-1,1,"0.665056+0.000835"
2,wpluscharm,up_jer,1,-2.4,2.4,70,100,-1,1,"0.594252+0.004033"
2,wpluscharm,up_jer,1,-2.4,2.4,100,130,-1,1,"0.976901+0.004729"
2,wpluscharm,up_jer,1,-2.4,2.4,130,160,-1,1,"1.281708+0.118194"
2,wpluscharm,up_jer,1,-2.4,2.4,160,250,-1,1,"1.427763+0.057395"
2,wpluscharm,up_jes,1,-2.4,2.4,25,30,-1,1,"1.010352+0.001920"
2,wpluscharm,up_jes,1,-2.4,2.4,30,50,-1,1,"0.878390+0.035529"
2,wpluscharm,up_jes,1,-2.4,2.4,50,70,-1,1,"0.665056+0.030944"
2,wpluscharm,up_jes,1,-2.4,2.4,70,100,-1,1,"0.594252+0.025526"
2,wpluscharm,up_jes,1,-2.4,2.4,100,130,-1,1,"0.976901+0.105353"
2,wpluscharm,up_jes,1,-2.4,2.4,130,160,-1,1,"1.281708+0.330452"
2,wpluscharm,up_jes,1,-2.4,2.4,160,250,-1,1,"1.427763+0.021689"
2,wpluscharm,up_muonbr,1,-2.4,2.4,25,30,-1,1,"1.010352+0.014373"
2,wpluscharm,up_muonbr,1,-2.4,2.4,30,50,-1,1,"0.878390+0.046841"
2,wpluscharm,up_muonbr,1,-2.4,2.4,50,70,-1,1,"0.665056+0.058049"
2,wpluscharm,up_muonbr,1,-2.4,2.4,70,100,-1,1,"0.594252+0.090187"
2,wpluscharm,up_muonbr,1,-2.4,2.4,100,130,-1,1,"0.976901+0.118146"
2,wpluscharm,up_muonbr,1,-2.4,2.4,130,160,-1,1,"1.281708+0.204479"
2,wpluscharm,up_muonbr,1,-2.4,2.4,160,250,-1,1,"1.427763+0.323511"
2,wpluscharm,up_ntrack,1,-2.4,2.4,25,30,-1,1,"1.010352+0.052022"
2,wpluscharm,up_ntrack,1,-2.4,2.4,30,50,-1,1,"0.878390+0.023444"
2,wpluscharm,up_ntrack,1,-2.4,2.4,50,70,-1,1,"0.665056+0.017620"
2,wpluscharm,up_ntrack,1,-2.4,2.4,70,100,-1,1,"0.594252+0.021958"
2,wpluscharm,up_ntrack,1,-2.4,2.4,100,130,-1,1,"0.976901+0.053184"
2,wpluscharm,up_ntrack,1,-2.4,2.4,130,160,-1,1,"1.281708+0.013025"
2,wpluscharm,up_ntrack,1,-2.4,2.4,160,250,-1,1,"1.427763+0.195433"
2,wpluscharm,up_osss,1,-2.4,2.4,25,30,-1,1,"1.010352+0.007731"
2,wpluscharm,up_osss,1,-2.4,2.4,30,50,-1,1,"0.878390+0.012068"
2,wpluscharm,up_osss,1,-2.4,2.4,50,70,-1,1,"0.665056+0.013320"
2,wpluscharm,up_osss,1,-2.4,2.4,70,100,-1,1,"0.594252+0.037283"
2,wpluscharm,up_osss,1,-2.4,2.4,100,130,-1,1,"0.976901+0.129722"
2,wpluscharm,up_osss,1,-2.4,2.4,130,160,-1,1,"1.281708+0.283378"
2,wpluscharm,up_osss,1,-2.4,2.4,160,250,-1,1,"1.427763+0.242243"
2,wpluscharm,up_pu,1,-2.4,2.4,25,30,-1,1,"1.010352+0.008258"
2,wpluscharm,up_pu,1,-2.4,2.4,30,50,-1,1,"0.878390+0.005957"
2,wpluscharm,up_pu,1,-2.4,2.4,50,70,-1,1,"0.665056+0.012192"
2,wpluscharm,up_pu,1,-2.4,2.4,70,100,-1,1,"0.594252+0.012279"
2,wpluscharm,up_pu,1,-2.4,2.4,100,130,-1,1,"0.976901+0.007011"
2,wpluscharm,up_pu,1,-2.4,2.4,130,160,-1,1,"1.281708+0.129196"
2,wpluscharm,up_pu,1,-2.4,2.4,160,250,-1,1,"1.427763+0.063222"
2,wpluscharm,up_statistic,1,-2.4,2.4,25,30,-1,1,"1.010352+0.234081"
2,wpluscharm,up_statistic,1,-2.4,2.4,30,50,-1,1,"0.878390+0.202490"
2,wpluscharm,up_statistic,1,-2.4,2.4,50,70,-1,1,"0.665056+0.417935"
2,wpluscharm,up_statistic,1,-2.4,2.4,70,100,-1,1,"0.594252+0.695990"
2,wpluscharm,up_statistic,1,-2.4,2.4,100,130,-1,1,"0.976901+1.482341"
2,wpluscharm,up_statistic,1,-2.4,2.4,130,160,-1,1,"1.281708+2.297904"
2,wpluscharm,up_statistic,1,-2.4,2.4,160,250,-1,1,"1.427763+13.346002"
2,wpluscharm,up_zid,1,-2.4,2.4,25,30,-1,1,"1.010352+0.001582"
2,wpluscharm,up_zid,1,-2.4,2.4,30,50,-1,1,"0.878390+0.000711"
2,wpluscharm,up_zid,1,-2.4,2.4,50,70,-1,1,"0.665056+0.001423"
2,wpluscharm,up_zid,1,-2.4,2.4,70,100,-1,1,"0.594252+0.004289"
2,wpluscharm,up_zid,1,-2.4,2.4,100,130,-1,1,"0.976901+0.004872"
2,wpluscharm,up_zid,1,-2.4,2.4,130,160,-1,1,"1.281708+0.039273"
2,wpluscharm,up_zid,1,-2.4,2.4,160,250,-1,1,"1.427763+0.037195"
