;OperatingPoint,measurementType,sysType,jetFlavor,etaMin,etaMax,ptMin,ptMax,discrMin,discrMax,formula
0,wpluscharm,central,1,-2.4,2.4,25,30,-1,1,"0.994079"
0,wpluscharm,central,1,-2.4,2.4,30,50,-1,1,"1.012779"
0,wpluscharm,central,1,-2.4,2.4,50,70,-1,1,"1.039393"
0,wpluscharm,central,1,-2.4,2.4,70,100,-1,1,"1.045916"
0,wpluscharm,central,1,-2.4,2.4,100,130,-1,1,"0.999465"
0,wpluscharm,central,1,-2.4,2.4,130,160,-1,1,"0.991741"
0,wpluscharm,central,1,-2.4,2.4,160,250,-1,1,"1.029848"
0,wpluscharm,down,1,-2.4,2.4,25,30,-1,1,"0.994079-0.028076"
0,wpluscharm,down,1,-2.4,2.4,30,50,-1,1,"1.012779-0.017509"
0,wpluscharm,down,1,-2.4,2.4,50,70,-1,1,"1.039393-0.028479"
0,wpluscharm,down,1,-2.4,2.4,70,100,-1,1,"1.045916-0.042967"
0,wpluscharm,down,1,-2.4,2.4,100,130,-1,1,"0.999465-0.081332"
0,wpluscharm,down,1,-2.4,2.4,130,160,-1,1,"0.991741-0.161785"
0,wpluscharm,down,1,-2.4,2.4,160,250,-1,1,"1.029848-0.257727"
0,wpluscharm,up,1,-2.4,2.4,25,30,-1,1,"0.994079+0.028076"
0,wpluscharm,up,1,-2.4,2.4,30,50,-1,1,"1.012779+0.017509"
0,wpluscharm,up,1,-2.4,2.4,50,70,-1,1,"1.039393+0.028479"
0,wpluscharm,up,1,-2.4,2.4,70,100,-1,1,"1.045916+0.042967"
0,wpluscharm,up,1,-2.4,2.4,100,130,-1,1,"0.999465+0.081332"
0,wpluscharm,up,1,-2.4,2.4,130,160,-1,1,"0.991741+0.161785"
0,wpluscharm,up,1,-2.4,2.4,160,250,-1,1,"1.029848+0.257727"
1,wpluscharm,central,1,-2.4,2.4,25,30,-1,1,"0.994432"
1,wpluscharm,central,1,-2.4,2.4,30,50,-1,1,"1.019441"
1,wpluscharm,central,1,-2.4,2.4,50,70,-1,1,"1.049665"
1,wpluscharm,central,1,-2.4,2.4,70,100,-1,1,"1.097455"
1,wpluscharm,central,1,-2.4,2.4,100,130,-1,1,"0.997805"
1,wpluscharm,central,1,-2.4,2.4,130,160,-1,1,"0.926999"
1,wpluscharm,central,1,-2.4,2.4,160,250,-1,1,"1.022339"
1,wpluscharm,down,1,-2.4,2.4,25,30,-1,1,"0.994432-0.039998"
1,wpluscharm,down,1,-2.4,2.4,30,50,-1,1,"1.019441-0.025771"
1,wpluscharm,down,1,-2.4,2.4,50,70,-1,1,"1.049665-0.034863"
1,wpluscharm,down,1,-2.4,2.4,70,100,-1,1,"1.097455-0.052464"
1,wpluscharm,down,1,-2.4,2.4,100,130,-1,1,"0.997805-0.085119"
1,wpluscharm,down,1,-2.4,2.4,130,160,-1,1,"0.926999-0.156051"
1,wpluscharm,down,1,-2.4,2.4,160,250,-1,1,"1.022339-0.257085"
1,wpluscharm,up,1,-2.4,2.4,25,30,-1,1,"0.994432+0.039998"
1,wpluscharm,up,1,-2.4,2.4,30,50,-1,1,"1.019441+0.025771"
1,wpluscharm,up,1,-2.4,2.4,50,70,-1,1,"1.049665+0.034863"
1,wpluscharm,up,1,-2.4,2.4,70,100,-1,1,"1.097455+0.052464"
1,wpluscharm,up,1,-2.4,2.4,100,130,-1,1,"0.997805+0.085119"
1,wpluscharm,up,1,-2.4,2.4,130,160,-1,1,"0.926999+0.156051"
1,wpluscharm,up,1,-2.4,2.4,160,250,-1,1,"1.022339+0.257085"
2,wpluscharm,central,1,-2.4,2.4,25,30,-1,1,"1.032787"
2,wpluscharm,central,1,-2.4,2.4,30,50,-1,1,"1.035922"
2,wpluscharm,central,1,-2.4,2.4,50,70,-1,1,"1.050160"
2,wpluscharm,central,1,-2.4,2.4,70,100,-1,1,"1.129377"
2,wpluscharm,central,1,-2.4,2.4,100,130,-1,1,"1.025138"
2,wpluscharm,central,1,-2.4,2.4,130,160,-1,1,"0.901094"
2,wpluscharm,central,1,-2.4,2.4,160,250,-1,1,"1.004283"
2,wpluscharm,down,1,-2.4,2.4,25,30,-1,1,"1.032787-0.066108"
2,wpluscharm,down,1,-2.4,2.4,30,50,-1,1,"1.035922-0.034026"
2,wpluscharm,down,1,-2.4,2.4,50,70,-1,1,"1.050160-0.040959"
2,wpluscharm,down,1,-2.4,2.4,70,100,-1,1,"1.129377-0.059447"
2,wpluscharm,down,1,-2.4,2.4,100,130,-1,1,"1.025138-0.099346"
2,wpluscharm,down,1,-2.4,2.4,130,160,-1,1,"0.901094-0.166577"
2,wpluscharm,down,1,-2.4,2.4,160,250,-1,1,"1.004283-0.269955"
2,wpluscharm,up,1,-2.4,2.4,25,30,-1,1,"1.032787+0.066108"
2,wpluscharm,up,1,-2.4,2.4,30,50,-1,1,"1.035922+0.034026"
2,wpluscharm,up,1,-2.4,2.4,50,70,-1,1,"1.050160+0.040959"
2,wpluscharm,up,1,-2.4,2.4,70,100,-1,1,"1.129377+0.059447"
2,wpluscharm,up,1,-2.4,2.4,100,130,-1,1,"1.025138+0.099346"
2,wpluscharm,up,1,-2.4,2.4,130,160,-1,1,"0.901094+0.166577"
2,wpluscharm,up,1,-2.4,2.4,160,250,-1,1,"1.004283+0.269955"
