;OperatingPoint,measurementType,sysType,jetFlavor,etaMin,etaMax,ptMin,ptMax,discrMin,discrMax,formula
0,wpluscharm,central,1,-2.4,2.4,25,30,-1,1,"0.979978"
0,wpluscharm,central,1,-2.4,2.4,30,50,-1,1,"1.009401"
0,wpluscharm,central,1,-2.4,2.4,50,70,-1,1,"1.030171"
0,wpluscharm,central,1,-2.4,2.4,70,100,-1,1,"1.034218"
0,wpluscharm,central,1,-2.4,2.4,100,130,-1,1,"1.005487"
0,wpluscharm,central,1,-2.4,2.4,130,160,-1,1,"0.965638"
0,wpluscharm,central,1,-2.4,2.4,160,250,-1,1,"1.078709"
0,wpluscharm,down,1,-2.4,2.4,25,30,-1,1,"0.979978-0.028168"
0,wpluscharm,down,1,-2.4,2.4,30,50,-1,1,"1.009401-0.017219"
0,wpluscharm,down,1,-2.4,2.4,50,70,-1,1,"1.030171-0.028260"
0,wpluscharm,down,1,-2.4,2.4,70,100,-1,1,"1.034218-0.042842"
0,wpluscharm,down,1,-2.4,2.4,100,130,-1,1,"1.005487-0.083209"
0,wpluscharm,down,1,-2.4,2.4,130,160,-1,1,"0.965638-0.162398"
0,wpluscharm,down,1,-2.4,2.4,160,250,-1,1,"1.078709-0.275248"
0,wpluscharm,up,1,-2.4,2.4,25,30,-1,1,"0.979978+0.028168"
0,wpluscharm,up,1,-2.4,2.4,30,50,-1,1,"1.009401+0.017219"
0,wpluscharm,up,1,-2.4,2.4,50,70,-1,1,"1.030171+0.028260"
0,wpluscharm,up,1,-2.4,2.4,70,100,-1,1,"1.034218+0.042842"
0,wpluscharm,up,1,-2.4,2.4,100,130,-1,1,"1.005487+0.083209"
0,wpluscharm,up,1,-2.4,2.4,130,160,-1,1,"0.965638+0.162398"
0,wpluscharm,up,1,-2.4,2.4,160,250,-1,1,"1.078709+0.275248"
1,wpluscharm,central,1,-2.4,2.4,25,30,-1,1,"1.000049"
1,wpluscharm,central,1,-2.4,2.4,30,50,-1,1,"1.001356"
1,wpluscharm,central,1,-2.4,2.4,50,70,-1,1,"1.050858"
1,wpluscharm,central,1,-2.4,2.4,70,100,-1,1,"1.080369"
1,wpluscharm,central,1,-2.4,2.4,100,130,-1,1,"1.003036"
1,wpluscharm,central,1,-2.4,2.4,130,160,-1,1,"0.932686"
1,wpluscharm,central,1,-2.4,2.4,160,250,-1,1,"1.160132"
1,wpluscharm,down,1,-2.4,2.4,25,30,-1,1,"1.000049-0.036799"
1,wpluscharm,down,1,-2.4,2.4,30,50,-1,1,"1.001356-0.025307"
1,wpluscharm,down,1,-2.4,2.4,50,70,-1,1,"1.050858-0.034899"
1,wpluscharm,down,1,-2.4,2.4,70,100,-1,1,"1.080369-0.051171"
1,wpluscharm,down,1,-2.4,2.4,100,130,-1,1,"1.003036-0.091154"
1,wpluscharm,down,1,-2.4,2.4,130,160,-1,1,"0.932686-0.167226"
1,wpluscharm,down,1,-2.4,2.4,160,250,-1,1,"1.160132-0.316826"
1,wpluscharm,up,1,-2.4,2.4,25,30,-1,1,"1.000049+0.036799"
1,wpluscharm,up,1,-2.4,2.4,30,50,-1,1,"1.001356+0.025307"
1,wpluscharm,up,1,-2.4,2.4,50,70,-1,1,"1.050858+0.034899"
1,wpluscharm,up,1,-2.4,2.4,70,100,-1,1,"1.080369+0.051171"
1,wpluscharm,up,1,-2.4,2.4,100,130,-1,1,"1.003036+0.091154"
1,wpluscharm,up,1,-2.4,2.4,130,160,-1,1,"0.932686+0.167226"
1,wpluscharm,up,1,-2.4,2.4,160,250,-1,1,"1.160132+0.316826"
2,wpluscharm,central,1,-2.4,2.4,25,30,-1,1,"1.046742"
2,wpluscharm,central,1,-2.4,2.4,30,50,-1,1,"1.042387"
2,wpluscharm,central,1,-2.4,2.4,50,70,-1,1,"1.060816"
2,wpluscharm,central,1,-2.4,2.4,70,100,-1,1,"1.103478"
2,wpluscharm,central,1,-2.4,2.4,100,130,-1,1,"1.010165"
2,wpluscharm,central,1,-2.4,2.4,130,160,-1,1,"0.826523"
2,wpluscharm,central,1,-2.4,2.4,160,250,-1,1,"1.005971"
2,wpluscharm,down,1,-2.4,2.4,25,30,-1,1,"1.046742-0.072936"
2,wpluscharm,down,1,-2.4,2.4,30,50,-1,1,"1.042387-0.031869"
2,wpluscharm,down,1,-2.4,2.4,50,70,-1,1,"1.060816-0.041276"
2,wpluscharm,down,1,-2.4,2.4,70,100,-1,1,"1.103478-0.059354"
2,wpluscharm,down,1,-2.4,2.4,100,130,-1,1,"1.010165-0.106033"
2,wpluscharm,down,1,-2.4,2.4,130,160,-1,1,"0.826523-0.170686"
2,wpluscharm,down,1,-2.4,2.4,160,250,-1,1,"1.005971-0.317314"
2,wpluscharm,up,1,-2.4,2.4,25,30,-1,1,"1.046742+0.072936"
2,wpluscharm,up,1,-2.4,2.4,30,50,-1,1,"1.042387+0.031869"
2,wpluscharm,up,1,-2.4,2.4,50,70,-1,1,"1.060816+0.041276"
2,wpluscharm,up,1,-2.4,2.4,70,100,-1,1,"1.103478+0.059354"
2,wpluscharm,up,1,-2.4,2.4,100,130,-1,1,"1.010165+0.106033"
2,wpluscharm,up,1,-2.4,2.4,130,160,-1,1,"0.826523+0.170686"
2,wpluscharm,up,1,-2.4,2.4,160,250,-1,1,"1.005971+0.317314"
