;OperatingPoint,measurementType,sysType,jetFlavor,etaMin,etaMax,ptMin,ptMax,discrMin,discrMax,formula
0,wpluscharm,down_type2,1,-2.4,2.4,25,1000,-1,1,"0.998665-0.004152"
0,wpluscharm,down_type3,1,-2.4,2.4,25,1000,-1,1,"0.998665-0.004036"
0,wpluscharm,up_type2,1,-2.4,2.4,25,1000,-1,1,"0.998665+0.004152"
0,wpluscharm,up_type3,1,-2.4,2.4,25,1000,-1,1,"0.998665+0.004036"
1,wpluscharm,down_type2,1,-2.4,2.4,25,1000,-1,1,"0.972966-0.010917"
1,wpluscharm,down_type3,1,-2.4,2.4,25,1000,-1,1,"0.972966-0.012191"
1,wpluscharm,up_type2,1,-2.4,2.4,25,1000,-1,1,"0.972966+0.010917"
1,wpluscharm,up_type3,1,-2.4,2.4,25,1000,-1,1,"0.972966+0.012191"
2,wpluscharm,down_type2,1,-2.4,2.4,25,1000,-1,1,"0.955100-0.014478"
2,wpluscharm,down_type3,1,-2.4,2.4,25,1000,-1,1,"0.955100-0.015909"
2,wpluscharm,up_type2,1,-2.4,2.4,25,1000,-1,1,"0.955100+0.014478"
2,wpluscharm,up_type3,1,-2.4,2.4,25,1000,-1,1,"0.955100+0.015909"
