;OperatingPoint,measurementType,sysType,jetFlavor,etaMin,etaMax,ptMin,ptMax,discrMin,discrMax,formula
0,wpluscharm,central,1,-2.4,2.4,25,30,-1,1,"1.034643"
0,wpluscharm,central,1,-2.4,2.4,30,50,-1,1,"1.011856"
0,wpluscharm,central,1,-2.4,2.4,50,70,-1,1,"1.025607"
0,wpluscharm,central,1,-2.4,2.4,70,100,-1,1,"0.983951"
0,wpluscharm,central,1,-2.4,2.4,100,130,-1,1,"0.915329"
0,wpluscharm,central,1,-2.4,2.4,130,160,-1,1,"0.991216"
0,wpluscharm,central,1,-2.4,2.4,160,250,-1,1,"0.805026"
0,wpluscharm,down,1,-2.4,2.4,25,30,-1,1,"1.034643-0.042526"
0,wpluscharm,down,1,-2.4,2.4,30,50,-1,1,"1.011856-0.024710"
0,wpluscharm,down,1,-2.4,2.4,50,70,-1,1,"1.025607-0.039012"
0,wpluscharm,down,1,-2.4,2.4,70,100,-1,1,"0.983951-0.058459"
0,wpluscharm,down,1,-2.4,2.4,100,130,-1,1,"0.915329-0.115744"
0,wpluscharm,down,1,-2.4,2.4,130,160,-1,1,"0.991216-0.213725"
0,wpluscharm,down,1,-2.4,2.4,160,250,-1,1,"0.805026-0.303373"
0,wpluscharm,up,1,-2.4,2.4,25,30,-1,1,"1.034643+0.042526"
0,wpluscharm,up,1,-2.4,2.4,30,50,-1,1,"1.011856+0.024710"
0,wpluscharm,up,1,-2.4,2.4,50,70,-1,1,"1.025607+0.039012"
0,wpluscharm,up,1,-2.4,2.4,70,100,-1,1,"0.983951+0.058459"
0,wpluscharm,up,1,-2.4,2.4,100,130,-1,1,"0.915329+0.115744"
0,wpluscharm,up,1,-2.4,2.4,130,160,-1,1,"0.991216+0.213725"
0,wpluscharm,up,1,-2.4,2.4,160,250,-1,1,"0.805026+0.303373"
1,wpluscharm,central,1,-2.4,2.4,25,30,-1,1,"1.167164"
1,wpluscharm,central,1,-2.4,2.4,30,50,-1,1,"1.092645"
1,wpluscharm,central,1,-2.4,2.4,50,70,-1,1,"0.996828"
1,wpluscharm,central,1,-2.4,2.4,70,100,-1,1,"1.027136"
1,wpluscharm,central,1,-2.4,2.4,100,130,-1,1,"0.619880"
1,wpluscharm,central,1,-2.4,2.4,130,160,-1,1,"1.148085"
1,wpluscharm,central,1,-2.4,2.4,160,250,-1,1,"0.499357"
1,wpluscharm,down,1,-2.4,2.4,25,30,-1,1,"1.167164-0.089910"
1,wpluscharm,down,1,-2.4,2.4,30,50,-1,1,"1.092645-0.054481"
1,wpluscharm,down,1,-2.4,2.4,50,70,-1,1,"0.996828-0.095959"
1,wpluscharm,down,1,-2.4,2.4,70,100,-1,1,"1.027136-0.164118"
1,wpluscharm,down,1,-2.4,2.4,100,130,-1,1,"0.619880-0.265133"
1,wpluscharm,down,1,-2.4,2.4,130,160,-1,1,"1.148085-0.522222"
1,wpluscharm,down,1,-2.4,2.4,160,250,-1,1,"0.499357-0.777093"
1,wpluscharm,up,1,-2.4,2.4,25,30,-1,1,"1.167164+0.089910"
1,wpluscharm,up,1,-2.4,2.4,30,50,-1,1,"1.092645+0.054481"
1,wpluscharm,up,1,-2.4,2.4,50,70,-1,1,"0.996828+0.095959"
1,wpluscharm,up,1,-2.4,2.4,70,100,-1,1,"1.027136+0.164118"
1,wpluscharm,up,1,-2.4,2.4,100,130,-1,1,"0.619880+0.265133"
1,wpluscharm,up,1,-2.4,2.4,130,160,-1,1,"1.148085+0.522222"
1,wpluscharm,up,1,-2.4,2.4,160,250,-1,1,"0.499357+0.777093"
2,wpluscharm,central,1,-2.4,2.4,25,30,-1,1,"1.795512"
2,wpluscharm,central,1,-2.4,2.4,30,50,-1,1,"1.251323"
2,wpluscharm,central,1,-2.4,2.4,50,70,-1,1,"1.047370"
2,wpluscharm,central,1,-2.4,2.4,70,100,-1,1,"1.035700"
2,wpluscharm,central,1,-2.4,2.4,100,130,-1,1,"0.238855"
2,wpluscharm,central,1,-2.4,2.4,130,160,-1,1,"0.756677"
2,wpluscharm,central,1,-2.4,2.4,160,250,-1,1,"0.355817"
2,wpluscharm,down,1,-2.4,2.4,25,30,-1,1,"1.795512-0.395921"
2,wpluscharm,down,1,-2.4,2.4,30,50,-1,1,"1.251323-0.269005"
2,wpluscharm,down,1,-2.4,2.4,50,70,-1,1,"1.047370-0.557888"
2,wpluscharm,down,1,-2.4,2.4,70,100,-1,1,"1.035700-0.631873"
2,wpluscharm,down,1,-2.4,2.4,100,130,-1,1,"0.238855-1.789362"
2,wpluscharm,down,1,-2.4,2.4,130,160,-1,1,"0.756677-5.262895"
2,wpluscharm,down,1,-2.4,2.4,160,250,-1,1,"0.355817-8.903399"
2,wpluscharm,up,1,-2.4,2.4,25,30,-1,1,"1.795512+0.395921"
2,wpluscharm,up,1,-2.4,2.4,30,50,-1,1,"1.251323+0.269005"
2,wpluscharm,up,1,-2.4,2.4,50,70,-1,1,"1.047370+0.557888"
2,wpluscharm,up,1,-2.4,2.4,70,100,-1,1,"1.035700+0.631873"
2,wpluscharm,up,1,-2.4,2.4,100,130,-1,1,"0.238855+1.789362"
2,wpluscharm,up,1,-2.4,2.4,130,160,-1,1,"0.756677+5.262895"
2,wpluscharm,up,1,-2.4,2.4,160,250,-1,1,"0.355817+8.903399"
