;OperatingPoint,measurementType,sysType,jetFlavor,etaMin,etaMax,ptMin,ptMax,discrMin,discrMax,formula
0,wpluscharm,down_type2,1,-2.4,2.4,25,1000,-1,1,"0.999393-0.004182"
0,wpluscharm,down_type3,1,-2.4,2.4,25,1000,-1,1,"0.999393-0.004540"
0,wpluscharm,up_type2,1,-2.4,2.4,25,1000,-1,1,"0.999393+0.004182"
0,wpluscharm,up_type3,1,-2.4,2.4,25,1000,-1,1,"0.999393+0.004540"
1,wpluscharm,down_type2,1,-2.4,2.4,25,1000,-1,1,"0.979066-0.012476"
1,wpluscharm,down_type3,1,-2.4,2.4,25,1000,-1,1,"0.979066-0.015036"
1,wpluscharm,up_type2,1,-2.4,2.4,25,1000,-1,1,"0.979066+0.012476"
1,wpluscharm,up_type3,1,-2.4,2.4,25,1000,-1,1,"0.979066+0.015036"
2,wpluscharm,down_type2,1,-2.4,2.4,25,1000,-1,1,"0.953721-0.015526"
2,wpluscharm,down_type3,1,-2.4,2.4,25,1000,-1,1,"0.953721-0.019121"
2,wpluscharm,up_type2,1,-2.4,2.4,25,1000,-1,1,"0.953721+0.015526"
2,wpluscharm,up_type3,1,-2.4,2.4,25,1000,-1,1,"0.953721+0.019121"
