;OperatingPoint,measurementType,sysType,jetFlavor,etaMin,etaMax,ptMin,ptMax,discrMin,discrMax,formula
0,wpluscharm,central,1,-2.4,2.4,25,30,-1,1,"0.970984"
0,wpluscharm,central,1,-2.4,2.4,30,50,-1,1,"0.995503"
0,wpluscharm,central,1,-2.4,2.4,50,70,-1,1,"1.013989"
0,wpluscharm,central,1,-2.4,2.4,70,100,-1,1,"1.002939"
0,wpluscharm,central,1,-2.4,2.4,100,130,-1,1,"1.064069"
0,wpluscharm,central,1,-2.4,2.4,130,160,-1,1,"1.077782"
0,wpluscharm,central,1,-2.4,2.4,160,250,-1,1,"1.052473"
0,wpluscharm,down,1,-2.4,2.4,25,30,-1,1,"0.970984-0.028142"
0,wpluscharm,down,1,-2.4,2.4,30,50,-1,1,"0.995503-0.016732"
0,wpluscharm,down,1,-2.4,2.4,50,70,-1,1,"1.013989-0.026792"
0,wpluscharm,down,1,-2.4,2.4,70,100,-1,1,"1.002939-0.041233"
0,wpluscharm,down,1,-2.4,2.4,100,130,-1,1,"1.064069-0.089970"
0,wpluscharm,down,1,-2.4,2.4,130,160,-1,1,"1.077782-0.157514"
0,wpluscharm,down,1,-2.4,2.4,160,250,-1,1,"1.052473-0.250000"
0,wpluscharm,down_brfrag,1,-2.4,2.4,25,30,-1,1,"0.970984-0.001464"
0,wpluscharm,down_brfrag,1,-2.4,2.4,30,50,-1,1,"0.995503-0.001467"
0,wpluscharm,down_brfrag,1,-2.4,2.4,50,70,-1,1,"1.013989-0.002136"
0,wpluscharm,down_brfrag,1,-2.4,2.4,70,100,-1,1,"1.002939-0.000133"
0,wpluscharm,down_brfrag,1,-2.4,2.4,100,130,-1,1,"1.064069-0.000757"
0,wpluscharm,down_brfrag,1,-2.4,2.4,130,160,-1,1,"1.077782-0.010905"
0,wpluscharm,down_brfrag,1,-2.4,2.4,160,250,-1,1,"1.052473-0.006335"
0,wpluscharm,down_jer,1,-2.4,2.4,25,30,-1,1,"0.970984-0.000800"
0,wpluscharm,down_jer,1,-2.4,2.4,30,50,-1,1,"0.995503-0.000884"
0,wpluscharm,down_jer,1,-2.4,2.4,50,70,-1,1,"1.013989-0.002196"
0,wpluscharm,down_jer,1,-2.4,2.4,70,100,-1,1,"1.002939-0.002318"
0,wpluscharm,down_jer,1,-2.4,2.4,100,130,-1,1,"1.064069-0.005709"
0,wpluscharm,down_jer,1,-2.4,2.4,130,160,-1,1,"1.077782-0.005152"
0,wpluscharm,down_jer,1,-2.4,2.4,160,250,-1,1,"1.052473-0.018444"
0,wpluscharm,down_jes,1,-2.4,2.4,25,30,-1,1,"0.970984-0.001534"
0,wpluscharm,down_jes,1,-2.4,2.4,30,50,-1,1,"0.995503-0.001176"
0,wpluscharm,down_jes,1,-2.4,2.4,50,70,-1,1,"1.013989-0.001448"
0,wpluscharm,down_jes,1,-2.4,2.4,70,100,-1,1,"1.002939-0.001272"
0,wpluscharm,down_jes,1,-2.4,2.4,100,130,-1,1,"1.064069-0.000455"
0,wpluscharm,down_jes,1,-2.4,2.4,130,160,-1,1,"1.077782-0.013453"
0,wpluscharm,down_jes,1,-2.4,2.4,160,250,-1,1,"1.052473-0.002488"
0,wpluscharm,down_muonbr,1,-2.4,2.4,25,30,-1,1,"0.970984-0.000710"
0,wpluscharm,down_muonbr,1,-2.4,2.4,30,50,-1,1,"0.995503-0.000863"
0,wpluscharm,down_muonbr,1,-2.4,2.4,50,70,-1,1,"1.013989-0.003199"
0,wpluscharm,down_muonbr,1,-2.4,2.4,70,100,-1,1,"1.002939-0.009133"
0,wpluscharm,down_muonbr,1,-2.4,2.4,100,130,-1,1,"1.064069-0.007549"
0,wpluscharm,down_muonbr,1,-2.4,2.4,130,160,-1,1,"1.077782-0.007616"
0,wpluscharm,down_muonbr,1,-2.4,2.4,160,250,-1,1,"1.052473-0.020547"
0,wpluscharm,down_ntrack,1,-2.4,2.4,25,30,-1,1,"0.970984-0.001035"
0,wpluscharm,down_ntrack,1,-2.4,2.4,30,50,-1,1,"0.995503-0.002112"
0,wpluscharm,down_ntrack,1,-2.4,2.4,50,70,-1,1,"1.013989-0.003991"
0,wpluscharm,down_ntrack,1,-2.4,2.4,70,100,-1,1,"1.002939-0.001916"
0,wpluscharm,down_ntrack,1,-2.4,2.4,100,130,-1,1,"1.064069-0.009120"
0,wpluscharm,down_ntrack,1,-2.4,2.4,130,160,-1,1,"1.077782-0.008995"
0,wpluscharm,down_ntrack,1,-2.4,2.4,160,250,-1,1,"1.052473-0.007698"
0,wpluscharm,down_osss,1,-2.4,2.4,25,30,-1,1,"0.970984-0.000364"
0,wpluscharm,down_osss,1,-2.4,2.4,30,50,-1,1,"0.995503-0.001339"
0,wpluscharm,down_osss,1,-2.4,2.4,50,70,-1,1,"1.013989-0.003135"
0,wpluscharm,down_osss,1,-2.4,2.4,70,100,-1,1,"1.002939-0.007385"
0,wpluscharm,down_osss,1,-2.4,2.4,100,130,-1,1,"1.064069-0.010404"
0,wpluscharm,down_osss,1,-2.4,2.4,130,160,-1,1,"1.077782-0.011524"
0,wpluscharm,down_osss,1,-2.4,2.4,160,250,-1,1,"1.052473-0.013580"
0,wpluscharm,down_pu,1,-2.4,2.4,25,30,-1,1,"0.970984-0.000064"
0,wpluscharm,down_pu,1,-2.4,2.4,30,50,-1,1,"0.995503-0.000318"
0,wpluscharm,down_pu,1,-2.4,2.4,50,70,-1,1,"1.013989-0.001009"
0,wpluscharm,down_pu,1,-2.4,2.4,70,100,-1,1,"1.002939-0.001725"
0,wpluscharm,down_pu,1,-2.4,2.4,100,130,-1,1,"1.064069-0.001005"
0,wpluscharm,down_pu,1,-2.4,2.4,130,160,-1,1,"1.077782-0.002979"
0,wpluscharm,down_pu,1,-2.4,2.4,160,250,-1,1,"1.052473-0.000079"
0,wpluscharm,down_statistic,1,-2.4,2.4,25,30,-1,1,"0.970984-0.028018"
0,wpluscharm,down_statistic,1,-2.4,2.4,30,50,-1,1,"0.995503-0.016332"
0,wpluscharm,down_statistic,1,-2.4,2.4,50,70,-1,1,"1.013989-0.025663"
0,wpluscharm,down_statistic,1,-2.4,2.4,70,100,-1,1,"1.002939-0.038611"
0,wpluscharm,down_statistic,1,-2.4,2.4,100,130,-1,1,"1.064069-0.087727"
0,wpluscharm,down_statistic,1,-2.4,2.4,130,160,-1,1,"1.077782-0.155113"
0,wpluscharm,down_statistic,1,-2.4,2.4,160,250,-1,1,"1.052473-0.247475"
0,wpluscharm,down_zid,1,-2.4,2.4,25,30,-1,1,"0.970984-0.000051"
0,wpluscharm,down_zid,1,-2.4,2.4,30,50,-1,1,"0.995503-0.000069"
0,wpluscharm,down_zid,1,-2.4,2.4,50,70,-1,1,"1.013989-0.000221"
0,wpluscharm,down_zid,1,-2.4,2.4,70,100,-1,1,"1.002939-0.000324"
0,wpluscharm,down_zid,1,-2.4,2.4,100,130,-1,1,"1.064069-0.000380"
0,wpluscharm,down_zid,1,-2.4,2.4,130,160,-1,1,"1.077782-0.000073"
0,wpluscharm,down_zid,1,-2.4,2.4,160,250,-1,1,"1.052473-0.000280"
0,wpluscharm,up,1,-2.4,2.4,25,30,-1,1,"0.970984+0.028142"
0,wpluscharm,up,1,-2.4,2.4,30,50,-1,1,"0.995503+0.016732"
0,wpluscharm,up,1,-2.4,2.4,50,70,-1,1,"1.013989+0.026792"
0,wpluscharm,up,1,-2.4,2.4,70,100,-1,1,"1.002939+0.041233"
0,wpluscharm,up,1,-2.4,2.4,100,130,-1,1,"1.064069+0.089970"
0,wpluscharm,up,1,-2.4,2.4,130,160,-1,1,"1.077782+0.157514"
0,wpluscharm,up,1,-2.4,2.4,160,250,-1,1,"1.052473+0.250000"
0,wpluscharm,up_brfrag,1,-2.4,2.4,25,30,-1,1,"0.970984+0.001464"
0,wpluscharm,up_brfrag,1,-2.4,2.4,30,50,-1,1,"0.995503+0.001467"
0,wpluscharm,up_brfrag,1,-2.4,2.4,50,70,-1,1,"1.013989+0.002136"
0,wpluscharm,up_brfrag,1,-2.4,2.4,70,100,-1,1,"1.002939+0.000133"
0,wpluscharm,up_brfrag,1,-2.4,2.4,100,130,-1,1,"1.064069+0.000757"
0,wpluscharm,up_brfrag,1,-2.4,2.4,130,160,-1,1,"1.077782+0.010905"
0,wpluscharm,up_brfrag,1,-2.4,2.4,160,250,-1,1,"1.052473+0.006335"
0,wpluscharm,up_jer,1,-2.4,2.4,25,30,-1,1,"0.970984+0.000800"
0,wpluscharm,up_jer,1,-2.4,2.4,30,50,-1,1,"0.995503+0.000884"
0,wpluscharm,up_jer,1,-2.4,2.4,50,70,-1,1,"1.013989+0.002196"
0,wpluscharm,up_jer,1,-2.4,2.4,70,100,-1,1,"1.002939+0.002318"
0,wpluscharm,up_jer,1,-2.4,2.4,100,130,-1,1,"1.064069+0.005709"
0,wpluscharm,up_jer,1,-2.4,2.4,130,160,-1,1,"1.077782+0.005152"
0,wpluscharm,up_jer,1,-2.4,2.4,160,250,-1,1,"1.052473+0.018444"
0,wpluscharm,up_jes,1,-2.4,2.4,25,30,-1,1,"0.970984+0.001534"
0,wpluscharm,up_jes,1,-2.4,2.4,30,50,-1,1,"0.995503+0.001176"
0,wpluscharm,up_jes,1,-2.4,2.4,50,70,-1,1,"1.013989+0.001448"
0,wpluscharm,up_jes,1,-2.4,2.4,70,100,-1,1,"1.002939+0.001272"
0,wpluscharm,up_jes,1,-2.4,2.4,100,130,-1,1,"1.064069+0.000455"
0,wpluscharm,up_jes,1,-2.4,2.4,130,160,-1,1,"1.077782+0.013453"
0,wpluscharm,up_jes,1,-2.4,2.4,160,250,-1,1,"1.052473+0.002488"
0,wpluscharm,up_muonbr,1,-2.4,2.4,25,30,-1,1,"0.970984+0.000710"
0,wpluscharm,up_muonbr,1,-2.4,2.4,30,50,-1,1,"0.995503+0.000863"
0,wpluscharm,up_muonbr,1,-2.4,2.4,50,70,-1,1,"1.013989+0.003199"
0,wpluscharm,up_muonbr,1,-2.4,2.4,70,100,-1,1,"1.002939+0.009133"
0,wpluscharm,up_muonbr,1,-2.4,2.4,100,130,-1,1,"1.064069+0.007549"
0,wpluscharm,up_muonbr,1,-2.4,2.4,130,160,-1,1,"1.077782+0.007616"
0,wpluscharm,up_muonbr,1,-2.4,2.4,160,250,-1,1,"1.052473+0.020547"
0,wpluscharm,up_ntrack,1,-2.4,2.4,25,30,-1,1,"0.970984+0.001035"
0,wpluscharm,up_ntrack,1,-2.4,2.4,30,50,-1,1,"0.995503+0.002112"
0,wpluscharm,up_ntrack,1,-2.4,2.4,50,70,-1,1,"1.013989+0.003991"
0,wpluscharm,up_ntrack,1,-2.4,2.4,70,100,-1,1,"1.002939+0.001916"
0,wpluscharm,up_ntrack,1,-2.4,2.4,100,130,-1,1,"1.064069+0.009120"
0,wpluscharm,up_ntrack,1,-2.4,2.4,130,160,-1,1,"1.077782+0.008995"
0,wpluscharm,up_ntrack,1,-2.4,2.4,160,250,-1,1,"1.052473+0.007698"
0,wpluscharm,up_osss,1,-2.4,2.4,25,30,-1,1,"0.970984+0.000390"
0,wpluscharm,up_osss,1,-2.4,2.4,30,50,-1,1,"0.995503+0.001345"
0,wpluscharm,up_osss,1,-2.4,2.4,50,70,-1,1,"1.013989+0.003266"
0,wpluscharm,up_osss,1,-2.4,2.4,70,100,-1,1,"1.002939+0.007593"
0,wpluscharm,up_osss,1,-2.4,2.4,100,130,-1,1,"1.064069+0.010752"
0,wpluscharm,up_osss,1,-2.4,2.4,130,160,-1,1,"1.077782+0.011986"
0,wpluscharm,up_osss,1,-2.4,2.4,160,250,-1,1,"1.052473+0.014277"
0,wpluscharm,up_pu,1,-2.4,2.4,25,30,-1,1,"0.970984+0.000064"
0,wpluscharm,up_pu,1,-2.4,2.4,30,50,-1,1,"0.995503+0.000318"
0,wpluscharm,up_pu,1,-2.4,2.4,50,70,-1,1,"1.013989+0.001009"
0,wpluscharm,up_pu,1,-2.4,2.4,70,100,-1,1,"1.002939+0.001725"
0,wpluscharm,up_pu,1,-2.4,2.4,100,130,-1,1,"1.064069+0.001005"
0,wpluscharm,up_pu,1,-2.4,2.4,130,160,-1,1,"1.077782+0.002979"
0,wpluscharm,up_pu,1,-2.4,2.4,160,250,-1,1,"1.052473+0.000079"
0,wpluscharm,up_statistic,1,-2.4,2.4,25,30,-1,1,"0.970984+0.028018"
0,wpluscharm,up_statistic,1,-2.4,2.4,30,50,-1,1,"0.995503+0.016332"
0,wpluscharm,up_statistic,1,-2.4,2.4,50,70,-1,1,"1.013989+0.025663"
0,wpluscharm,up_statistic,1,-2.4,2.4,70,100,-1,1,"1.002939+0.038611"
0,wpluscharm,up_statistic,1,-2.4,2.4,100,130,-1,1,"1.064069+0.087727"
0,wpluscharm,up_statistic,1,-2.4,2.4,130,160,-1,1,"1.077782+0.155113"
0,wpluscharm,up_statistic,1,-2.4,2.4,160,250,-1,1,"1.052473+0.247475"
0,wpluscharm,up_zid,1,-2.4,2.4,25,30,-1,1,"0.970984+0.000051"
0,wpluscharm,up_zid,1,-2.4,2.4,30,50,-1,1,"0.995503+0.000069"
0,wpluscharm,up_zid,1,-2.4,2.4,50,70,-1,1,"1.013989+0.000221"
0,wpluscharm,up_zid,1,-2.4,2.4,70,100,-1,1,"1.002939+0.000324"
0,wpluscharm,up_zid,1,-2.4,2.4,100,130,-1,1,"1.064069+0.000380"
0,wpluscharm,up_zid,1,-2.4,2.4,130,160,-1,1,"1.077782+0.000073"
0,wpluscharm,up_zid,1,-2.4,2.4,160,250,-1,1,"1.052473+0.000280"
1,wpluscharm,central,1,-2.4,2.4,25,30,-1,1,"0.961196"
1,wpluscharm,central,1,-2.4,2.4,30,50,-1,1,"0.976439"
1,wpluscharm,central,1,-2.4,2.4,50,70,-1,1,"0.989626"
1,wpluscharm,central,1,-2.4,2.4,70,100,-1,1,"0.978722"
1,wpluscharm,central,1,-2.4,2.4,100,130,-1,1,"1.003556"
1,wpluscharm,central,1,-2.4,2.4,130,160,-1,1,"1.027868"
1,wpluscharm,central,1,-2.4,2.4,160,250,-1,1,"1.076389"
1,wpluscharm,down,1,-2.4,2.4,25,30,-1,1,"0.961196-0.041974"
1,wpluscharm,down,1,-2.4,2.4,30,50,-1,1,"0.976439-0.026212"
1,wpluscharm,down,1,-2.4,2.4,50,70,-1,1,"0.989626-0.033969"
1,wpluscharm,down,1,-2.4,2.4,70,100,-1,1,"0.978722-0.046303"
1,wpluscharm,down,1,-2.4,2.4,100,130,-1,1,"1.003556-0.092859"
1,wpluscharm,down,1,-2.4,2.4,130,160,-1,1,"1.027868-0.173350"
1,wpluscharm,down,1,-2.4,2.4,160,250,-1,1,"1.076389-0.262815"
1,wpluscharm,down_brfrag,1,-2.4,2.4,25,30,-1,1,"0.961196-0.008891"
1,wpluscharm,down_brfrag,1,-2.4,2.4,30,50,-1,1,"0.976439-0.009799"
1,wpluscharm,down_brfrag,1,-2.4,2.4,50,70,-1,1,"0.989626-0.007962"
1,wpluscharm,down_brfrag,1,-2.4,2.4,70,100,-1,1,"0.978722-0.006709"
1,wpluscharm,down_brfrag,1,-2.4,2.4,100,130,-1,1,"1.003556-0.005433"
1,wpluscharm,down_brfrag,1,-2.4,2.4,130,160,-1,1,"1.027868-0.018483"
1,wpluscharm,down_brfrag,1,-2.4,2.4,160,250,-1,1,"1.076389-0.012080"
1,wpluscharm,down_jer,1,-2.4,2.4,25,30,-1,1,"0.961196-0.012556"
1,wpluscharm,down_jer,1,-2.4,2.4,30,50,-1,1,"0.976439-0.000288"
1,wpluscharm,down_jer,1,-2.4,2.4,50,70,-1,1,"0.989626-0.001712"
1,wpluscharm,down_jer,1,-2.4,2.4,70,100,-1,1,"0.978722-0.001048"
1,wpluscharm,down_jer,1,-2.4,2.4,100,130,-1,1,"1.003556-0.002164"
1,wpluscharm,down_jer,1,-2.4,2.4,130,160,-1,1,"1.027868-0.018746"
1,wpluscharm,down_jer,1,-2.4,2.4,160,250,-1,1,"1.076389-0.025824"
1,wpluscharm,down_jes,1,-2.4,2.4,25,30,-1,1,"0.961196-0.013943"
1,wpluscharm,down_jes,1,-2.4,2.4,30,50,-1,1,"0.976439-0.001952"
1,wpluscharm,down_jes,1,-2.4,2.4,50,70,-1,1,"0.989626-0.000111"
1,wpluscharm,down_jes,1,-2.4,2.4,70,100,-1,1,"0.978722-0.008291"
1,wpluscharm,down_jes,1,-2.4,2.4,100,130,-1,1,"1.003556-0.000893"
1,wpluscharm,down_jes,1,-2.4,2.4,130,160,-1,1,"1.027868-0.062022"
1,wpluscharm,down_jes,1,-2.4,2.4,160,250,-1,1,"1.076389-0.015067"
1,wpluscharm,down_muonbr,1,-2.4,2.4,25,30,-1,1,"0.961196-0.001161"
1,wpluscharm,down_muonbr,1,-2.4,2.4,30,50,-1,1,"0.976439-0.000485"
1,wpluscharm,down_muonbr,1,-2.4,2.4,50,70,-1,1,"0.989626-0.003749"
1,wpluscharm,down_muonbr,1,-2.4,2.4,70,100,-1,1,"0.978722-0.008843"
1,wpluscharm,down_muonbr,1,-2.4,2.4,100,130,-1,1,"1.003556-0.010243"
1,wpluscharm,down_muonbr,1,-2.4,2.4,130,160,-1,1,"1.027868-0.002871"
1,wpluscharm,down_muonbr,1,-2.4,2.4,160,250,-1,1,"1.076389-0.016389"
1,wpluscharm,down_ntrack,1,-2.4,2.4,25,30,-1,1,"0.961196-0.000508"
1,wpluscharm,down_ntrack,1,-2.4,2.4,30,50,-1,1,"0.976439-0.004933"
1,wpluscharm,down_ntrack,1,-2.4,2.4,50,70,-1,1,"0.989626-0.008281"
1,wpluscharm,down_ntrack,1,-2.4,2.4,70,100,-1,1,"0.978722-0.008749"
1,wpluscharm,down_ntrack,1,-2.4,2.4,100,130,-1,1,"1.003556-0.022936"
1,wpluscharm,down_ntrack,1,-2.4,2.4,130,160,-1,1,"1.027868-0.023449"
1,wpluscharm,down_ntrack,1,-2.4,2.4,160,250,-1,1,"1.076389-0.025326"
1,wpluscharm,down_osss,1,-2.4,2.4,25,30,-1,1,"0.961196-0.012711"
1,wpluscharm,down_osss,1,-2.4,2.4,30,50,-1,1,"0.976439-0.011301"
1,wpluscharm,down_osss,1,-2.4,2.4,50,70,-1,1,"0.989626-0.011625"
1,wpluscharm,down_osss,1,-2.4,2.4,70,100,-1,1,"0.978722-0.012374"
1,wpluscharm,down_osss,1,-2.4,2.4,100,130,-1,1,"1.003556-0.016100"
1,wpluscharm,down_osss,1,-2.4,2.4,130,160,-1,1,"1.027868-0.025282"
1,wpluscharm,down_osss,1,-2.4,2.4,160,250,-1,1,"1.076389-0.009348"
1,wpluscharm,down_pu,1,-2.4,2.4,25,30,-1,1,"0.961196-0.006445"
1,wpluscharm,down_pu,1,-2.4,2.4,30,50,-1,1,"0.976439-0.002135"
1,wpluscharm,down_pu,1,-2.4,2.4,50,70,-1,1,"0.989626-0.004510"
1,wpluscharm,down_pu,1,-2.4,2.4,70,100,-1,1,"0.978722-0.001907"
1,wpluscharm,down_pu,1,-2.4,2.4,100,130,-1,1,"1.003556-0.000320"
1,wpluscharm,down_pu,1,-2.4,2.4,130,160,-1,1,"1.027868-0.002502"
1,wpluscharm,down_pu,1,-2.4,2.4,160,250,-1,1,"1.076389-0.011150"
1,wpluscharm,down_statistic,1,-2.4,2.4,25,30,-1,1,"0.961196-0.031207"
1,wpluscharm,down_statistic,1,-2.4,2.4,30,50,-1,1,"0.976439-0.017623"
1,wpluscharm,down_statistic,1,-2.4,2.4,50,70,-1,1,"0.989626-0.026857"
1,wpluscharm,down_statistic,1,-2.4,2.4,70,100,-1,1,"0.978722-0.039580"
1,wpluscharm,down_statistic,1,-2.4,2.4,100,130,-1,1,"1.003556-0.086277"
1,wpluscharm,down_statistic,1,-2.4,2.4,130,160,-1,1,"1.027868-0.153976"
1,wpluscharm,down_statistic,1,-2.4,2.4,160,250,-1,1,"1.076389-0.258443"
1,wpluscharm,down_zid,1,-2.4,2.4,25,30,-1,1,"0.961196-0.000002"
1,wpluscharm,down_zid,1,-2.4,2.4,30,50,-1,1,"0.976439-0.000532"
1,wpluscharm,down_zid,1,-2.4,2.4,50,70,-1,1,"0.989626-0.000699"
1,wpluscharm,down_zid,1,-2.4,2.4,70,100,-1,1,"0.978722-0.000569"
1,wpluscharm,down_zid,1,-2.4,2.4,100,130,-1,1,"1.003556-0.000651"
1,wpluscharm,down_zid,1,-2.4,2.4,130,160,-1,1,"1.027868-0.000029"
1,wpluscharm,down_zid,1,-2.4,2.4,160,250,-1,1,"1.076389-0.000098"
1,wpluscharm,up,1,-2.4,2.4,25,30,-1,1,"0.961196+0.041974"
1,wpluscharm,up,1,-2.4,2.4,30,50,-1,1,"0.976439+0.026212"
1,wpluscharm,up,1,-2.4,2.4,50,70,-1,1,"0.989626+0.033969"
1,wpluscharm,up,1,-2.4,2.4,70,100,-1,1,"0.978722+0.046303"
1,wpluscharm,up,1,-2.4,2.4,100,130,-1,1,"1.003556+0.092859"
1,wpluscharm,up,1,-2.4,2.4,130,160,-1,1,"1.027868+0.173350"
1,wpluscharm,up,1,-2.4,2.4,160,250,-1,1,"1.076389+0.262815"
1,wpluscharm,up_brfrag,1,-2.4,2.4,25,30,-1,1,"0.961196+0.008891"
1,wpluscharm,up_brfrag,1,-2.4,2.4,30,50,-1,1,"0.976439+0.009799"
1,wpluscharm,up_brfrag,1,-2.4,2.4,50,70,-1,1,"0.989626+0.007962"
1,wpluscharm,up_brfrag,1,-2.4,2.4,70,100,-1,1,"0.978722+0.006709"
1,wpluscharm,up_brfrag,1,-2.4,2.4,100,130,-1,1,"1.003556+0.005433"
1,wpluscharm,up_brfrag,1,-2.4,2.4,130,160,-1,1,"1.027868+0.018483"
1,wpluscharm,up_brfrag,1,-2.4,2.4,160,250,-1,1,"1.076389+0.012080"
1,wpluscharm,up_jer,1,-2.4,2.4,25,30,-1,1,"0.961196+0.012556"
1,wpluscharm,up_jer,1,-2.4,2.4,30,50,-1,1,"0.976439+0.000288"
1,wpluscharm,up_jer,1,-2.4,2.4,50,70,-1,1,"0.989626+0.001712"
1,wpluscharm,up_jer,1,-2.4,2.4,70,100,-1,1,"0.978722+0.001048"
1,wpluscharm,up_jer,1,-2.4,2.4,100,130,-1,1,"1.003556+0.002164"
1,wpluscharm,up_jer,1,-2.4,2.4,130,160,-1,1,"1.027868+0.018746"
1,wpluscharm,up_jer,1,-2.4,2.4,160,250,-1,1,"1.076389+0.025824"
1,wpluscharm,up_jes,1,-2.4,2.4,25,30,-1,1,"0.961196+0.013943"
1,wpluscharm,up_jes,1,-2.4,2.4,30,50,-1,1,"0.976439+0.001952"
1,wpluscharm,up_jes,1,-2.4,2.4,50,70,-1,1,"0.989626+0.000111"
1,wpluscharm,up_jes,1,-2.4,2.4,70,100,-1,1,"0.978722+0.008291"
1,wpluscharm,up_jes,1,-2.4,2.4,100,130,-1,1,"1.003556+0.000893"
1,wpluscharm,up_jes,1,-2.4,2.4,130,160,-1,1,"1.027868+0.062022"
1,wpluscharm,up_jes,1,-2.4,2.4,160,250,-1,1,"1.076389+0.015067"
1,wpluscharm,up_muonbr,1,-2.4,2.4,25,30,-1,1,"0.961196+0.001161"
1,wpluscharm,up_muonbr,1,-2.4,2.4,30,50,-1,1,"0.976439+0.000485"
1,wpluscharm,up_muonbr,1,-2.4,2.4,50,70,-1,1,"0.989626+0.003749"
1,wpluscharm,up_muonbr,1,-2.4,2.4,70,100,-1,1,"0.978722+0.008843"
1,wpluscharm,up_muonbr,1,-2.4,2.4,100,130,-1,1,"1.003556+0.010243"
1,wpluscharm,up_muonbr,1,-2.4,2.4,130,160,-1,1,"1.027868+0.002871"
1,wpluscharm,up_muonbr,1,-2.4,2.4,160,250,-1,1,"1.076389+0.016389"
1,wpluscharm,up_ntrack,1,-2.4,2.4,25,30,-1,1,"0.961196+0.000508"
1,wpluscharm,up_ntrack,1,-2.4,2.4,30,50,-1,1,"0.976439+0.004933"
1,wpluscharm,up_ntrack,1,-2.4,2.4,50,70,-1,1,"0.989626+0.008281"
1,wpluscharm,up_ntrack,1,-2.4,2.4,70,100,-1,1,"0.978722+0.008749"
1,wpluscharm,up_ntrack,1,-2.4,2.4,100,130,-1,1,"1.003556+0.022936"
1,wpluscharm,up_ntrack,1,-2.4,2.4,130,160,-1,1,"1.027868+0.023449"
1,wpluscharm,up_ntrack,1,-2.4,2.4,160,250,-1,1,"1.076389+0.025326"
1,wpluscharm,up_osss,1,-2.4,2.4,25,30,-1,1,"0.961196+0.012334"
1,wpluscharm,up_osss,1,-2.4,2.4,30,50,-1,1,"0.976439+0.010930"
1,wpluscharm,up_osss,1,-2.4,2.4,50,70,-1,1,"0.989626+0.011298"
1,wpluscharm,up_osss,1,-2.4,2.4,70,100,-1,1,"0.978722+0.012276"
1,wpluscharm,up_osss,1,-2.4,2.4,100,130,-1,1,"1.003556+0.015920"
1,wpluscharm,up_osss,1,-2.4,2.4,130,160,-1,1,"1.027868+0.024462"
1,wpluscharm,up_osss,1,-2.4,2.4,160,250,-1,1,"1.076389+0.010828"
1,wpluscharm,up_pu,1,-2.4,2.4,25,30,-1,1,"0.961196+0.006445"
1,wpluscharm,up_pu,1,-2.4,2.4,30,50,-1,1,"0.976439+0.002135"
1,wpluscharm,up_pu,1,-2.4,2.4,50,70,-1,1,"0.989626+0.004510"
1,wpluscharm,up_pu,1,-2.4,2.4,70,100,-1,1,"0.978722+0.001907"
1,wpluscharm,up_pu,1,-2.4,2.4,100,130,-1,1,"1.003556+0.000320"
1,wpluscharm,up_pu,1,-2.4,2.4,130,160,-1,1,"1.027868+0.002502"
1,wpluscharm,up_pu,1,-2.4,2.4,160,250,-1,1,"1.076389+0.011150"
1,wpluscharm,up_statistic,1,-2.4,2.4,25,30,-1,1,"0.961196+0.031207"
1,wpluscharm,up_statistic,1,-2.4,2.4,30,50,-1,1,"0.976439+0.017623"
1,wpluscharm,up_statistic,1,-2.4,2.4,50,70,-1,1,"0.989626+0.026857"
1,wpluscharm,up_statistic,1,-2.4,2.4,70,100,-1,1,"0.978722+0.039580"
1,wpluscharm,up_statistic,1,-2.4,2.4,100,130,-1,1,"1.003556+0.086277"
1,wpluscharm,up_statistic,1,-2.4,2.4,130,160,-1,1,"1.027868+0.153976"
1,wpluscharm,up_statistic,1,-2.4,2.4,160,250,-1,1,"1.076389+0.258443"
1,wpluscharm,up_zid,1,-2.4,2.4,25,30,-1,1,"0.961196+0.000002"
1,wpluscharm,up_zid,1,-2.4,2.4,30,50,-1,1,"0.976439+0.000532"
1,wpluscharm,up_zid,1,-2.4,2.4,50,70,-1,1,"0.989626+0.000699"
1,wpluscharm,up_zid,1,-2.4,2.4,70,100,-1,1,"0.978722+0.000569"
1,wpluscharm,up_zid,1,-2.4,2.4,100,130,-1,1,"1.003556+0.000651"
1,wpluscharm,up_zid,1,-2.4,2.4,130,160,-1,1,"1.027868+0.000029"
1,wpluscharm,up_zid,1,-2.4,2.4,160,250,-1,1,"1.076389+0.000098"
2,wpluscharm,central,1,-2.4,2.4,25,30,-1,1,"0.922056"
2,wpluscharm,central,1,-2.4,2.4,30,50,-1,1,"0.947750"
2,wpluscharm,central,1,-2.4,2.4,50,70,-1,1,"0.981178"
2,wpluscharm,central,1,-2.4,2.4,70,100,-1,1,"0.946742"
2,wpluscharm,central,1,-2.4,2.4,100,130,-1,1,"0.981483"
2,wpluscharm,central,1,-2.4,2.4,130,160,-1,1,"1.034465"
2,wpluscharm,central,1,-2.4,2.4,160,250,-1,1,"0.897954"
2,wpluscharm,down,1,-2.4,2.4,25,30,-1,1,"0.922056-0.055567"
2,wpluscharm,down,1,-2.4,2.4,30,50,-1,1,"0.947750-0.032305"
2,wpluscharm,down,1,-2.4,2.4,50,70,-1,1,"0.981178-0.041111"
2,wpluscharm,down,1,-2.4,2.4,70,100,-1,1,"0.946742-0.049236"
2,wpluscharm,down,1,-2.4,2.4,100,130,-1,1,"0.981483-0.102520"
2,wpluscharm,down,1,-2.4,2.4,130,160,-1,1,"1.034465-0.197479"
2,wpluscharm,down,1,-2.4,2.4,160,250,-1,1,"0.897954-0.244215"
2,wpluscharm,down_brfrag,1,-2.4,2.4,25,30,-1,1,"0.922056-0.015012"
2,wpluscharm,down_brfrag,1,-2.4,2.4,30,50,-1,1,"0.947750-0.014144"
2,wpluscharm,down_brfrag,1,-2.4,2.4,50,70,-1,1,"0.981178-0.014214"
2,wpluscharm,down_brfrag,1,-2.4,2.4,70,100,-1,1,"0.946742-0.009347"
2,wpluscharm,down_brfrag,1,-2.4,2.4,100,130,-1,1,"0.981483-0.008293"
2,wpluscharm,down_brfrag,1,-2.4,2.4,130,160,-1,1,"1.034465-0.033344"
2,wpluscharm,down_brfrag,1,-2.4,2.4,160,250,-1,1,"0.897954-0.039019"
2,wpluscharm,down_jer,1,-2.4,2.4,25,30,-1,1,"0.922056-0.014080"
2,wpluscharm,down_jer,1,-2.4,2.4,30,50,-1,1,"0.947750-0.000110"
2,wpluscharm,down_jer,1,-2.4,2.4,50,70,-1,1,"0.981178-0.001821"
2,wpluscharm,down_jer,1,-2.4,2.4,70,100,-1,1,"0.946742-0.002568"
2,wpluscharm,down_jer,1,-2.4,2.4,100,130,-1,1,"0.981483-0.001575"
2,wpluscharm,down_jer,1,-2.4,2.4,130,160,-1,1,"1.034465-0.027236"
2,wpluscharm,down_jer,1,-2.4,2.4,160,250,-1,1,"0.897954-0.009971"
2,wpluscharm,down_jes,1,-2.4,2.4,25,30,-1,1,"0.922056-0.030270"
2,wpluscharm,down_jes,1,-2.4,2.4,30,50,-1,1,"0.947750-0.006517"
2,wpluscharm,down_jes,1,-2.4,2.4,50,70,-1,1,"0.981178-0.001455"
2,wpluscharm,down_jes,1,-2.4,2.4,70,100,-1,1,"0.946742-0.002023"
2,wpluscharm,down_jes,1,-2.4,2.4,100,130,-1,1,"0.981483-0.022149"
2,wpluscharm,down_jes,1,-2.4,2.4,130,160,-1,1,"1.034465-0.073510"
2,wpluscharm,down_jes,1,-2.4,2.4,160,250,-1,1,"0.897954-0.001914"
2,wpluscharm,down_muonbr,1,-2.4,2.4,25,30,-1,1,"0.922056-0.000874"
2,wpluscharm,down_muonbr,1,-2.4,2.4,30,50,-1,1,"0.947750-0.000069"
2,wpluscharm,down_muonbr,1,-2.4,2.4,50,70,-1,1,"0.981178-0.003307"
2,wpluscharm,down_muonbr,1,-2.4,2.4,70,100,-1,1,"0.946742-0.011197"
2,wpluscharm,down_muonbr,1,-2.4,2.4,100,130,-1,1,"0.981483-0.006959"
2,wpluscharm,down_muonbr,1,-2.4,2.4,130,160,-1,1,"1.034465-0.008819"
2,wpluscharm,down_muonbr,1,-2.4,2.4,160,250,-1,1,"0.897954-0.016561"
2,wpluscharm,down_ntrack,1,-2.4,2.4,25,30,-1,1,"0.922056-0.005010"
2,wpluscharm,down_ntrack,1,-2.4,2.4,30,50,-1,1,"0.947750-0.006560"
2,wpluscharm,down_ntrack,1,-2.4,2.4,50,70,-1,1,"0.981178-0.013129"
2,wpluscharm,down_ntrack,1,-2.4,2.4,70,100,-1,1,"0.946742-0.011488"
2,wpluscharm,down_ntrack,1,-2.4,2.4,100,130,-1,1,"0.981483-0.026235"
2,wpluscharm,down_ntrack,1,-2.4,2.4,130,160,-1,1,"1.034465-0.047062"
2,wpluscharm,down_ntrack,1,-2.4,2.4,160,250,-1,1,"0.897954-0.047724"
2,wpluscharm,down_osss,1,-2.4,2.4,25,30,-1,1,"0.922056-0.014499"
2,wpluscharm,down_osss,1,-2.4,2.4,30,50,-1,1,"0.947750-0.012507"
2,wpluscharm,down_osss,1,-2.4,2.4,50,70,-1,1,"0.981178-0.014002"
2,wpluscharm,down_osss,1,-2.4,2.4,70,100,-1,1,"0.946742-0.011860"
2,wpluscharm,down_osss,1,-2.4,2.4,100,130,-1,1,"0.981483-0.016162"
2,wpluscharm,down_osss,1,-2.4,2.4,130,160,-1,1,"1.034465-0.025892"
2,wpluscharm,down_osss,1,-2.4,2.4,160,250,-1,1,"0.897954-0.013574"
2,wpluscharm,down_pu,1,-2.4,2.4,25,30,-1,1,"0.922056-0.007633"
2,wpluscharm,down_pu,1,-2.4,2.4,30,50,-1,1,"0.947750-0.008153"
2,wpluscharm,down_pu,1,-2.4,2.4,50,70,-1,1,"0.981178-0.006102"
2,wpluscharm,down_pu,1,-2.4,2.4,70,100,-1,1,"0.946742-0.002418"
2,wpluscharm,down_pu,1,-2.4,2.4,100,130,-1,1,"0.981483-0.002274"
2,wpluscharm,down_pu,1,-2.4,2.4,130,160,-1,1,"1.034465-0.003936"
2,wpluscharm,down_pu,1,-2.4,2.4,160,250,-1,1,"0.897954-0.016749"
2,wpluscharm,down_statistic,1,-2.4,2.4,25,30,-1,1,"0.922056-0.035386"
2,wpluscharm,down_statistic,1,-2.4,2.4,30,50,-1,1,"0.947750-0.019714"
2,wpluscharm,down_statistic,1,-2.4,2.4,50,70,-1,1,"0.981178-0.029715"
2,wpluscharm,down_statistic,1,-2.4,2.4,70,100,-1,1,"0.946742-0.042233"
2,wpluscharm,down_statistic,1,-2.4,2.4,100,130,-1,1,"0.981483-0.093281"
2,wpluscharm,down_statistic,1,-2.4,2.4,130,160,-1,1,"1.034465-0.167821"
2,wpluscharm,down_statistic,1,-2.4,2.4,160,250,-1,1,"0.897954-0.234129"
2,wpluscharm,down_zid,1,-2.4,2.4,25,30,-1,1,"0.922056-0.001163"
2,wpluscharm,down_zid,1,-2.4,2.4,30,50,-1,1,"0.947750-0.000391"
2,wpluscharm,down_zid,1,-2.4,2.4,50,70,-1,1,"0.981178-0.000949"
2,wpluscharm,down_zid,1,-2.4,2.4,70,100,-1,1,"0.946742-0.000751"
2,wpluscharm,down_zid,1,-2.4,2.4,100,130,-1,1,"0.981483-0.000522"
2,wpluscharm,down_zid,1,-2.4,2.4,130,160,-1,1,"1.034465-0.000217"
2,wpluscharm,down_zid,1,-2.4,2.4,160,250,-1,1,"0.897954-0.000976"
2,wpluscharm,up,1,-2.4,2.4,25,30,-1,1,"0.922056+0.055567"
2,wpluscharm,up,1,-2.4,2.4,30,50,-1,1,"0.947750+0.032305"
2,wpluscharm,up,1,-2.4,2.4,50,70,-1,1,"0.981178+0.041111"
2,wpluscharm,up,1,-2.4,2.4,70,100,-1,1,"0.946742+0.049236"
2,wpluscharm,up,1,-2.4,2.4,100,130,-1,1,"0.981483+0.102520"
2,wpluscharm,up,1,-2.4,2.4,130,160,-1,1,"1.034465+0.197479"
2,wpluscharm,up,1,-2.4,2.4,160,250,-1,1,"0.897954+0.244215"
2,wpluscharm,up_brfrag,1,-2.4,2.4,25,30,-1,1,"0.922056+0.015012"
2,wpluscharm,up_brfrag,1,-2.4,2.4,30,50,-1,1,"0.947750+0.014144"
2,wpluscharm,up_brfrag,1,-2.4,2.4,50,70,-1,1,"0.981178+0.014214"
2,wpluscharm,up_brfrag,1,-2.4,2.4,70,100,-1,1,"0.946742+0.009347"
2,wpluscharm,up_brfrag,1,-2.4,2.4,100,130,-1,1,"0.981483+0.008293"
2,wpluscharm,up_brfrag,1,-2.4,2.4,130,160,-1,1,"1.034465+0.033344"
2,wpluscharm,up_brfrag,1,-2.4,2.4,160,250,-1,1,"0.897954+0.039019"
2,wpluscharm,up_jer,1,-2.4,2.4,25,30,-1,1,"0.922056+0.014080"
2,wpluscharm,up_jer,1,-2.4,2.4,30,50,-1,1,"0.947750+0.000110"
2,wpluscharm,up_jer,1,-2.4,2.4,50,70,-1,1,"0.981178+0.001821"
2,wpluscharm,up_jer,1,-2.4,2.4,70,100,-1,1,"0.946742+0.002568"
2,wpluscharm,up_jer,1,-2.4,2.4,100,130,-1,1,"0.981483+0.001575"
2,wpluscharm,up_jer,1,-2.4,2.4,130,160,-1,1,"1.034465+0.027236"
2,wpluscharm,up_jer,1,-2.4,2.4,160,250,-1,1,"0.897954+0.009971"
2,wpluscharm,up_jes,1,-2.4,2.4,25,30,-1,1,"0.922056+0.030270"
2,wpluscharm,up_jes,1,-2.4,2.4,30,50,-1,1,"0.947750+0.006517"
2,wpluscharm,up_jes,1,-2.4,2.4,50,70,-1,1,"0.981178+0.001455"
2,wpluscharm,up_jes,1,-2.4,2.4,70,100,-1,1,"0.946742+0.002023"
2,wpluscharm,up_jes,1,-2.4,2.4,100,130,-1,1,"0.981483+0.022149"
2,wpluscharm,up_jes,1,-2.4,2.4,130,160,-1,1,"1.034465+0.073510"
2,wpluscharm,up_jes,1,-2.4,2.4,160,250,-1,1,"0.897954+0.001914"
2,wpluscharm,up_muonbr,1,-2.4,2.4,25,30,-1,1,"0.922056+0.000874"
2,wpluscharm,up_muonbr,1,-2.4,2.4,30,50,-1,1,"0.947750+0.000069"
2,wpluscharm,up_muonbr,1,-2.4,2.4,50,70,-1,1,"0.981178+0.003307"
2,wpluscharm,up_muonbr,1,-2.4,2.4,70,100,-1,1,"0.946742+0.011197"
2,wpluscharm,up_muonbr,1,-2.4,2.4,100,130,-1,1,"0.981483+0.006959"
2,wpluscharm,up_muonbr,1,-2.4,2.4,130,160,-1,1,"1.034465+0.008819"
2,wpluscharm,up_muonbr,1,-2.4,2.4,160,250,-1,1,"0.897954+0.016561"
2,wpluscharm,up_ntrack,1,-2.4,2.4,25,30,-1,1,"0.922056+0.005010"
2,wpluscharm,up_ntrack,1,-2.4,2.4,30,50,-1,1,"0.947750+0.006560"
2,wpluscharm,up_ntrack,1,-2.4,2.4,50,70,-1,1,"0.981178+0.013129"
2,wpluscharm,up_ntrack,1,-2.4,2.4,70,100,-1,1,"0.946742+0.011488"
2,wpluscharm,up_ntrack,1,-2.4,2.4,100,130,-1,1,"0.981483+0.026235"
2,wpluscharm,up_ntrack,1,-2.4,2.4,130,160,-1,1,"1.034465+0.047062"
2,wpluscharm,up_ntrack,1,-2.4,2.4,160,250,-1,1,"0.897954+0.047724"
2,wpluscharm,up_osss,1,-2.4,2.4,25,30,-1,1,"0.922056+0.014140"
2,wpluscharm,up_osss,1,-2.4,2.4,30,50,-1,1,"0.947750+0.012095"
2,wpluscharm,up_osss,1,-2.4,2.4,50,70,-1,1,"0.981178+0.013497"
2,wpluscharm,up_osss,1,-2.4,2.4,70,100,-1,1,"0.946742+0.011751"
2,wpluscharm,up_osss,1,-2.4,2.4,100,130,-1,1,"0.981483+0.015615"
2,wpluscharm,up_osss,1,-2.4,2.4,130,160,-1,1,"1.034465+0.024458"
2,wpluscharm,up_osss,1,-2.4,2.4,160,250,-1,1,"0.897954+0.013470"
2,wpluscharm,up_pu,1,-2.4,2.4,25,30,-1,1,"0.922056+0.007633"
2,wpluscharm,up_pu,1,-2.4,2.4,30,50,-1,1,"0.947750+0.008153"
2,wpluscharm,up_pu,1,-2.4,2.4,50,70,-1,1,"0.981178+0.006102"
2,wpluscharm,up_pu,1,-2.4,2.4,70,100,-1,1,"0.946742+0.002418"
2,wpluscharm,up_pu,1,-2.4,2.4,100,130,-1,1,"0.981483+0.002274"
2,wpluscharm,up_pu,1,-2.4,2.4,130,160,-1,1,"1.034465+0.003936"
2,wpluscharm,up_pu,1,-2.4,2.4,160,250,-1,1,"0.897954+0.016749"
2,wpluscharm,up_statistic,1,-2.4,2.4,25,30,-1,1,"0.922056+0.035386"
2,wpluscharm,up_statistic,1,-2.4,2.4,30,50,-1,1,"0.947750+0.019714"
2,wpluscharm,up_statistic,1,-2.4,2.4,50,70,-1,1,"0.981178+0.029715"
2,wpluscharm,up_statistic,1,-2.4,2.4,70,100,-1,1,"0.946742+0.042233"
2,wpluscharm,up_statistic,1,-2.4,2.4,100,130,-1,1,"0.981483+0.093281"
2,wpluscharm,up_statistic,1,-2.4,2.4,130,160,-1,1,"1.034465+0.167821"
2,wpluscharm,up_statistic,1,-2.4,2.4,160,250,-1,1,"0.897954+0.234129"
2,wpluscharm,up_zid,1,-2.4,2.4,25,30,-1,1,"0.922056+0.001163"
2,wpluscharm,up_zid,1,-2.4,2.4,30,50,-1,1,"0.947750+0.000391"
2,wpluscharm,up_zid,1,-2.4,2.4,50,70,-1,1,"0.981178+0.000949"
2,wpluscharm,up_zid,1,-2.4,2.4,70,100,-1,1,"0.946742+0.000751"
2,wpluscharm,up_zid,1,-2.4,2.4,100,130,-1,1,"0.981483+0.000522"
2,wpluscharm,up_zid,1,-2.4,2.4,130,160,-1,1,"1.034465+0.000217"
2,wpluscharm,up_zid,1,-2.4,2.4,160,250,-1,1,"0.897954+0.000976"
