DeepJet;OperatingPoint,measurementType,sysType,jetFlavor,etaMin,etaMax,ptMin,ptMax,discrMin,discrMax,formula
0,comb,central,1,-2.5,2.5,20,1000,0,1,"1.0007*(1.+0.000290434*x)/(1.+0.000349262*x)"
0,comb,central,0,-2.5,2.5,20,1000,0,1,"1.0007*(1.+0.000290434*x)/(1.+0.000349262*x)"
0,comb,down,1,-2.5,2.5,20,30,0,1,"1.0007*(1.+0.000290434*x)/(1.+0.000349262*x)-0.036870192736387253"
0,comb,down,1,-2.5,2.5,30,50,0,1,"1.0007*(1.+0.000290434*x)/(1.+0.000349262*x)-0.018523497506976128"
0,comb,down,1,-2.5,2.5,50,70,0,1,"1.0007*(1.+0.000290434*x)/(1.+0.000349262*x)-0.026087731122970581"
0,comb,down,1,-2.5,2.5,70,100,0,1,"1.0007*(1.+0.000290434*x)/(1.+0.000349262*x)-0.021970339119434357"
0,comb,down,1,-2.5,2.5,100,140,0,1,"1.0007*(1.+0.000290434*x)/(1.+0.000349262*x)-0.021595878526568413"
0,comb,down,1,-2.5,2.5,140,200,0,1,"1.0007*(1.+0.000290434*x)/(1.+0.000349262*x)-0.021700587123632431"
0,comb,down,1,-2.5,2.5,200,300,0,1,"1.0007*(1.+0.000290434*x)/(1.+0.000349262*x)-0.036243773996829987"
0,comb,down,1,-2.5,2.5,300,600,0,1,"1.0007*(1.+0.000290434*x)/(1.+0.000349262*x)-0.1063893660902977"
0,comb,down,1,-2.5,2.5,600,1000,0,1,"1.0007*(1.+0.000290434*x)/(1.+0.000349262*x)-0.12296096235513687"
0,comb,down,0,-2.5,2.5,20,30,0,1,"1.0007*(1.+0.000290434*x)/(1.+0.000349262*x)-0.014748076908290386"
0,comb,down,0,-2.5,2.5,30,50,0,1,"1.0007*(1.+0.000290434*x)/(1.+0.000349262*x)-0.0074093989096581936"
0,comb,down,0,-2.5,2.5,50,70,0,1,"1.0007*(1.+0.000290434*x)/(1.+0.000349262*x)-0.010435092262923717"
0,comb,down,0,-2.5,2.5,70,100,0,1,"1.0007*(1.+0.000290434*x)/(1.+0.000349262*x)-0.0087881358340382576"
0,comb,down,0,-2.5,2.5,100,140,0,1,"1.0007*(1.+0.000290434*x)/(1.+0.000349262*x)-0.0086383512243628502"
0,comb,down,0,-2.5,2.5,140,200,0,1,"1.0007*(1.+0.000290434*x)/(1.+0.000349262*x)-0.0086802346631884575"
0,comb,down,0,-2.5,2.5,200,300,0,1,"1.0007*(1.+0.000290434*x)/(1.+0.000349262*x)-0.014497509226202965"
0,comb,down,0,-2.5,2.5,300,600,0,1,"1.0007*(1.+0.000290434*x)/(1.+0.000349262*x)-0.04255574569106102"
0,comb,down,0,-2.5,2.5,600,1000,0,1,"1.0007*(1.+0.000290434*x)/(1.+0.000349262*x)-0.049184385687112808"
0,comb,down_correlated,1,-2.5,2.5,100,140,0,1,"1.0007*(1.+0.000290434*x)/(1.+0.000349262*x)-0.0145890774263"
0,comb,down_correlated,1,-2.5,2.5,70,100,0,1,"1.0007*(1.+0.000290434*x)/(1.+0.000349262*x)-0.0170940772878"
0,comb,down_correlated,1,-2.5,2.5,200,300,0,1,"1.0007*(1.+0.000290434*x)/(1.+0.000349262*x)-0.0222588120198"
0,comb,down_correlated,1,-2.5,2.5,300,600,0,1,"1.0007*(1.+0.000290434*x)/(1.+0.000349262*x)-0.0988054814681"
0,comb,down_correlated,1,-2.5,2.5,140,200,0,1,"1.0007*(1.+0.000290434*x)/(1.+0.000349262*x)-0.00991740081993"
0,comb,down_correlated,1,-2.5,2.5,50,70,0,1,"1.0007*(1.+0.000290434*x)/(1.+0.000349262*x)-0.0213775117621"
0,comb,down_correlated,1,-2.5,2.5,20,30,0,1,"1.0007*(1.+0.000290434*x)/(1.+0.000349262*x)-0.0291803493567"
0,comb,down_correlated,1,-2.5,2.5,600,1000,0,1,"1.0007*(1.+0.000290434*x)/(1.+0.000349262*x)-0.112667201177"
0,comb,down_correlated,1,-2.5,2.5,30,50,0,1,"1.0007*(1.+0.000290434*x)/(1.+0.000349262*x)-0.0130822947456"
0,comb,down_correlated,0,-2.5,2.5,100,140,0,1,"1.0007*(1.+0.000290434*x)/(1.+0.000349262*x)-0.00583563069093"
0,comb,down_correlated,0,-2.5,2.5,70,100,0,1,"1.0007*(1.+0.000290434*x)/(1.+0.000349262*x)-0.00683763115277"
0,comb,down_correlated,0,-2.5,2.5,200,300,0,1,"1.0007*(1.+0.000290434*x)/(1.+0.000349262*x)-0.00890352382858"
0,comb,down_correlated,0,-2.5,2.5,300,600,0,1,"1.0007*(1.+0.000290434*x)/(1.+0.000349262*x)-0.0395221914946"
0,comb,down_correlated,0,-2.5,2.5,140,200,0,1,"1.0007*(1.+0.000290434*x)/(1.+0.000349262*x)-0.00396696039152"
0,comb,down_correlated,0,-2.5,2.5,50,70,0,1,"1.0007*(1.+0.000290434*x)/(1.+0.000349262*x)-0.00855100454055"
0,comb,down_correlated,0,-2.5,2.5,20,30,0,1,"1.0007*(1.+0.000290434*x)/(1.+0.000349262*x)-0.0116721395546"
0,comb,down_correlated,0,-2.5,2.5,600,1000,0,1,"1.0007*(1.+0.000290434*x)/(1.+0.000349262*x)-0.0450668814457"
0,comb,down_correlated,0,-2.5,2.5,30,50,0,1,"1.0007*(1.+0.000290434*x)/(1.+0.000349262*x)-0.00523291795288"
0,comb,down_uncorrelated,1,-2.5,2.5,100,140,0,1,"1.0007*(1.+0.000290434*x)/(1.+0.000349262*x)-0.0159229642085"
0,comb,down_uncorrelated,1,-2.5,2.5,70,100,0,1,"1.0007*(1.+0.000290434*x)/(1.+0.000349262*x)-0.0138017507115"
0,comb,down_uncorrelated,1,-2.5,2.5,200,300,0,1,"1.0007*(1.+0.000290434*x)/(1.+0.000349262*x)-0.0286034340771"
0,comb,down_uncorrelated,1,-2.5,2.5,300,600,0,1,"1.0007*(1.+0.000290434*x)/(1.+0.000349262*x)-0.0394483719429"
0,comb,down_uncorrelated,1,-2.5,2.5,140,200,0,1,"1.0007*(1.+0.000290434*x)/(1.+0.000349262*x)-0.0193018300295"
0,comb,down_uncorrelated,1,-2.5,2.5,50,70,0,1,"1.0007*(1.+0.000290434*x)/(1.+0.000349262*x)-0.014952314403"
0,comb,down_uncorrelated,1,-2.5,2.5,20,30,0,1,"1.0007*(1.+0.000290434*x)/(1.+0.000349262*x)-0.0225370433695"
0,comb,down_uncorrelated,1,-2.5,2.5,600,1000,0,1,"1.0007*(1.+0.000290434*x)/(1.+0.000349262*x)-0.0492493659068"
0,comb,down_uncorrelated,1,-2.5,2.5,30,50,0,1,"1.0007*(1.+0.000290434*x)/(1.+0.000349262*x)-0.0131138676247"
0,comb,down_uncorrelated,0,-2.5,2.5,100,140,0,1,"1.0007*(1.+0.000290434*x)/(1.+0.000349262*x)-0.00636918568693"
0,comb,down_uncorrelated,0,-2.5,2.5,70,100,0,1,"1.0007*(1.+0.000290434*x)/(1.+0.000349262*x)-0.00552070028676"
0,comb,down_uncorrelated,0,-2.5,2.5,200,300,0,1,"1.0007*(1.+0.000290434*x)/(1.+0.000349262*x)-0.0114413739209"
0,comb,down_uncorrelated,0,-2.5,2.5,300,600,0,1,"1.0007*(1.+0.000290434*x)/(1.+0.000349262*x)-0.0157793495046"
0,comb,down_uncorrelated,0,-2.5,2.5,140,200,0,1,"1.0007*(1.+0.000290434*x)/(1.+0.000349262*x)-0.00772073176973"
0,comb,down_uncorrelated,0,-2.5,2.5,50,70,0,1,"1.0007*(1.+0.000290434*x)/(1.+0.000349262*x)-0.0059809256711"
0,comb,down_uncorrelated,0,-2.5,2.5,20,30,0,1,"1.0007*(1.+0.000290434*x)/(1.+0.000349262*x)-0.00901481728659"
0,comb,down_uncorrelated,0,-2.5,2.5,600,1000,0,1,"1.0007*(1.+0.000290434*x)/(1.+0.000349262*x)-0.0196997459927"
0,comb,down_uncorrelated,0,-2.5,2.5,30,50,0,1,"1.0007*(1.+0.000290434*x)/(1.+0.000349262*x)-0.00524554686386"
0,comb,up,1,-2.5,2.5,20,30,0,1,"1.0007*(1.+0.000290434*x)/(1.+0.000349262*x)+0.036870192736387253"
0,comb,up,1,-2.5,2.5,30,50,0,1,"1.0007*(1.+0.000290434*x)/(1.+0.000349262*x)+0.018523497506976128"
0,comb,up,1,-2.5,2.5,50,70,0,1,"1.0007*(1.+0.000290434*x)/(1.+0.000349262*x)+0.026087731122970581"
0,comb,up,1,-2.5,2.5,70,100,0,1,"1.0007*(1.+0.000290434*x)/(1.+0.000349262*x)+0.021970339119434357"
0,comb,up,1,-2.5,2.5,100,140,0,1,"1.0007*(1.+0.000290434*x)/(1.+0.000349262*x)+0.021595878526568413"
0,comb,up,1,-2.5,2.5,140,200,0,1,"1.0007*(1.+0.000290434*x)/(1.+0.000349262*x)+0.021700587123632431"
0,comb,up,1,-2.5,2.5,200,300,0,1,"1.0007*(1.+0.000290434*x)/(1.+0.000349262*x)+0.036243773996829987"
0,comb,up,1,-2.5,2.5,300,600,0,1,"1.0007*(1.+0.000290434*x)/(1.+0.000349262*x)+0.1063893660902977"
0,comb,up,1,-2.5,2.5,600,1000,0,1,"1.0007*(1.+0.000290434*x)/(1.+0.000349262*x)+0.12296096235513687"
0,comb,up,0,-2.5,2.5,20,30,0,1,"1.0007*(1.+0.000290434*x)/(1.+0.000349262*x)+0.014748076908290386"
0,comb,up,0,-2.5,2.5,30,50,0,1,"1.0007*(1.+0.000290434*x)/(1.+0.000349262*x)+0.0074093989096581936"
0,comb,up,0,-2.5,2.5,50,70,0,1,"1.0007*(1.+0.000290434*x)/(1.+0.000349262*x)+0.010435092262923717"
0,comb,up,0,-2.5,2.5,70,100,0,1,"1.0007*(1.+0.000290434*x)/(1.+0.000349262*x)+0.0087881358340382576"
0,comb,up,0,-2.5,2.5,100,140,0,1,"1.0007*(1.+0.000290434*x)/(1.+0.000349262*x)+0.0086383512243628502"
0,comb,up,0,-2.5,2.5,140,200,0,1,"1.0007*(1.+0.000290434*x)/(1.+0.000349262*x)+0.0086802346631884575"
0,comb,up,0,-2.5,2.5,200,300,0,1,"1.0007*(1.+0.000290434*x)/(1.+0.000349262*x)+0.014497509226202965"
0,comb,up,0,-2.5,2.5,300,600,0,1,"1.0007*(1.+0.000290434*x)/(1.+0.000349262*x)+0.04255574569106102"
0,comb,up,0,-2.5,2.5,600,1000,0,1,"1.0007*(1.+0.000290434*x)/(1.+0.000349262*x)+0.049184385687112808"
0,comb,up_correlated,1,-2.5,2.5,100,140,0,1,"1.0007*(1.+0.000290434*x)/(1.+0.000349262*x)+0.0145890774263"
0,comb,up_correlated,1,-2.5,2.5,70,100,0,1,"1.0007*(1.+0.000290434*x)/(1.+0.000349262*x)+0.0170940772878"
0,comb,up_correlated,1,-2.5,2.5,200,300,0,1,"1.0007*(1.+0.000290434*x)/(1.+0.000349262*x)+0.0222588120198"
0,comb,up_correlated,1,-2.5,2.5,300,600,0,1,"1.0007*(1.+0.000290434*x)/(1.+0.000349262*x)+0.0988054814681"
0,comb,up_correlated,1,-2.5,2.5,140,200,0,1,"1.0007*(1.+0.000290434*x)/(1.+0.000349262*x)+0.00991740081993"
0,comb,up_correlated,1,-2.5,2.5,50,70,0,1,"1.0007*(1.+0.000290434*x)/(1.+0.000349262*x)+0.0213775117621"
0,comb,up_correlated,1,-2.5,2.5,20,30,0,1,"1.0007*(1.+0.000290434*x)/(1.+0.000349262*x)+0.0291803493567"
0,comb,up_correlated,1,-2.5,2.5,600,1000,0,1,"1.0007*(1.+0.000290434*x)/(1.+0.000349262*x)+0.112667201177"
0,comb,up_correlated,1,-2.5,2.5,30,50,0,1,"1.0007*(1.+0.000290434*x)/(1.+0.000349262*x)+0.0130822947456"
0,comb,up_correlated,0,-2.5,2.5,100,140,0,1,"1.0007*(1.+0.000290434*x)/(1.+0.000349262*x)+0.00583563069093"
0,comb,up_correlated,0,-2.5,2.5,70,100,0,1,"1.0007*(1.+0.000290434*x)/(1.+0.000349262*x)+0.00683763115277"
0,comb,up_correlated,0,-2.5,2.5,200,300,0,1,"1.0007*(1.+0.000290434*x)/(1.+0.000349262*x)+0.00890352382858"
0,comb,up_correlated,0,-2.5,2.5,300,600,0,1,"1.0007*(1.+0.000290434*x)/(1.+0.000349262*x)+0.0395221914946"
0,comb,up_correlated,0,-2.5,2.5,140,200,0,1,"1.0007*(1.+0.000290434*x)/(1.+0.000349262*x)+0.00396696039152"
0,comb,up_correlated,0,-2.5,2.5,50,70,0,1,"1.0007*(1.+0.000290434*x)/(1.+0.000349262*x)+0.00855100454055"
0,comb,up_correlated,0,-2.5,2.5,20,30,0,1,"1.0007*(1.+0.000290434*x)/(1.+0.000349262*x)+0.0116721395546"
0,comb,up_correlated,0,-2.5,2.5,600,1000,0,1,"1.0007*(1.+0.000290434*x)/(1.+0.000349262*x)+0.0450668814457"
0,comb,up_correlated,0,-2.5,2.5,30,50,0,1,"1.0007*(1.+0.000290434*x)/(1.+0.000349262*x)+0.00523291795288"
0,comb,up_uncorrelated,1,-2.5,2.5,100,140,0,1,"1.0007*(1.+0.000290434*x)/(1.+0.000349262*x)+0.0159229642085"
0,comb,up_uncorrelated,1,-2.5,2.5,70,100,0,1,"1.0007*(1.+0.000290434*x)/(1.+0.000349262*x)+0.0138017507115"
0,comb,up_uncorrelated,1,-2.5,2.5,200,300,0,1,"1.0007*(1.+0.000290434*x)/(1.+0.000349262*x)+0.0286034340771"
0,comb,up_uncorrelated,1,-2.5,2.5,300,600,0,1,"1.0007*(1.+0.000290434*x)/(1.+0.000349262*x)+0.0394483719429"
0,comb,up_uncorrelated,1,-2.5,2.5,140,200,0,1,"1.0007*(1.+0.000290434*x)/(1.+0.000349262*x)+0.0193018300295"
0,comb,up_uncorrelated,1,-2.5,2.5,50,70,0,1,"1.0007*(1.+0.000290434*x)/(1.+0.000349262*x)+0.014952314403"
0,comb,up_uncorrelated,1,-2.5,2.5,20,30,0,1,"1.0007*(1.+0.000290434*x)/(1.+0.000349262*x)+0.0225370433695"
0,comb,up_uncorrelated,1,-2.5,2.5,600,1000,0,1,"1.0007*(1.+0.000290434*x)/(1.+0.000349262*x)+0.0492493659068"
0,comb,up_uncorrelated,1,-2.5,2.5,30,50,0,1,"1.0007*(1.+0.000290434*x)/(1.+0.000349262*x)+0.0131138676247"
0,comb,up_uncorrelated,0,-2.5,2.5,100,140,0,1,"1.0007*(1.+0.000290434*x)/(1.+0.000349262*x)+0.00636918568693"
0,comb,up_uncorrelated,0,-2.5,2.5,70,100,0,1,"1.0007*(1.+0.000290434*x)/(1.+0.000349262*x)+0.00552070028676"
0,comb,up_uncorrelated,0,-2.5,2.5,200,300,0,1,"1.0007*(1.+0.000290434*x)/(1.+0.000349262*x)+0.0114413739209"
0,comb,up_uncorrelated,0,-2.5,2.5,300,600,0,1,"1.0007*(1.+0.000290434*x)/(1.+0.000349262*x)+0.0157793495046"
0,comb,up_uncorrelated,0,-2.5,2.5,140,200,0,1,"1.0007*(1.+0.000290434*x)/(1.+0.000349262*x)+0.00772073176973"
0,comb,up_uncorrelated,0,-2.5,2.5,50,70,0,1,"1.0007*(1.+0.000290434*x)/(1.+0.000349262*x)+0.0059809256711"
0,comb,up_uncorrelated,0,-2.5,2.5,20,30,0,1,"1.0007*(1.+0.000290434*x)/(1.+0.000349262*x)+0.00901481728659"
0,comb,up_uncorrelated,0,-2.5,2.5,600,1000,0,1,"1.0007*(1.+0.000290434*x)/(1.+0.000349262*x)+0.0196997459927"
0,comb,up_uncorrelated,0,-2.5,2.5,30,50,0,1,"1.0007*(1.+0.000290434*x)/(1.+0.000349262*x)+0.00524554686386"
0,mujets,central,1,-2.5,2.5,20,1000,0,1,"1.00637*(1.+0.00794967*x)/(1.+0.00820919*x)"
0,mujets,central,0,-2.5,2.5,20,1000,0,1,"1.00637*(1.+0.00794967*x)/(1.+0.00820919*x)"
0,mujets,down,1,-2.5,2.5,20,30,0,1,"1.00637*(1.+0.00794967*x)/(1.+0.00820919*x)-0.037244446575641632"
0,mujets,down,1,-2.5,2.5,30,50,0,1,"1.00637*(1.+0.00794967*x)/(1.+0.00820919*x)-0.019818004220724106"
0,mujets,down,1,-2.5,2.5,50,70,0,1,"1.00637*(1.+0.00794967*x)/(1.+0.00820919*x)-0.029683832079172134"
0,mujets,down,1,-2.5,2.5,70,100,0,1,"1.00637*(1.+0.00794967*x)/(1.+0.00820919*x)-0.027753954753279686"
0,mujets,down,1,-2.5,2.5,100,140,0,1,"1.00637*(1.+0.00794967*x)/(1.+0.00820919*x)-0.046425852924585342"
0,mujets,down,1,-2.5,2.5,140,200,0,1,"1.00637*(1.+0.00794967*x)/(1.+0.00820919*x)-0.069903790950775146"
0,mujets,down,1,-2.5,2.5,200,300,0,1,"1.00637*(1.+0.00794967*x)/(1.+0.00820919*x)-0.076427489519119263"
0,mujets,down,1,-2.5,2.5,300,600,0,1,"1.00637*(1.+0.00794967*x)/(1.+0.00820919*x)-0.1151837483048439"
0,mujets,down,1,-2.5,2.5,600,1000,0,1,"1.00637*(1.+0.00794967*x)/(1.+0.00820919*x)-0.125414177775383"
0,mujets,down,0,-2.5,2.5,20,30,0,1,"1.00637*(1.+0.00794967*x)/(1.+0.00820919*x)-0.014897778630256653"
0,mujets,down,0,-2.5,2.5,30,50,0,1,"1.00637*(1.+0.00794967*x)/(1.+0.00820919*x)-0.0079272016882896423"
0,mujets,down,0,-2.5,2.5,50,70,0,1,"1.00637*(1.+0.00794967*x)/(1.+0.00820919*x)-0.011873533017933369"
0,mujets,down,0,-2.5,2.5,70,100,0,1,"1.00637*(1.+0.00794967*x)/(1.+0.00820919*x)-0.011101582087576389"
0,mujets,down,0,-2.5,2.5,100,140,0,1,"1.00637*(1.+0.00794967*x)/(1.+0.00820919*x)-0.018570341169834137"
0,mujets,down,0,-2.5,2.5,140,200,0,1,"1.00637*(1.+0.00794967*x)/(1.+0.00820919*x)-0.027961514890193939"
0,mujets,down,0,-2.5,2.5,200,300,0,1,"1.00637*(1.+0.00794967*x)/(1.+0.00820919*x)-0.030570995062589645"
0,mujets,down,0,-2.5,2.5,300,600,0,1,"1.00637*(1.+0.00794967*x)/(1.+0.00820919*x)-0.046073500066995621"
0,mujets,down,0,-2.5,2.5,600,1000,0,1,"1.00637*(1.+0.00794967*x)/(1.+0.00820919*x)-0.050165671855211258"
0,mujets,down_correlated,1,-2.5,2.5,100,140,0,1,"1.00637*(1.+0.00794967*x)/(1.+0.00820919*x)-0.0435106363889"
0,mujets,down_correlated,1,-2.5,2.5,70,100,0,1,"1.00637*(1.+0.00794967*x)/(1.+0.00820919*x)-0.0248743230585"
0,mujets,down_correlated,1,-2.5,2.5,200,300,0,1,"1.00637*(1.+0.00794967*x)/(1.+0.00820919*x)-0.0701021425982"
0,mujets,down_correlated,1,-2.5,2.5,300,600,0,1,"1.00637*(1.+0.00794967*x)/(1.+0.00820919*x)-0.1078448159"
0,mujets,down_correlated,1,-2.5,2.5,140,200,0,1,"1.00637*(1.+0.00794967*x)/(1.+0.00820919*x)-0.0670121598981"
0,mujets,down_correlated,1,-2.5,2.5,50,70,0,1,"1.00637*(1.+0.00794967*x)/(1.+0.00820919*x)-0.0262760543756"
0,mujets,down_correlated,1,-2.5,2.5,20,30,0,1,"1.00637*(1.+0.00794967*x)/(1.+0.00820919*x)-0.0296133441367"
0,mujets,down_correlated,1,-2.5,2.5,600,1000,0,1,"1.00637*(1.+0.00794967*x)/(1.+0.00820919*x)-0.115064839204"
0,mujets,down_correlated,1,-2.5,2.5,30,50,0,1,"1.00637*(1.+0.00794967*x)/(1.+0.00820919*x)-0.014737254011"
0,mujets,down_correlated,0,-2.5,2.5,100,140,0,1,"1.00637*(1.+0.00794967*x)/(1.+0.00820919*x)-0.01740425458"
0,mujets,down_correlated,0,-2.5,2.5,70,100,0,1,"1.00637*(1.+0.00794967*x)/(1.+0.00820919*x)-0.00994972938683"
0,mujets,down_correlated,0,-2.5,2.5,200,300,0,1,"1.00637*(1.+0.00794967*x)/(1.+0.00820919*x)-0.0280408563066"
0,mujets,down_correlated,0,-2.5,2.5,300,600,0,1,"1.00637*(1.+0.00794967*x)/(1.+0.00820919*x)-0.0431379268741"
0,mujets,down_correlated,0,-2.5,2.5,140,200,0,1,"1.00637*(1.+0.00794967*x)/(1.+0.00820919*x)-0.0268048623236"
0,mujets,down_correlated,0,-2.5,2.5,50,70,0,1,"1.00637*(1.+0.00794967*x)/(1.+0.00820919*x)-0.0105104220587"
0,mujets,down_correlated,0,-2.5,2.5,20,30,0,1,"1.00637*(1.+0.00794967*x)/(1.+0.00820919*x)-0.0118453375185"
0,mujets,down_correlated,0,-2.5,2.5,600,1000,0,1,"1.00637*(1.+0.00794967*x)/(1.+0.00820919*x)-0.0460259368183"
0,mujets,down_correlated,0,-2.5,2.5,30,50,0,1,"1.00637*(1.+0.00794967*x)/(1.+0.00820919*x)-0.00589490160412"
0,mujets,down_uncorrelated,1,-2.5,2.5,100,140,0,1,"1.00637*(1.+0.00794967*x)/(1.+0.00820919*x)-0.0161921073616"
0,mujets,down_uncorrelated,1,-2.5,2.5,70,100,0,1,"1.00637*(1.+0.00794967*x)/(1.+0.00820919*x)-0.0123105668768"
0,mujets,down_uncorrelated,1,-2.5,2.5,200,300,0,1,"1.00637*(1.+0.00794967*x)/(1.+0.00820919*x)-0.0304442237106"
0,mujets,down_uncorrelated,1,-2.5,2.5,300,600,0,1,"1.00637*(1.+0.00794967*x)/(1.+0.00820919*x)-0.0404572806434"
0,mujets,down_uncorrelated,1,-2.5,2.5,140,200,0,1,"1.00637*(1.+0.00794967*x)/(1.+0.00820919*x)-0.0198974977092"
0,mujets,down_uncorrelated,1,-2.5,2.5,50,70,0,1,"1.00637*(1.+0.00794967*x)/(1.+0.00820919*x)-0.0138093755599"
0,mujets,down_uncorrelated,1,-2.5,2.5,20,30,0,1,"1.00637*(1.+0.00794967*x)/(1.+0.00820919*x)-0.0225875773329"
0,mujets,down_uncorrelated,1,-2.5,2.5,600,1000,0,1,"1.00637*(1.+0.00794967*x)/(1.+0.00820919*x)-0.0498878619101"
0,mujets,down_uncorrelated,1,-2.5,2.5,30,50,0,1,"1.00637*(1.+0.00794967*x)/(1.+0.00820919*x)-0.013250156056"
0,mujets,down_uncorrelated,0,-2.5,2.5,100,140,0,1,"1.00637*(1.+0.00794967*x)/(1.+0.00820919*x)-0.00647684287899"
0,mujets,down_uncorrelated,0,-2.5,2.5,70,100,0,1,"1.00637*(1.+0.00794967*x)/(1.+0.00820919*x)-0.00492422684042"
0,mujets,down_uncorrelated,0,-2.5,2.5,200,300,0,1,"1.00637*(1.+0.00794967*x)/(1.+0.00820919*x)-0.0121776893008"
0,mujets,down_uncorrelated,0,-2.5,2.5,300,600,0,1,"1.00637*(1.+0.00794967*x)/(1.+0.00820919*x)-0.016182913008"
0,mujets,down_uncorrelated,0,-2.5,2.5,140,200,0,1,"1.00637*(1.+0.00794967*x)/(1.+0.00820919*x)-0.00795899935712"
0,mujets,down_uncorrelated,0,-2.5,2.5,50,70,0,1,"1.00637*(1.+0.00794967*x)/(1.+0.00820919*x)-0.00552375003736"
0,mujets,down_uncorrelated,0,-2.5,2.5,20,30,0,1,"1.00637*(1.+0.00794967*x)/(1.+0.00820919*x)-0.00903503111173"
0,mujets,down_uncorrelated,0,-2.5,2.5,600,1000,0,1,"1.00637*(1.+0.00794967*x)/(1.+0.00820919*x)-0.0199551440157"
0,mujets,down_uncorrelated,0,-2.5,2.5,30,50,0,1,"1.00637*(1.+0.00794967*x)/(1.+0.00820919*x)-0.00530006242271"
0,mujets,up,1,-2.5,2.5,20,30,0,1,"1.00637*(1.+0.00794967*x)/(1.+0.00820919*x)+0.037244446575641632"
0,mujets,up,1,-2.5,2.5,30,50,0,1,"1.00637*(1.+0.00794967*x)/(1.+0.00820919*x)+0.019818004220724106"
0,mujets,up,1,-2.5,2.5,50,70,0,1,"1.00637*(1.+0.00794967*x)/(1.+0.00820919*x)+0.029683832079172134"
0,mujets,up,1,-2.5,2.5,70,100,0,1,"1.00637*(1.+0.00794967*x)/(1.+0.00820919*x)+0.027753954753279686"
0,mujets,up,1,-2.5,2.5,100,140,0,1,"1.00637*(1.+0.00794967*x)/(1.+0.00820919*x)+0.046425852924585342"
0,mujets,up,1,-2.5,2.5,140,200,0,1,"1.00637*(1.+0.00794967*x)/(1.+0.00820919*x)+0.069903790950775146"
0,mujets,up,1,-2.5,2.5,200,300,0,1,"1.00637*(1.+0.00794967*x)/(1.+0.00820919*x)+0.076427489519119263"
0,mujets,up,1,-2.5,2.5,300,600,0,1,"1.00637*(1.+0.00794967*x)/(1.+0.00820919*x)+0.1151837483048439"
0,mujets,up,1,-2.5,2.5,600,1000,0,1,"1.00637*(1.+0.00794967*x)/(1.+0.00820919*x)+0.125414177775383"
0,mujets,up,0,-2.5,2.5,20,30,0,1,"1.00637*(1.+0.00794967*x)/(1.+0.00820919*x)+0.014897778630256653"
0,mujets,up,0,-2.5,2.5,30,50,0,1,"1.00637*(1.+0.00794967*x)/(1.+0.00820919*x)+0.0079272016882896423"
0,mujets,up,0,-2.5,2.5,50,70,0,1,"1.00637*(1.+0.00794967*x)/(1.+0.00820919*x)+0.011873533017933369"
0,mujets,up,0,-2.5,2.5,70,100,0,1,"1.00637*(1.+0.00794967*x)/(1.+0.00820919*x)+0.011101582087576389"
0,mujets,up,0,-2.5,2.5,100,140,0,1,"1.00637*(1.+0.00794967*x)/(1.+0.00820919*x)+0.018570341169834137"
0,mujets,up,0,-2.5,2.5,140,200,0,1,"1.00637*(1.+0.00794967*x)/(1.+0.00820919*x)+0.027961514890193939"
0,mujets,up,0,-2.5,2.5,200,300,0,1,"1.00637*(1.+0.00794967*x)/(1.+0.00820919*x)+0.030570995062589645"
0,mujets,up,0,-2.5,2.5,300,600,0,1,"1.00637*(1.+0.00794967*x)/(1.+0.00820919*x)+0.046073500066995621"
0,mujets,up,0,-2.5,2.5,600,1000,0,1,"1.00637*(1.+0.00794967*x)/(1.+0.00820919*x)+0.050165671855211258"
0,mujets,up_correlated,1,-2.5,2.5,100,140,0,1,"1.00637*(1.+0.00794967*x)/(1.+0.00820919*x)+0.0435106363889"
0,mujets,up_correlated,1,-2.5,2.5,70,100,0,1,"1.00637*(1.+0.00794967*x)/(1.+0.00820919*x)+0.0248743230585"
0,mujets,up_correlated,1,-2.5,2.5,200,300,0,1,"1.00637*(1.+0.00794967*x)/(1.+0.00820919*x)+0.0701021425982"
0,mujets,up_correlated,1,-2.5,2.5,300,600,0,1,"1.00637*(1.+0.00794967*x)/(1.+0.00820919*x)+0.1078448159"
0,mujets,up_correlated,1,-2.5,2.5,140,200,0,1,"1.00637*(1.+0.00794967*x)/(1.+0.00820919*x)+0.0670121598981"
0,mujets,up_correlated,1,-2.5,2.5,50,70,0,1,"1.00637*(1.+0.00794967*x)/(1.+0.00820919*x)+0.0262760543756"
0,mujets,up_correlated,1,-2.5,2.5,20,30,0,1,"1.00637*(1.+0.00794967*x)/(1.+0.00820919*x)+0.0296133441367"
0,mujets,up_correlated,1,-2.5,2.5,600,1000,0,1,"1.00637*(1.+0.00794967*x)/(1.+0.00820919*x)+0.115064839204"
0,mujets,up_correlated,1,-2.5,2.5,30,50,0,1,"1.00637*(1.+0.00794967*x)/(1.+0.00820919*x)+0.014737254011"
0,mujets,up_correlated,0,-2.5,2.5,100,140,0,1,"1.00637*(1.+0.00794967*x)/(1.+0.00820919*x)+0.01740425458"
0,mujets,up_correlated,0,-2.5,2.5,70,100,0,1,"1.00637*(1.+0.00794967*x)/(1.+0.00820919*x)+0.00994972938683"
0,mujets,up_correlated,0,-2.5,2.5,200,300,0,1,"1.00637*(1.+0.00794967*x)/(1.+0.00820919*x)+0.0280408563066"
0,mujets,up_correlated,0,-2.5,2.5,300,600,0,1,"1.00637*(1.+0.00794967*x)/(1.+0.00820919*x)+0.0431379268741"
0,mujets,up_correlated,0,-2.5,2.5,140,200,0,1,"1.00637*(1.+0.00794967*x)/(1.+0.00820919*x)+0.0268048623236"
0,mujets,up_correlated,0,-2.5,2.5,50,70,0,1,"1.00637*(1.+0.00794967*x)/(1.+0.00820919*x)+0.0105104220587"
0,mujets,up_correlated,0,-2.5,2.5,20,30,0,1,"1.00637*(1.+0.00794967*x)/(1.+0.00820919*x)+0.0118453375185"
0,mujets,up_correlated,0,-2.5,2.5,600,1000,0,1,"1.00637*(1.+0.00794967*x)/(1.+0.00820919*x)+0.0460259368183"
0,mujets,up_correlated,0,-2.5,2.5,30,50,0,1,"1.00637*(1.+0.00794967*x)/(1.+0.00820919*x)+0.00589490160412"
0,mujets,up_uncorrelated,1,-2.5,2.5,100,140,0,1,"1.00637*(1.+0.00794967*x)/(1.+0.00820919*x)+0.0161921073616"
0,mujets,up_uncorrelated,1,-2.5,2.5,70,100,0,1,"1.00637*(1.+0.00794967*x)/(1.+0.00820919*x)+0.0123105668768"
0,mujets,up_uncorrelated,1,-2.5,2.5,200,300,0,1,"1.00637*(1.+0.00794967*x)/(1.+0.00820919*x)+0.0304442237106"
0,mujets,up_uncorrelated,1,-2.5,2.5,300,600,0,1,"1.00637*(1.+0.00794967*x)/(1.+0.00820919*x)+0.0404572806434"
0,mujets,up_uncorrelated,1,-2.5,2.5,140,200,0,1,"1.00637*(1.+0.00794967*x)/(1.+0.00820919*x)+0.0198974977092"
0,mujets,up_uncorrelated,1,-2.5,2.5,50,70,0,1,"1.00637*(1.+0.00794967*x)/(1.+0.00820919*x)+0.0138093755599"
0,mujets,up_uncorrelated,1,-2.5,2.5,20,30,0,1,"1.00637*(1.+0.00794967*x)/(1.+0.00820919*x)+0.0225875773329"
0,mujets,up_uncorrelated,1,-2.5,2.5,600,1000,0,1,"1.00637*(1.+0.00794967*x)/(1.+0.00820919*x)+0.0498878619101"
0,mujets,up_uncorrelated,1,-2.5,2.5,30,50,0,1,"1.00637*(1.+0.00794967*x)/(1.+0.00820919*x)+0.013250156056"
0,mujets,up_uncorrelated,0,-2.5,2.5,100,140,0,1,"1.00637*(1.+0.00794967*x)/(1.+0.00820919*x)+0.00647684287899"
0,mujets,up_uncorrelated,0,-2.5,2.5,70,100,0,1,"1.00637*(1.+0.00794967*x)/(1.+0.00820919*x)+0.00492422684042"
0,mujets,up_uncorrelated,0,-2.5,2.5,200,300,0,1,"1.00637*(1.+0.00794967*x)/(1.+0.00820919*x)+0.0121776893008"
0,mujets,up_uncorrelated,0,-2.5,2.5,300,600,0,1,"1.00637*(1.+0.00794967*x)/(1.+0.00820919*x)+0.016182913008"
0,mujets,up_uncorrelated,0,-2.5,2.5,140,200,0,1,"1.00637*(1.+0.00794967*x)/(1.+0.00820919*x)+0.00795899935712"
0,mujets,up_uncorrelated,0,-2.5,2.5,50,70,0,1,"1.00637*(1.+0.00794967*x)/(1.+0.00820919*x)+0.00552375003736"
0,mujets,up_uncorrelated,0,-2.5,2.5,20,30,0,1,"1.00637*(1.+0.00794967*x)/(1.+0.00820919*x)+0.00903503111173"
0,mujets,up_uncorrelated,0,-2.5,2.5,600,1000,0,1,"1.00637*(1.+0.00794967*x)/(1.+0.00820919*x)+0.0199551440157"
0,mujets,up_uncorrelated,0,-2.5,2.5,30,50,0,1,"1.00637*(1.+0.00794967*x)/(1.+0.00820919*x)+0.00530006242271"
1,comb,central,1,-2.5,2.5,20,1000,0,1,"0.999371*(1.+-0.000161133*x)/(1.+-7.92031e-05*x)"
1,comb,central,0,-2.5,2.5,20,1000,0,1,"0.999371*(1.+-0.000161133*x)/(1.+-7.92031e-05*x)"
1,comb,down,1,-2.5,2.5,20,30,0,1,"0.999371*(1.+-0.000161133*x)/(1.+-7.92031e-05*x)-0.077120959758758545"
1,comb,down,1,-2.5,2.5,30,50,0,1,"0.999371*(1.+-0.000161133*x)/(1.+-7.92031e-05*x)-0.036782041192054749"
1,comb,down,1,-2.5,2.5,50,70,0,1,"0.999371*(1.+-0.000161133*x)/(1.+-7.92031e-05*x)-0.03820887953042984"
1,comb,down,1,-2.5,2.5,70,100,0,1,"0.999371*(1.+-0.000161133*x)/(1.+-7.92031e-05*x)-0.038921743631362915"
1,comb,down,1,-2.5,2.5,100,140,0,1,"0.999371*(1.+-0.000161133*x)/(1.+-7.92031e-05*x)-0.034272190183401108"
1,comb,down,1,-2.5,2.5,140,200,0,1,"0.999371*(1.+-0.000161133*x)/(1.+-7.92031e-05*x)-0.034638680517673492"
1,comb,down,1,-2.5,2.5,200,300,0,1,"0.999371*(1.+-0.000161133*x)/(1.+-7.92031e-05*x)-0.076963797211647034"
1,comb,down,1,-2.5,2.5,300,600,0,1,"0.999371*(1.+-0.000161133*x)/(1.+-7.92031e-05*x)-0.17394563555717468"
1,comb,down,1,-2.5,2.5,600,1000,0,1,"0.999371*(1.+-0.000161133*x)/(1.+-7.92031e-05*x)-0.35269606113433838"
1,comb,down,0,-2.5,2.5,20,30,0,1,"0.999371*(1.+-0.000161133*x)/(1.+-7.92031e-05*x)-0.025706985965371132"
1,comb,down,0,-2.5,2.5,30,50,0,1,"0.999371*(1.+-0.000161133*x)/(1.+-7.92031e-05*x)-0.012260680086910725"
1,comb,down,0,-2.5,2.5,50,70,0,1,"0.999371*(1.+-0.000161133*x)/(1.+-7.92031e-05*x)-0.012736293487250805"
1,comb,down,0,-2.5,2.5,70,100,0,1,"0.999371*(1.+-0.000161133*x)/(1.+-7.92031e-05*x)-0.012973914854228497"
1,comb,down,0,-2.5,2.5,100,140,0,1,"0.999371*(1.+-0.000161133*x)/(1.+-7.92031e-05*x)-0.011424063704907894"
1,comb,down,0,-2.5,2.5,140,200,0,1,"0.999371*(1.+-0.000161133*x)/(1.+-7.92031e-05*x)-0.011546226218342781"
1,comb,down,0,-2.5,2.5,200,300,0,1,"0.999371*(1.+-0.000161133*x)/(1.+-7.92031e-05*x)-0.025654599070549011"
1,comb,down,0,-2.5,2.5,300,600,0,1,"0.999371*(1.+-0.000161133*x)/(1.+-7.92031e-05*x)-0.057981878519058228"
1,comb,down,0,-2.5,2.5,600,1000,0,1,"0.999371*(1.+-0.000161133*x)/(1.+-7.92031e-05*x)-0.1175653487443924"
1,comb,down_correlated,1,-2.5,2.5,100,140,0,1,"0.999371*(1.+-0.000161133*x)/(1.+-7.92031e-05*x)-0.0222213732017"
1,comb,down_correlated,1,-2.5,2.5,70,100,0,1,"0.999371*(1.+-0.000161133*x)/(1.+-7.92031e-05*x)-0.0283066734689"
1,comb,down_correlated,1,-2.5,2.5,200,300,0,1,"0.999371*(1.+-0.000161133*x)/(1.+-7.92031e-05*x)-0.0618239440383"
1,comb,down_correlated,1,-2.5,2.5,300,600,0,1,"0.999371*(1.+-0.000161133*x)/(1.+-7.92031e-05*x)-0.156560274702"
1,comb,down_correlated,1,-2.5,2.5,140,200,0,1,"0.999371*(1.+-0.000161133*x)/(1.+-7.92031e-05*x)-0.0148982598386"
1,comb,down_correlated,1,-2.5,2.5,50,70,0,1,"0.999371*(1.+-0.000161133*x)/(1.+-7.92031e-05*x)-0.0321902407109"
1,comb,down_correlated,1,-2.5,2.5,20,30,0,1,"0.999371*(1.+-0.000161133*x)/(1.+-7.92031e-05*x)-0.0686500347683"
1,comb,down_correlated,1,-2.5,2.5,600,1000,0,1,"0.999371*(1.+-0.000161133*x)/(1.+-7.92031e-05*x)-0.27263071973"
1,comb,down_correlated,1,-2.5,2.5,30,50,0,1,"0.999371*(1.+-0.000161133*x)/(1.+-7.92031e-05*x)-0.0264812963826"
1,comb,down_correlated,0,-2.5,2.5,100,140,0,1,"0.999371*(1.+-0.000161133*x)/(1.+-7.92031e-05*x)-0.00740712451728"
1,comb,down_correlated,0,-2.5,2.5,70,100,0,1,"0.999371*(1.+-0.000161133*x)/(1.+-7.92031e-05*x)-0.00943555824573"
1,comb,down_correlated,0,-2.5,2.5,200,300,0,1,"0.999371*(1.+-0.000161133*x)/(1.+-7.92031e-05*x)-0.0206079814331"
1,comb,down_correlated,0,-2.5,2.5,300,600,0,1,"0.999371*(1.+-0.000161133*x)/(1.+-7.92031e-05*x)-0.0521867584437"
1,comb,down_correlated,0,-2.5,2.5,140,200,0,1,"0.999371*(1.+-0.000161133*x)/(1.+-7.92031e-05*x)-0.00496608581328"
1,comb,down_correlated,0,-2.5,2.5,50,70,0,1,"0.999371*(1.+-0.000161133*x)/(1.+-7.92031e-05*x)-0.0107300807028"
1,comb,down_correlated,0,-2.5,2.5,20,30,0,1,"0.999371*(1.+-0.000161133*x)/(1.+-7.92031e-05*x)-0.0228833443898"
1,comb,down_correlated,0,-2.5,2.5,600,1000,0,1,"0.999371*(1.+-0.000161133*x)/(1.+-7.92031e-05*x)-0.0908768981518"
1,comb,down_correlated,0,-2.5,2.5,30,50,0,1,"0.999371*(1.+-0.000161133*x)/(1.+-7.92031e-05*x)-0.00882709833217"
1,comb,down_uncorrelated,1,-2.5,2.5,100,140,0,1,"0.999371*(1.+-0.000161133*x)/(1.+-7.92031e-05*x)-0.026092021635"
1,comb,down_uncorrelated,1,-2.5,2.5,70,100,0,1,"0.999371*(1.+-0.000161133*x)/(1.+-7.92031e-05*x)-0.026713935772"
1,comb,down_uncorrelated,1,-2.5,2.5,200,300,0,1,"0.999371*(1.+-0.000161133*x)/(1.+-7.92031e-05*x)-0.0458391320248"
1,comb,down_uncorrelated,1,-2.5,2.5,300,600,0,1,"0.999371*(1.+-0.000161133*x)/(1.+-7.92031e-05*x)-0.0758021405675"
1,comb,down_uncorrelated,1,-2.5,2.5,140,200,0,1,"0.999371*(1.+-0.000161133*x)/(1.+-7.92031e-05*x)-0.0312710735631"
1,comb,down_uncorrelated,1,-2.5,2.5,50,70,0,1,"0.999371*(1.+-0.000161133*x)/(1.+-7.92031e-05*x)-0.0205841414186"
1,comb,down_uncorrelated,1,-2.5,2.5,20,30,0,1,"0.999371*(1.+-0.000161133*x)/(1.+-7.92031e-05*x)-0.0351399368302"
1,comb,down_uncorrelated,1,-2.5,2.5,600,1000,0,1,"0.999371*(1.+-0.000161133*x)/(1.+-7.92031e-05*x)-0.223756569064"
1,comb,down_uncorrelated,1,-2.5,2.5,30,50,0,1,"0.999371*(1.+-0.000161133*x)/(1.+-7.92031e-05*x)-0.0255276222189"
1,comb,down_uncorrelated,0,-2.5,2.5,100,140,0,1,"0.999371*(1.+-0.000161133*x)/(1.+-7.92031e-05*x)-0.00869734085335"
1,comb,down_uncorrelated,0,-2.5,2.5,70,100,0,1,"0.999371*(1.+-0.000161133*x)/(1.+-7.92031e-05*x)-0.00890464526167"
1,comb,down_uncorrelated,0,-2.5,2.5,200,300,0,1,"0.999371*(1.+-0.000161133*x)/(1.+-7.92031e-05*x)-0.0152797105576"
1,comb,down_uncorrelated,0,-2.5,2.5,300,600,0,1,"0.999371*(1.+-0.000161133*x)/(1.+-7.92031e-05*x)-0.0252673797561"
1,comb,down_uncorrelated,0,-2.5,2.5,140,200,0,1,"0.999371*(1.+-0.000161133*x)/(1.+-7.92031e-05*x)-0.0104236908809"
1,comb,down_uncorrelated,0,-2.5,2.5,50,70,0,1,"0.999371*(1.+-0.000161133*x)/(1.+-7.92031e-05*x)-0.00686138032072"
1,comb,down_uncorrelated,0,-2.5,2.5,20,30,0,1,"0.999371*(1.+-0.000161133*x)/(1.+-7.92031e-05*x)-0.0117133119553"
1,comb,down_uncorrelated,0,-2.5,2.5,600,1000,0,1,"0.999371*(1.+-0.000161133*x)/(1.+-7.92031e-05*x)-0.074585525457"
1,comb,down_uncorrelated,0,-2.5,2.5,30,50,0,1,"0.999371*(1.+-0.000161133*x)/(1.+-7.92031e-05*x)-0.00850920743829"
1,comb,up,1,-2.5,2.5,20,30,0,1,"0.999371*(1.+-0.000161133*x)/(1.+-7.92031e-05*x)+0.077120959758758545"
1,comb,up,1,-2.5,2.5,30,50,0,1,"0.999371*(1.+-0.000161133*x)/(1.+-7.92031e-05*x)+0.036782041192054749"
1,comb,up,1,-2.5,2.5,50,70,0,1,"0.999371*(1.+-0.000161133*x)/(1.+-7.92031e-05*x)+0.03820887953042984"
1,comb,up,1,-2.5,2.5,70,100,0,1,"0.999371*(1.+-0.000161133*x)/(1.+-7.92031e-05*x)+0.038921743631362915"
1,comb,up,1,-2.5,2.5,100,140,0,1,"0.999371*(1.+-0.000161133*x)/(1.+-7.92031e-05*x)+0.034272190183401108"
1,comb,up,1,-2.5,2.5,140,200,0,1,"0.999371*(1.+-0.000161133*x)/(1.+-7.92031e-05*x)+0.034638680517673492"
1,comb,up,1,-2.5,2.5,200,300,0,1,"0.999371*(1.+-0.000161133*x)/(1.+-7.92031e-05*x)+0.076963797211647034"
1,comb,up,1,-2.5,2.5,300,600,0,1,"0.999371*(1.+-0.000161133*x)/(1.+-7.92031e-05*x)+0.17394563555717468"
1,comb,up,1,-2.5,2.5,600,1000,0,1,"0.999371*(1.+-0.000161133*x)/(1.+-7.92031e-05*x)+0.35269606113433838"
1,comb,up,0,-2.5,2.5,20,30,0,1,"0.999371*(1.+-0.000161133*x)/(1.+-7.92031e-05*x)+0.025706985965371132"
1,comb,up,0,-2.5,2.5,30,50,0,1,"0.999371*(1.+-0.000161133*x)/(1.+-7.92031e-05*x)+0.012260680086910725"
1,comb,up,0,-2.5,2.5,50,70,0,1,"0.999371*(1.+-0.000161133*x)/(1.+-7.92031e-05*x)+0.012736293487250805"
1,comb,up,0,-2.5,2.5,70,100,0,1,"0.999371*(1.+-0.000161133*x)/(1.+-7.92031e-05*x)+0.012973914854228497"
1,comb,up,0,-2.5,2.5,100,140,0,1,"0.999371*(1.+-0.000161133*x)/(1.+-7.92031e-05*x)+0.011424063704907894"
1,comb,up,0,-2.5,2.5,140,200,0,1,"0.999371*(1.+-0.000161133*x)/(1.+-7.92031e-05*x)+0.011546226218342781"
1,comb,up,0,-2.5,2.5,200,300,0,1,"0.999371*(1.+-0.000161133*x)/(1.+-7.92031e-05*x)+0.025654599070549011"
1,comb,up,0,-2.5,2.5,300,600,0,1,"0.999371*(1.+-0.000161133*x)/(1.+-7.92031e-05*x)+0.057981878519058228"
1,comb,up,0,-2.5,2.5,600,1000,0,1,"0.999371*(1.+-0.000161133*x)/(1.+-7.92031e-05*x)+0.1175653487443924"
1,comb,up_correlated,1,-2.5,2.5,100,140,0,1,"0.999371*(1.+-0.000161133*x)/(1.+-7.92031e-05*x)+0.0222213732017"
1,comb,up_correlated,1,-2.5,2.5,70,100,0,1,"0.999371*(1.+-0.000161133*x)/(1.+-7.92031e-05*x)+0.0283066734689"
1,comb,up_correlated,1,-2.5,2.5,200,300,0,1,"0.999371*(1.+-0.000161133*x)/(1.+-7.92031e-05*x)+0.0618239440383"
1,comb,up_correlated,1,-2.5,2.5,300,600,0,1,"0.999371*(1.+-0.000161133*x)/(1.+-7.92031e-05*x)+0.156560274702"
1,comb,up_correlated,1,-2.5,2.5,140,200,0,1,"0.999371*(1.+-0.000161133*x)/(1.+-7.92031e-05*x)+0.0148982598386"
1,comb,up_correlated,1,-2.5,2.5,50,70,0,1,"0.999371*(1.+-0.000161133*x)/(1.+-7.92031e-05*x)+0.0321902407109"
1,comb,up_correlated,1,-2.5,2.5,20,30,0,1,"0.999371*(1.+-0.000161133*x)/(1.+-7.92031e-05*x)+0.0686500347683"
1,comb,up_correlated,1,-2.5,2.5,600,1000,0,1,"0.999371*(1.+-0.000161133*x)/(1.+-7.92031e-05*x)+0.27263071973"
1,comb,up_correlated,1,-2.5,2.5,30,50,0,1,"0.999371*(1.+-0.000161133*x)/(1.+-7.92031e-05*x)+0.0264812963826"
1,comb,up_correlated,0,-2.5,2.5,100,140,0,1,"0.999371*(1.+-0.000161133*x)/(1.+-7.92031e-05*x)+0.00740712451728"
1,comb,up_correlated,0,-2.5,2.5,70,100,0,1,"0.999371*(1.+-0.000161133*x)/(1.+-7.92031e-05*x)+0.00943555824573"
1,comb,up_correlated,0,-2.5,2.5,200,300,0,1,"0.999371*(1.+-0.000161133*x)/(1.+-7.92031e-05*x)+0.0206079814331"
1,comb,up_correlated,0,-2.5,2.5,300,600,0,1,"0.999371*(1.+-0.000161133*x)/(1.+-7.92031e-05*x)+0.0521867584437"
1,comb,up_correlated,0,-2.5,2.5,140,200,0,1,"0.999371*(1.+-0.000161133*x)/(1.+-7.92031e-05*x)+0.00496608581328"
1,comb,up_correlated,0,-2.5,2.5,50,70,0,1,"0.999371*(1.+-0.000161133*x)/(1.+-7.92031e-05*x)+0.0107300807028"
1,comb,up_correlated,0,-2.5,2.5,20,30,0,1,"0.999371*(1.+-0.000161133*x)/(1.+-7.92031e-05*x)+0.0228833443898"
1,comb,up_correlated,0,-2.5,2.5,600,1000,0,1,"0.999371*(1.+-0.000161133*x)/(1.+-7.92031e-05*x)+0.0908768981518"
1,comb,up_correlated,0,-2.5,2.5,30,50,0,1,"0.999371*(1.+-0.000161133*x)/(1.+-7.92031e-05*x)+0.00882709833217"
1,comb,up_uncorrelated,1,-2.5,2.5,100,140,0,1,"0.999371*(1.+-0.000161133*x)/(1.+-7.92031e-05*x)+0.026092021635"
1,comb,up_uncorrelated,1,-2.5,2.5,70,100,0,1,"0.999371*(1.+-0.000161133*x)/(1.+-7.92031e-05*x)+0.026713935772"
1,comb,up_uncorrelated,1,-2.5,2.5,200,300,0,1,"0.999371*(1.+-0.000161133*x)/(1.+-7.92031e-05*x)+0.0458391320248"
1,comb,up_uncorrelated,1,-2.5,2.5,300,600,0,1,"0.999371*(1.+-0.000161133*x)/(1.+-7.92031e-05*x)+0.0758021405675"
1,comb,up_uncorrelated,1,-2.5,2.5,140,200,0,1,"0.999371*(1.+-0.000161133*x)/(1.+-7.92031e-05*x)+0.0312710735631"
1,comb,up_uncorrelated,1,-2.5,2.5,50,70,0,1,"0.999371*(1.+-0.000161133*x)/(1.+-7.92031e-05*x)+0.0205841414186"
1,comb,up_uncorrelated,1,-2.5,2.5,20,30,0,1,"0.999371*(1.+-0.000161133*x)/(1.+-7.92031e-05*x)+0.0351399368302"
1,comb,up_uncorrelated,1,-2.5,2.5,600,1000,0,1,"0.999371*(1.+-0.000161133*x)/(1.+-7.92031e-05*x)+0.223756569064"
1,comb,up_uncorrelated,1,-2.5,2.5,30,50,0,1,"0.999371*(1.+-0.000161133*x)/(1.+-7.92031e-05*x)+0.0255276222189"
1,comb,up_uncorrelated,0,-2.5,2.5,100,140,0,1,"0.999371*(1.+-0.000161133*x)/(1.+-7.92031e-05*x)+0.00869734085335"
1,comb,up_uncorrelated,0,-2.5,2.5,70,100,0,1,"0.999371*(1.+-0.000161133*x)/(1.+-7.92031e-05*x)+0.00890464526167"
1,comb,up_uncorrelated,0,-2.5,2.5,200,300,0,1,"0.999371*(1.+-0.000161133*x)/(1.+-7.92031e-05*x)+0.0152797105576"
1,comb,up_uncorrelated,0,-2.5,2.5,300,600,0,1,"0.999371*(1.+-0.000161133*x)/(1.+-7.92031e-05*x)+0.0252673797561"
1,comb,up_uncorrelated,0,-2.5,2.5,140,200,0,1,"0.999371*(1.+-0.000161133*x)/(1.+-7.92031e-05*x)+0.0104236908809"
1,comb,up_uncorrelated,0,-2.5,2.5,50,70,0,1,"0.999371*(1.+-0.000161133*x)/(1.+-7.92031e-05*x)+0.00686138032072"
1,comb,up_uncorrelated,0,-2.5,2.5,20,30,0,1,"0.999371*(1.+-0.000161133*x)/(1.+-7.92031e-05*x)+0.0117133119553"
1,comb,up_uncorrelated,0,-2.5,2.5,600,1000,0,1,"0.999371*(1.+-0.000161133*x)/(1.+-7.92031e-05*x)+0.074585525457"
1,comb,up_uncorrelated,0,-2.5,2.5,30,50,0,1,"0.999371*(1.+-0.000161133*x)/(1.+-7.92031e-05*x)+0.00850920743829"
1,mujets,central,1,-2.5,2.5,20,1000,0,1,"1.01856*(1.+0.0027992*x)/(1.+0.00312776*x)"
1,mujets,central,0,-2.5,2.5,20,1000,0,1,"1.01856*(1.+0.0027992*x)/(1.+0.00312776*x)"
1,mujets,down,1,-2.5,2.5,20,30,0,1,"1.01856*(1.+0.0027992*x)/(1.+0.00312776*x)-0.078760683536529541"
1,mujets,down,1,-2.5,2.5,30,50,0,1,"1.01856*(1.+0.0027992*x)/(1.+0.00312776*x)-0.040814220905303955"
1,mujets,down,1,-2.5,2.5,50,70,0,1,"1.01856*(1.+0.0027992*x)/(1.+0.00312776*x)-0.044890560209751129"
1,mujets,down,1,-2.5,2.5,70,100,0,1,"1.01856*(1.+0.0027992*x)/(1.+0.00312776*x)-0.060147203505039215"
1,mujets,down,1,-2.5,2.5,100,140,0,1,"1.01856*(1.+0.0027992*x)/(1.+0.00312776*x)-0.10429124534130096"
1,mujets,down,1,-2.5,2.5,140,200,0,1,"1.01856*(1.+0.0027992*x)/(1.+0.00312776*x)-0.19067367911338806"
1,mujets,down,1,-2.5,2.5,200,300,0,1,"1.01856*(1.+0.0027992*x)/(1.+0.00312776*x)-0.11200451850891113"
1,mujets,down,1,-2.5,2.5,300,600,0,1,"1.01856*(1.+0.0027992*x)/(1.+0.00312776*x)-0.18220041692256927"
1,mujets,down,1,-2.5,2.5,600,1000,0,1,"1.01856*(1.+0.0027992*x)/(1.+0.00312776*x)-0.35117062926292419"
1,mujets,down,0,-2.5,2.5,20,30,0,1,"1.01856*(1.+0.0027992*x)/(1.+0.00312776*x)-0.026253562420606613"
1,mujets,down,0,-2.5,2.5,30,50,0,1,"1.01856*(1.+0.0027992*x)/(1.+0.00312776*x)-0.013604739680886269"
1,mujets,down,0,-2.5,2.5,50,70,0,1,"1.01856*(1.+0.0027992*x)/(1.+0.00312776*x)-0.014963520690798759"
1,mujets,down,0,-2.5,2.5,70,100,0,1,"1.01856*(1.+0.0027992*x)/(1.+0.00312776*x)-0.020049067214131355"
1,mujets,down,0,-2.5,2.5,100,140,0,1,"1.01856*(1.+0.0027992*x)/(1.+0.00312776*x)-0.034763749688863754"
1,mujets,down,0,-2.5,2.5,140,200,0,1,"1.01856*(1.+0.0027992*x)/(1.+0.00312776*x)-0.063557893037796021"
1,mujets,down,0,-2.5,2.5,200,300,0,1,"1.01856*(1.+0.0027992*x)/(1.+0.00312776*x)-0.03733484074473381"
1,mujets,down,0,-2.5,2.5,300,600,0,1,"1.01856*(1.+0.0027992*x)/(1.+0.00312776*x)-0.060733471065759659"
1,mujets,down,0,-2.5,2.5,600,1000,0,1,"1.01856*(1.+0.0027992*x)/(1.+0.00312776*x)-0.11705687642097473"
1,mujets,down_correlated,1,-2.5,2.5,100,140,0,1,"1.01856*(1.+0.0027992*x)/(1.+0.00312776*x)-0.101004248999"
1,mujets,down_correlated,1,-2.5,2.5,70,100,0,1,"1.01856*(1.+0.0027992*x)/(1.+0.00312776*x)-0.056931627671"
1,mujets,down_correlated,1,-2.5,2.5,200,300,0,1,"1.01856*(1.+0.0027992*x)/(1.+0.00312776*x)-0.0967423050855"
1,mujets,down_correlated,1,-2.5,2.5,300,600,0,1,"1.01856*(1.+0.0027992*x)/(1.+0.00312776*x)-0.165285909585"
1,mujets,down_correlated,1,-2.5,2.5,140,200,0,1,"1.01856*(1.+0.0027992*x)/(1.+0.00312776*x)-0.18792842135"
1,mujets,down_correlated,1,-2.5,2.5,50,70,0,1,"1.01856*(1.+0.0027992*x)/(1.+0.00312776*x)-0.0416425004536"
1,mujets,down_correlated,1,-2.5,2.5,20,30,0,1,"1.01856*(1.+0.0027992*x)/(1.+0.00312776*x)-0.0705781501696"
1,mujets,down_correlated,1,-2.5,2.5,600,1000,0,1,"1.01856*(1.+0.0027992*x)/(1.+0.00312776*x)-0.27156775844"
1,mujets,down_correlated,1,-2.5,2.5,30,50,0,1,"1.01856*(1.+0.0027992*x)/(1.+0.00312776*x)-0.0314612257387"
1,mujets,down_correlated,0,-2.5,2.5,100,140,0,1,"1.01856*(1.+0.0027992*x)/(1.+0.00312776*x)-0.0336680843639"
1,mujets,down_correlated,0,-2.5,2.5,70,100,0,1,"1.01856*(1.+0.0027992*x)/(1.+0.00312776*x)-0.0189772084691"
1,mujets,down_correlated,0,-2.5,2.5,200,300,0,1,"1.01856*(1.+0.0027992*x)/(1.+0.00312776*x)-0.0322474364502"
1,mujets,down_correlated,0,-2.5,2.5,300,600,0,1,"1.01856*(1.+0.0027992*x)/(1.+0.00312776*x)-0.0550953020485"
1,mujets,down_correlated,0,-2.5,2.5,140,200,0,1,"1.01856*(1.+0.0027992*x)/(1.+0.00312776*x)-0.062642807015"
1,mujets,down_correlated,0,-2.5,2.5,50,70,0,1,"1.01856*(1.+0.0027992*x)/(1.+0.00312776*x)-0.0138808340281"
1,mujets,down_correlated,0,-2.5,2.5,20,30,0,1,"1.01856*(1.+0.0027992*x)/(1.+0.00312776*x)-0.0235260513684"
1,mujets,down_correlated,0,-2.5,2.5,600,1000,0,1,"1.01856*(1.+0.0027992*x)/(1.+0.00312776*x)-0.0905225860958"
1,mujets,down_correlated,0,-2.5,2.5,30,50,0,1,"1.01856*(1.+0.0027992*x)/(1.+0.00312776*x)-0.0104870742663"
1,mujets,down_uncorrelated,1,-2.5,2.5,100,140,0,1,"1.01856*(1.+0.0027992*x)/(1.+0.00312776*x)-0.0259770194398"
1,mujets,down_uncorrelated,1,-2.5,2.5,70,100,0,1,"1.01856*(1.+0.0027992*x)/(1.+0.00312776*x)-0.019402985858"
1,mujets,down_uncorrelated,1,-2.5,2.5,200,300,0,1,"1.01856*(1.+0.0027992*x)/(1.+0.00312776*x)-0.0564441190308"
1,mujets,down_uncorrelated,1,-2.5,2.5,300,600,0,1,"1.01856*(1.+0.0027992*x)/(1.+0.00312776*x)-0.0766652464902"
1,mujets,down_uncorrelated,1,-2.5,2.5,140,200,0,1,"1.01856*(1.+0.0027992*x)/(1.+0.00312776*x)-0.0322391121999"
1,mujets,down_uncorrelated,1,-2.5,2.5,50,70,0,1,"1.01856*(1.+0.0027992*x)/(1.+0.00312776*x)-0.0167649799259"
1,mujets,down_uncorrelated,1,-2.5,2.5,20,30,0,1,"1.01856*(1.+0.0027992*x)/(1.+0.00312776*x)-0.0349566873399"
1,mujets,down_uncorrelated,1,-2.5,2.5,600,1000,0,1,"1.01856*(1.+0.0027992*x)/(1.+0.00312776*x)-0.222647172523"
1,mujets,down_uncorrelated,1,-2.5,2.5,30,50,0,1,"1.01856*(1.+0.0027992*x)/(1.+0.00312776*x)-0.0259998442904"
1,mujets,down_uncorrelated,0,-2.5,2.5,100,140,0,1,"1.01856*(1.+0.0027992*x)/(1.+0.00312776*x)-0.00865900616099"
1,mujets,down_uncorrelated,0,-2.5,2.5,70,100,0,1,"1.01856*(1.+0.0027992*x)/(1.+0.00312776*x)-0.00646766224207"
1,mujets,down_uncorrelated,0,-2.5,2.5,200,300,0,1,"1.01856*(1.+0.0027992*x)/(1.+0.00312776*x)-0.018814706371"
1,mujets,down_uncorrelated,0,-2.5,2.5,300,600,0,1,"1.01856*(1.+0.0027992*x)/(1.+0.00312776*x)-0.0255550816841"
1,mujets,down_uncorrelated,0,-2.5,2.5,140,200,0,1,"1.01856*(1.+0.0027992*x)/(1.+0.00312776*x)-0.0107463713263"
1,mujets,down_uncorrelated,0,-2.5,2.5,50,70,0,1,"1.01856*(1.+0.0027992*x)/(1.+0.00312776*x)-0.00558832695442"
1,mujets,down_uncorrelated,0,-2.5,2.5,20,30,0,1,"1.01856*(1.+0.0027992*x)/(1.+0.00312776*x)-0.0116522292624"
1,mujets,down_uncorrelated,0,-2.5,2.5,600,1000,0,1,"1.01856*(1.+0.0027992*x)/(1.+0.00312776*x)-0.0742157242366"
1,mujets,down_uncorrelated,0,-2.5,2.5,30,50,0,1,"1.01856*(1.+0.0027992*x)/(1.+0.00312776*x)-0.00866661497462"
1,mujets,up,1,-2.5,2.5,20,30,0,1,"1.01856*(1.+0.0027992*x)/(1.+0.00312776*x)+0.078760683536529541"
1,mujets,up,1,-2.5,2.5,30,50,0,1,"1.01856*(1.+0.0027992*x)/(1.+0.00312776*x)+0.040814220905303955"
1,mujets,up,1,-2.5,2.5,50,70,0,1,"1.01856*(1.+0.0027992*x)/(1.+0.00312776*x)+0.044890560209751129"
1,mujets,up,1,-2.5,2.5,70,100,0,1,"1.01856*(1.+0.0027992*x)/(1.+0.00312776*x)+0.060147203505039215"
1,mujets,up,1,-2.5,2.5,100,140,0,1,"1.01856*(1.+0.0027992*x)/(1.+0.00312776*x)+0.10429124534130096"
1,mujets,up,1,-2.5,2.5,140,200,0,1,"1.01856*(1.+0.0027992*x)/(1.+0.00312776*x)+0.19067367911338806"
1,mujets,up,1,-2.5,2.5,200,300,0,1,"1.01856*(1.+0.0027992*x)/(1.+0.00312776*x)+0.11200451850891113"
1,mujets,up,1,-2.5,2.5,300,600,0,1,"1.01856*(1.+0.0027992*x)/(1.+0.00312776*x)+0.18220041692256927"
1,mujets,up,1,-2.5,2.5,600,1000,0,1,"1.01856*(1.+0.0027992*x)/(1.+0.00312776*x)+0.35117062926292419"
1,mujets,up,0,-2.5,2.5,20,30,0,1,"1.01856*(1.+0.0027992*x)/(1.+0.00312776*x)+0.026253562420606613"
1,mujets,up,0,-2.5,2.5,30,50,0,1,"1.01856*(1.+0.0027992*x)/(1.+0.00312776*x)+0.013604739680886269"
1,mujets,up,0,-2.5,2.5,50,70,0,1,"1.01856*(1.+0.0027992*x)/(1.+0.00312776*x)+0.014963520690798759"
1,mujets,up,0,-2.5,2.5,70,100,0,1,"1.01856*(1.+0.0027992*x)/(1.+0.00312776*x)+0.020049067214131355"
1,mujets,up,0,-2.5,2.5,100,140,0,1,"1.01856*(1.+0.0027992*x)/(1.+0.00312776*x)+0.034763749688863754"
1,mujets,up,0,-2.5,2.5,140,200,0,1,"1.01856*(1.+0.0027992*x)/(1.+0.00312776*x)+0.063557893037796021"
1,mujets,up,0,-2.5,2.5,200,300,0,1,"1.01856*(1.+0.0027992*x)/(1.+0.00312776*x)+0.03733484074473381"
1,mujets,up,0,-2.5,2.5,300,600,0,1,"1.01856*(1.+0.0027992*x)/(1.+0.00312776*x)+0.060733471065759659"
1,mujets,up,0,-2.5,2.5,600,1000,0,1,"1.01856*(1.+0.0027992*x)/(1.+0.00312776*x)+0.11705687642097473"
1,mujets,up_correlated,1,-2.5,2.5,100,140,0,1,"1.01856*(1.+0.0027992*x)/(1.+0.00312776*x)+0.101004248999"
1,mujets,up_correlated,1,-2.5,2.5,70,100,0,1,"1.01856*(1.+0.0027992*x)/(1.+0.00312776*x)+0.056931627671"
1,mujets,up_correlated,1,-2.5,2.5,200,300,0,1,"1.01856*(1.+0.0027992*x)/(1.+0.00312776*x)+0.0967423050855"
1,mujets,up_correlated,1,-2.5,2.5,300,600,0,1,"1.01856*(1.+0.0027992*x)/(1.+0.00312776*x)+0.165285909585"
1,mujets,up_correlated,1,-2.5,2.5,140,200,0,1,"1.01856*(1.+0.0027992*x)/(1.+0.00312776*x)+0.18792842135"
1,mujets,up_correlated,1,-2.5,2.5,50,70,0,1,"1.01856*(1.+0.0027992*x)/(1.+0.00312776*x)+0.0416425004536"
1,mujets,up_correlated,1,-2.5,2.5,20,30,0,1,"1.01856*(1.+0.0027992*x)/(1.+0.00312776*x)+0.0705781501696"
1,mujets,up_correlated,1,-2.5,2.5,600,1000,0,1,"1.01856*(1.+0.0027992*x)/(1.+0.00312776*x)+0.27156775844"
1,mujets,up_correlated,1,-2.5,2.5,30,50,0,1,"1.01856*(1.+0.0027992*x)/(1.+0.00312776*x)+0.0314612257387"
1,mujets,up_correlated,0,-2.5,2.5,100,140,0,1,"1.01856*(1.+0.0027992*x)/(1.+0.00312776*x)+0.0336680843639"
1,mujets,up_correlated,0,-2.5,2.5,70,100,0,1,"1.01856*(1.+0.0027992*x)/(1.+0.00312776*x)+0.0189772084691"
1,mujets,up_correlated,0,-2.5,2.5,200,300,0,1,"1.01856*(1.+0.0027992*x)/(1.+0.00312776*x)+0.0322474364502"
1,mujets,up_correlated,0,-2.5,2.5,300,600,0,1,"1.01856*(1.+0.0027992*x)/(1.+0.00312776*x)+0.0550953020485"
1,mujets,up_correlated,0,-2.5,2.5,140,200,0,1,"1.01856*(1.+0.0027992*x)/(1.+0.00312776*x)+0.062642807015"
1,mujets,up_correlated,0,-2.5,2.5,50,70,0,1,"1.01856*(1.+0.0027992*x)/(1.+0.00312776*x)+0.0138808340281"
1,mujets,up_correlated,0,-2.5,2.5,20,30,0,1,"1.01856*(1.+0.0027992*x)/(1.+0.00312776*x)+0.0235260513684"
1,mujets,up_correlated,0,-2.5,2.5,600,1000,0,1,"1.01856*(1.+0.0027992*x)/(1.+0.00312776*x)+0.0905225860958"
1,mujets,up_correlated,0,-2.5,2.5,30,50,0,1,"1.01856*(1.+0.0027992*x)/(1.+0.00312776*x)+0.0104870742663"
1,mujets,up_uncorrelated,1,-2.5,2.5,100,140,0,1,"1.01856*(1.+0.0027992*x)/(1.+0.00312776*x)+0.0259770194398"
1,mujets,up_uncorrelated,1,-2.5,2.5,70,100,0,1,"1.01856*(1.+0.0027992*x)/(1.+0.00312776*x)+0.019402985858"
1,mujets,up_uncorrelated,1,-2.5,2.5,200,300,0,1,"1.01856*(1.+0.0027992*x)/(1.+0.00312776*x)+0.0564441190308"
1,mujets,up_uncorrelated,1,-2.5,2.5,300,600,0,1,"1.01856*(1.+0.0027992*x)/(1.+0.00312776*x)+0.0766652464902"
1,mujets,up_uncorrelated,1,-2.5,2.5,140,200,0,1,"1.01856*(1.+0.0027992*x)/(1.+0.00312776*x)+0.0322391121999"
1,mujets,up_uncorrelated,1,-2.5,2.5,50,70,0,1,"1.01856*(1.+0.0027992*x)/(1.+0.00312776*x)+0.0167649799259"
1,mujets,up_uncorrelated,1,-2.5,2.5,20,30,0,1,"1.01856*(1.+0.0027992*x)/(1.+0.00312776*x)+0.0349566873399"
1,mujets,up_uncorrelated,1,-2.5,2.5,600,1000,0,1,"1.01856*(1.+0.0027992*x)/(1.+0.00312776*x)+0.222647172523"
1,mujets,up_uncorrelated,1,-2.5,2.5,30,50,0,1,"1.01856*(1.+0.0027992*x)/(1.+0.00312776*x)+0.0259998442904"
1,mujets,up_uncorrelated,0,-2.5,2.5,100,140,0,1,"1.01856*(1.+0.0027992*x)/(1.+0.00312776*x)+0.00865900616099"
1,mujets,up_uncorrelated,0,-2.5,2.5,70,100,0,1,"1.01856*(1.+0.0027992*x)/(1.+0.00312776*x)+0.00646766224207"
1,mujets,up_uncorrelated,0,-2.5,2.5,200,300,0,1,"1.01856*(1.+0.0027992*x)/(1.+0.00312776*x)+0.018814706371"
1,mujets,up_uncorrelated,0,-2.5,2.5,300,600,0,1,"1.01856*(1.+0.0027992*x)/(1.+0.00312776*x)+0.0255550816841"
1,mujets,up_uncorrelated,0,-2.5,2.5,140,200,0,1,"1.01856*(1.+0.0027992*x)/(1.+0.00312776*x)+0.0107463713263"
1,mujets,up_uncorrelated,0,-2.5,2.5,50,70,0,1,"1.01856*(1.+0.0027992*x)/(1.+0.00312776*x)+0.00558832695442"
1,mujets,up_uncorrelated,0,-2.5,2.5,20,30,0,1,"1.01856*(1.+0.0027992*x)/(1.+0.00312776*x)+0.0116522292624"
1,mujets,up_uncorrelated,0,-2.5,2.5,600,1000,0,1,"1.01856*(1.+0.0027992*x)/(1.+0.00312776*x)+0.0742157242366"
1,mujets,up_uncorrelated,0,-2.5,2.5,30,50,0,1,"1.01856*(1.+0.0027992*x)/(1.+0.00312776*x)+0.00866661497462"
2,comb,central,1,-2.5,2.5,20,1000,0,1,"0.926873*(1.+0.0282033*x)/(1.+0.0260373*x)"
2,comb,central,0,-2.5,2.5,20,1000,0,1,"0.926873*(1.+0.0282033*x)/(1.+0.0260373*x)"
2,comb,down,1,-2.5,2.5,20,30,0,1,"0.926873*(1.+0.0282033*x)/(1.+0.0260373*x)-0.17023622989654541"
2,comb,down,1,-2.5,2.5,30,50,0,1,"0.926873*(1.+0.0282033*x)/(1.+0.0260373*x)-0.064542077481746674"
2,comb,down,1,-2.5,2.5,50,70,0,1,"0.926873*(1.+0.0282033*x)/(1.+0.0260373*x)-0.058281924575567245"
2,comb,down,1,-2.5,2.5,70,100,0,1,"0.926873*(1.+0.0282033*x)/(1.+0.0260373*x)-0.050478633493185043"
2,comb,down,1,-2.5,2.5,100,140,0,1,"0.926873*(1.+0.0282033*x)/(1.+0.0260373*x)-0.041406262665987015"
2,comb,down,1,-2.5,2.5,140,200,0,1,"0.926873*(1.+0.0282033*x)/(1.+0.0260373*x)-0.048696272075176239"
2,comb,down,1,-2.5,2.5,200,300,0,1,"0.926873*(1.+0.0282033*x)/(1.+0.0260373*x)-0.14533820748329163"
2,comb,down,1,-2.5,2.5,300,600,0,1,"0.926873*(1.+0.0282033*x)/(1.+0.0260373*x)-0.18129280209541321"
2,comb,down,1,-2.5,2.5,600,1000,0,1,"0.926873*(1.+0.0282033*x)/(1.+0.0260373*x)-0.36842355132102966"
2,comb,down,0,-2.5,2.5,20,30,0,1,"0.926873*(1.+0.0282033*x)/(1.+0.0260373*x)-0.048638924956321716"
2,comb,down,0,-2.5,2.5,30,50,0,1,"0.926873*(1.+0.0282033*x)/(1.+0.0260373*x)-0.018440593034029007"
2,comb,down,0,-2.5,2.5,50,70,0,1,"0.926873*(1.+0.0282033*x)/(1.+0.0260373*x)-0.016651978716254234"
2,comb,down,0,-2.5,2.5,70,100,0,1,"0.926873*(1.+0.0282033*x)/(1.+0.0260373*x)-0.014422466978430748"
2,comb,down,0,-2.5,2.5,100,140,0,1,"0.926873*(1.+0.0282033*x)/(1.+0.0260373*x)-0.011830360628664494"
2,comb,down,0,-2.5,2.5,140,200,0,1,"0.926873*(1.+0.0282033*x)/(1.+0.0260373*x)-0.013913220725953579"
2,comb,down,0,-2.5,2.5,200,300,0,1,"0.926873*(1.+0.0282033*x)/(1.+0.0260373*x)-0.041525203734636307"
2,comb,down,0,-2.5,2.5,300,600,0,1,"0.926873*(1.+0.0282033*x)/(1.+0.0260373*x)-0.051797941327095032"
2,comb,down,0,-2.5,2.5,600,1000,0,1,"0.926873*(1.+0.0282033*x)/(1.+0.0260373*x)-0.10526387393474579"
2,comb,down_correlated,1,-2.5,2.5,100,140,0,1,"0.926873*(1.+0.0282033*x)/(1.+0.0260373*x)-0.0272623804777"
2,comb,down_correlated,1,-2.5,2.5,70,100,0,1,"0.926873*(1.+0.0282033*x)/(1.+0.0260373*x)-0.036461658047"
2,comb,down_correlated,1,-2.5,2.5,200,300,0,1,"0.926873*(1.+0.0282033*x)/(1.+0.0260373*x)-0.118752452735"
2,comb,down_correlated,1,-2.5,2.5,300,600,0,1,"0.926873*(1.+0.0282033*x)/(1.+0.0260373*x)-0.169771756131"
2,comb,down_correlated,1,-2.5,2.5,140,200,0,1,"0.926873*(1.+0.0282033*x)/(1.+0.0260373*x)-0.026448174195"
2,comb,down_correlated,1,-2.5,2.5,50,70,0,1,"0.926873*(1.+0.0282033*x)/(1.+0.0260373*x)-0.0449062223088"
2,comb,down_correlated,1,-2.5,2.5,20,30,0,1,"0.926873*(1.+0.0282033*x)/(1.+0.0260373*x)-0.154512602168"
2,comb,down_correlated,1,-2.5,2.5,600,1000,0,1,"0.926873*(1.+0.0282033*x)/(1.+0.0260373*x)-0.183843986132"
2,comb,down_correlated,1,-2.5,2.5,30,50,0,1,"0.926873*(1.+0.0282033*x)/(1.+0.0260373*x)-0.0507445903425"
2,comb,down_correlated,0,-2.5,2.5,100,140,0,1,"0.926873*(1.+0.0282033*x)/(1.+0.0260373*x)-0.0077892510597"
2,comb,down_correlated,0,-2.5,2.5,70,100,0,1,"0.926873*(1.+0.0282033*x)/(1.+0.0260373*x)-0.0104176172052"
2,comb,down_correlated,0,-2.5,2.5,200,300,0,1,"0.926873*(1.+0.0282033*x)/(1.+0.0260373*x)-0.0339292741088"
2,comb,down_correlated,0,-2.5,2.5,300,600,0,1,"0.926873*(1.+0.0282033*x)/(1.+0.0260373*x)-0.0485062136825"
2,comb,down_correlated,0,-2.5,2.5,140,200,0,1,"0.926873*(1.+0.0282033*x)/(1.+0.0260373*x)-0.00755662198623"
2,comb,down_correlated,0,-2.5,2.5,50,70,0,1,"0.926873*(1.+0.0282033*x)/(1.+0.0260373*x)-0.0128303491699"
2,comb,down_correlated,0,-2.5,2.5,20,30,0,1,"0.926873*(1.+0.0282033*x)/(1.+0.0260373*x)-0.0441464597434"
2,comb,down_correlated,0,-2.5,2.5,600,1000,0,1,"0.926873*(1.+0.0282033*x)/(1.+0.0260373*x)-0.0525268648329"
2,comb,down_correlated,0,-2.5,2.5,30,50,0,1,"0.926873*(1.+0.0282033*x)/(1.+0.0260373*x)-0.0144984541309"
2,comb,down_uncorrelated,1,-2.5,2.5,100,140,0,1,"0.926873*(1.+0.0282033*x)/(1.+0.0260373*x)-0.031164742878"
2,comb,down_uncorrelated,1,-2.5,2.5,70,100,0,1,"0.926873*(1.+0.0282033*x)/(1.+0.0260373*x)-0.0349090236443"
2,comb,down_uncorrelated,1,-2.5,2.5,200,300,0,1,"0.926873*(1.+0.0282033*x)/(1.+0.0260373*x)-0.0837917031926"
2,comb,down_uncorrelated,1,-2.5,2.5,300,600,0,1,"0.926873*(1.+0.0282033*x)/(1.+0.0260373*x)-0.0635974127773"
2,comb,down_uncorrelated,1,-2.5,2.5,140,200,0,1,"0.926873*(1.+0.0282033*x)/(1.+0.0260373*x)-0.0408879076962"
2,comb,down_uncorrelated,1,-2.5,2.5,50,70,0,1,"0.926873*(1.+0.0282033*x)/(1.+0.0260373*x)-0.0371512305339"
2,comb,down_uncorrelated,1,-2.5,2.5,20,30,0,1,"0.926873*(1.+0.0282033*x)/(1.+0.0260373*x)-0.0714578878834"
2,comb,down_uncorrelated,1,-2.5,2.5,600,1000,0,1,"0.926873*(1.+0.0282033*x)/(1.+0.0260373*x)-0.31927621573"
2,comb,down_uncorrelated,1,-2.5,2.5,30,50,0,1,"0.926873*(1.+0.0282033*x)/(1.+0.0260373*x)-0.0398831583081"
2,comb,down_uncorrelated,0,-2.5,2.5,100,140,0,1,"0.926873*(1.+0.0282033*x)/(1.+0.0260373*x)-0.00890421251617"
2,comb,down_uncorrelated,0,-2.5,2.5,70,100,0,1,"0.926873*(1.+0.0282033*x)/(1.+0.0260373*x)-0.00997400649236"
2,comb,down_uncorrelated,0,-2.5,2.5,200,300,0,1,"0.926873*(1.+0.0282033*x)/(1.+0.0260373*x)-0.0239404867046"
2,comb,down_uncorrelated,0,-2.5,2.5,300,600,0,1,"0.926873*(1.+0.0282033*x)/(1.+0.0260373*x)-0.0181706895827"
2,comb,down_uncorrelated,0,-2.5,2.5,140,200,0,1,"0.926873*(1.+0.0282033*x)/(1.+0.0260373*x)-0.0116822589907"
2,comb,down_uncorrelated,0,-2.5,2.5,50,70,0,1,"0.926873*(1.+0.0282033*x)/(1.+0.0260373*x)-0.0106146377868"
2,comb,down_uncorrelated,0,-2.5,2.5,20,30,0,1,"0.926873*(1.+0.0282033*x)/(1.+0.0260373*x)-0.0204165401827"
2,comb,down_uncorrelated,0,-2.5,2.5,600,1000,0,1,"0.926873*(1.+0.0282033*x)/(1.+0.0260373*x)-0.0912217716698"
2,comb,down_uncorrelated,0,-2.5,2.5,30,50,0,1,"0.926873*(1.+0.0282033*x)/(1.+0.0260373*x)-0.0113951875483"
2,comb,up,1,-2.5,2.5,20,30,0,1,"0.926873*(1.+0.0282033*x)/(1.+0.0260373*x)+0.17023622989654541"
2,comb,up,1,-2.5,2.5,30,50,0,1,"0.926873*(1.+0.0282033*x)/(1.+0.0260373*x)+0.064542077481746674"
2,comb,up,1,-2.5,2.5,50,70,0,1,"0.926873*(1.+0.0282033*x)/(1.+0.0260373*x)+0.058281924575567245"
2,comb,up,1,-2.5,2.5,70,100,0,1,"0.926873*(1.+0.0282033*x)/(1.+0.0260373*x)+0.050478633493185043"
2,comb,up,1,-2.5,2.5,100,140,0,1,"0.926873*(1.+0.0282033*x)/(1.+0.0260373*x)+0.041406262665987015"
2,comb,up,1,-2.5,2.5,140,200,0,1,"0.926873*(1.+0.0282033*x)/(1.+0.0260373*x)+0.048696272075176239"
2,comb,up,1,-2.5,2.5,200,300,0,1,"0.926873*(1.+0.0282033*x)/(1.+0.0260373*x)+0.14533820748329163"
2,comb,up,1,-2.5,2.5,300,600,0,1,"0.926873*(1.+0.0282033*x)/(1.+0.0260373*x)+0.18129280209541321"
2,comb,up,1,-2.5,2.5,600,1000,0,1,"0.926873*(1.+0.0282033*x)/(1.+0.0260373*x)+0.36842355132102966"
2,comb,up,0,-2.5,2.5,20,30,0,1,"0.926873*(1.+0.0282033*x)/(1.+0.0260373*x)+0.048638924956321716"
2,comb,up,0,-2.5,2.5,30,50,0,1,"0.926873*(1.+0.0282033*x)/(1.+0.0260373*x)+0.018440593034029007"
2,comb,up,0,-2.5,2.5,50,70,0,1,"0.926873*(1.+0.0282033*x)/(1.+0.0260373*x)+0.016651978716254234"
2,comb,up,0,-2.5,2.5,70,100,0,1,"0.926873*(1.+0.0282033*x)/(1.+0.0260373*x)+0.014422466978430748"
2,comb,up,0,-2.5,2.5,100,140,0,1,"0.926873*(1.+0.0282033*x)/(1.+0.0260373*x)+0.011830360628664494"
2,comb,up,0,-2.5,2.5,140,200,0,1,"0.926873*(1.+0.0282033*x)/(1.+0.0260373*x)+0.013913220725953579"
2,comb,up,0,-2.5,2.5,200,300,0,1,"0.926873*(1.+0.0282033*x)/(1.+0.0260373*x)+0.041525203734636307"
2,comb,up,0,-2.5,2.5,300,600,0,1,"0.926873*(1.+0.0282033*x)/(1.+0.0260373*x)+0.051797941327095032"
2,comb,up,0,-2.5,2.5,600,1000,0,1,"0.926873*(1.+0.0282033*x)/(1.+0.0260373*x)+0.10526387393474579"
2,comb,up_correlated,1,-2.5,2.5,100,140,0,1,"0.926873*(1.+0.0282033*x)/(1.+0.0260373*x)+0.0272623804777"
2,comb,up_correlated,1,-2.5,2.5,70,100,0,1,"0.926873*(1.+0.0282033*x)/(1.+0.0260373*x)+0.036461658047"
2,comb,up_correlated,1,-2.5,2.5,200,300,0,1,"0.926873*(1.+0.0282033*x)/(1.+0.0260373*x)+0.118752452735"
2,comb,up_correlated,1,-2.5,2.5,300,600,0,1,"0.926873*(1.+0.0282033*x)/(1.+0.0260373*x)+0.169771756131"
2,comb,up_correlated,1,-2.5,2.5,140,200,0,1,"0.926873*(1.+0.0282033*x)/(1.+0.0260373*x)+0.026448174195"
2,comb,up_correlated,1,-2.5,2.5,50,70,0,1,"0.926873*(1.+0.0282033*x)/(1.+0.0260373*x)+0.0449062223088"
2,comb,up_correlated,1,-2.5,2.5,20,30,0,1,"0.926873*(1.+0.0282033*x)/(1.+0.0260373*x)+0.154512602168"
2,comb,up_correlated,1,-2.5,2.5,600,1000,0,1,"0.926873*(1.+0.0282033*x)/(1.+0.0260373*x)+0.183843986132"
2,comb,up_correlated,1,-2.5,2.5,30,50,0,1,"0.926873*(1.+0.0282033*x)/(1.+0.0260373*x)+0.0507445903425"
2,comb,up_correlated,0,-2.5,2.5,100,140,0,1,"0.926873*(1.+0.0282033*x)/(1.+0.0260373*x)+0.0077892510597"
2,comb,up_correlated,0,-2.5,2.5,70,100,0,1,"0.926873*(1.+0.0282033*x)/(1.+0.0260373*x)+0.0104176172052"
2,comb,up_correlated,0,-2.5,2.5,200,300,0,1,"0.926873*(1.+0.0282033*x)/(1.+0.0260373*x)+0.0339292741088"
2,comb,up_correlated,0,-2.5,2.5,300,600,0,1,"0.926873*(1.+0.0282033*x)/(1.+0.0260373*x)+0.0485062136825"
2,comb,up_correlated,0,-2.5,2.5,140,200,0,1,"0.926873*(1.+0.0282033*x)/(1.+0.0260373*x)+0.00755662198623"
2,comb,up_correlated,0,-2.5,2.5,50,70,0,1,"0.926873*(1.+0.0282033*x)/(1.+0.0260373*x)+0.0128303491699"
2,comb,up_correlated,0,-2.5,2.5,20,30,0,1,"0.926873*(1.+0.0282033*x)/(1.+0.0260373*x)+0.0441464597434"
2,comb,up_correlated,0,-2.5,2.5,600,1000,0,1,"0.926873*(1.+0.0282033*x)/(1.+0.0260373*x)+0.0525268648329"
2,comb,up_correlated,0,-2.5,2.5,30,50,0,1,"0.926873*(1.+0.0282033*x)/(1.+0.0260373*x)+0.0144984541309"
2,comb,up_uncorrelated,1,-2.5,2.5,100,140,0,1,"0.926873*(1.+0.0282033*x)/(1.+0.0260373*x)+0.031164742878"
2,comb,up_uncorrelated,1,-2.5,2.5,70,100,0,1,"0.926873*(1.+0.0282033*x)/(1.+0.0260373*x)+0.0349090236443"
2,comb,up_uncorrelated,1,-2.5,2.5,200,300,0,1,"0.926873*(1.+0.0282033*x)/(1.+0.0260373*x)+0.0837917031926"
2,comb,up_uncorrelated,1,-2.5,2.5,300,600,0,1,"0.926873*(1.+0.0282033*x)/(1.+0.0260373*x)+0.0635974127773"
2,comb,up_uncorrelated,1,-2.5,2.5,140,200,0,1,"0.926873*(1.+0.0282033*x)/(1.+0.0260373*x)+0.0408879076962"
2,comb,up_uncorrelated,1,-2.5,2.5,50,70,0,1,"0.926873*(1.+0.0282033*x)/(1.+0.0260373*x)+0.0371512305339"
2,comb,up_uncorrelated,1,-2.5,2.5,20,30,0,1,"0.926873*(1.+0.0282033*x)/(1.+0.0260373*x)+0.0714578878834"
2,comb,up_uncorrelated,1,-2.5,2.5,600,1000,0,1,"0.926873*(1.+0.0282033*x)/(1.+0.0260373*x)+0.31927621573"
2,comb,up_uncorrelated,1,-2.5,2.5,30,50,0,1,"0.926873*(1.+0.0282033*x)/(1.+0.0260373*x)+0.0398831583081"
2,comb,up_uncorrelated,0,-2.5,2.5,100,140,0,1,"0.926873*(1.+0.0282033*x)/(1.+0.0260373*x)+0.00890421251617"
2,comb,up_uncorrelated,0,-2.5,2.5,70,100,0,1,"0.926873*(1.+0.0282033*x)/(1.+0.0260373*x)+0.00997400649236"
2,comb,up_uncorrelated,0,-2.5,2.5,200,300,0,1,"0.926873*(1.+0.0282033*x)/(1.+0.0260373*x)+0.0239404867046"
2,comb,up_uncorrelated,0,-2.5,2.5,300,600,0,1,"0.926873*(1.+0.0282033*x)/(1.+0.0260373*x)+0.0181706895827"
2,comb,up_uncorrelated,0,-2.5,2.5,140,200,0,1,"0.926873*(1.+0.0282033*x)/(1.+0.0260373*x)+0.0116822589907"
2,comb,up_uncorrelated,0,-2.5,2.5,50,70,0,1,"0.926873*(1.+0.0282033*x)/(1.+0.0260373*x)+0.0106146377868"
2,comb,up_uncorrelated,0,-2.5,2.5,20,30,0,1,"0.926873*(1.+0.0282033*x)/(1.+0.0260373*x)+0.0204165401827"
2,comb,up_uncorrelated,0,-2.5,2.5,600,1000,0,1,"0.926873*(1.+0.0282033*x)/(1.+0.0260373*x)+0.0912217716698"
2,comb,up_uncorrelated,0,-2.5,2.5,30,50,0,1,"0.926873*(1.+0.0282033*x)/(1.+0.0260373*x)+0.0113951875483"
2,mujets,central,1,-2.5,2.5,20,1000,0,1,"1.01737*(1.+0.00646729*x)/(1.+0.00676393*x)"
2,mujets,central,0,-2.5,2.5,20,1000,0,1,"1.01737*(1.+0.00646729*x)/(1.+0.00676393*x)"
2,mujets,down,1,-2.5,2.5,20,30,0,1,"1.01737*(1.+0.00646729*x)/(1.+0.00676393*x)-0.1817590743303299"
2,mujets,down,1,-2.5,2.5,30,50,0,1,"1.01737*(1.+0.00646729*x)/(1.+0.00676393*x)-0.081958852708339691"
2,mujets,down,1,-2.5,2.5,50,70,0,1,"1.01737*(1.+0.00646729*x)/(1.+0.00676393*x)-0.080553032457828522"
2,mujets,down,1,-2.5,2.5,70,100,0,1,"1.01737*(1.+0.00646729*x)/(1.+0.00676393*x)-0.083740919828414917"
2,mujets,down,1,-2.5,2.5,100,140,0,1,"1.01737*(1.+0.00646729*x)/(1.+0.00676393*x)-0.11873060464859009"
2,mujets,down,1,-2.5,2.5,140,200,0,1,"1.01737*(1.+0.00646729*x)/(1.+0.00676393*x)-0.21702873706817627"
2,mujets,down,1,-2.5,2.5,200,300,0,1,"1.01737*(1.+0.00646729*x)/(1.+0.00676393*x)-0.24156391620635986"
2,mujets,down,1,-2.5,2.5,300,600,0,1,"1.01737*(1.+0.00646729*x)/(1.+0.00676393*x)-0.18823352456092834"
2,mujets,down,1,-2.5,2.5,600,1000,0,1,"1.01737*(1.+0.00646729*x)/(1.+0.00676393*x)-0.34949707984924316"
2,mujets,down,0,-2.5,2.5,20,30,0,1,"1.01737*(1.+0.00646729*x)/(1.+0.00676393*x)-0.051931165158748627"
2,mujets,down,0,-2.5,2.5,30,50,0,1,"1.01737*(1.+0.00646729*x)/(1.+0.00676393*x)-0.02341681532561779"
2,mujets,down,0,-2.5,2.5,50,70,0,1,"1.01737*(1.+0.00646729*x)/(1.+0.00676393*x)-0.023015152662992477"
2,mujets,down,0,-2.5,2.5,70,100,0,1,"1.01737*(1.+0.00646729*x)/(1.+0.00676393*x)-0.023925976827740669"
2,mujets,down,0,-2.5,2.5,100,140,0,1,"1.01737*(1.+0.00646729*x)/(1.+0.00676393*x)-0.033923029899597168"
2,mujets,down,0,-2.5,2.5,140,200,0,1,"1.01737*(1.+0.00646729*x)/(1.+0.00676393*x)-0.062008209526538849"
2,mujets,down,0,-2.5,2.5,200,300,0,1,"1.01737*(1.+0.00646729*x)/(1.+0.00676393*x)-0.069018259644508362"
2,mujets,down,0,-2.5,2.5,300,600,0,1,"1.01737*(1.+0.00646729*x)/(1.+0.00676393*x)-0.05378100648522377"
2,mujets,down,0,-2.5,2.5,600,1000,0,1,"1.01737*(1.+0.00646729*x)/(1.+0.00676393*x)-0.099856309592723846"
2,mujets,down_correlated,1,-2.5,2.5,100,140,0,1,"1.01737*(1.+0.00646729*x)/(1.+0.00676393*x)-0.111918013493"
2,mujets,down_correlated,1,-2.5,2.5,70,100,0,1,"1.01737*(1.+0.00646729*x)/(1.+0.00676393*x)-0.0762411939844"
2,mujets,down_correlated,1,-2.5,2.5,200,300,0,1,"1.01737*(1.+0.00646729*x)/(1.+0.00676393*x)-0.234931222523"
2,mujets,down_correlated,1,-2.5,2.5,300,600,0,1,"1.01737*(1.+0.00646729*x)/(1.+0.00676393*x)-0.180543879358"
2,mujets,down_correlated,1,-2.5,2.5,140,200,0,1,"1.01737*(1.+0.00646729*x)/(1.+0.00676393*x)-0.214003553127"
2,mujets,down_correlated,1,-2.5,2.5,50,70,0,1,"1.01737*(1.+0.00646729*x)/(1.+0.00676393*x)-0.0726464163254"
2,mujets,down_correlated,1,-2.5,2.5,20,30,0,1,"1.01737*(1.+0.00646729*x)/(1.+0.00676393*x)-0.167832988345"
2,mujets,down_correlated,1,-2.5,2.5,600,1000,0,1,"1.01737*(1.+0.00646729*x)/(1.+0.00676393*x)-0.184830337316"
2,mujets,down_correlated,1,-2.5,2.5,30,50,0,1,"1.01737*(1.+0.00646729*x)/(1.+0.00676393*x)-0.0742160585381"
2,mujets,down_correlated,0,-2.5,2.5,100,140,0,1,"1.01737*(1.+0.00646729*x)/(1.+0.00676393*x)-0.0319765751943"
2,mujets,down_correlated,0,-2.5,2.5,70,100,0,1,"1.01737*(1.+0.00646729*x)/(1.+0.00676393*x)-0.021783197935"
2,mujets,down_correlated,0,-2.5,2.5,200,300,0,1,"1.01737*(1.+0.00646729*x)/(1.+0.00676393*x)-0.0671232043064"
2,mujets,down_correlated,0,-2.5,2.5,300,600,0,1,"1.01737*(1.+0.00646729*x)/(1.+0.00676393*x)-0.0515839650111"
2,mujets,down_correlated,0,-2.5,2.5,140,200,0,1,"1.01737*(1.+0.00646729*x)/(1.+0.00676393*x)-0.0611438712653"
2,mujets,down_correlated,0,-2.5,2.5,50,70,0,1,"1.01737*(1.+0.00646729*x)/(1.+0.00676393*x)-0.0207561196072"
2,mujets,down_correlated,0,-2.5,2.5,20,30,0,1,"1.01737*(1.+0.00646729*x)/(1.+0.00676393*x)-0.0479522832341"
2,mujets,down_correlated,0,-2.5,2.5,600,1000,0,1,"1.01737*(1.+0.00646729*x)/(1.+0.00676393*x)-0.0528086732263"
2,mujets,down_correlated,0,-2.5,2.5,30,50,0,1,"1.01737*(1.+0.00646729*x)/(1.+0.00676393*x)-0.0212045884546"
2,mujets,down_uncorrelated,1,-2.5,2.5,100,140,0,1,"1.01737*(1.+0.00646729*x)/(1.+0.00676393*x)-0.0396398125108"
2,mujets,down_uncorrelated,1,-2.5,2.5,70,100,0,1,"1.01737*(1.+0.00646729*x)/(1.+0.00676393*x)-0.0346384467542"
2,mujets,down_uncorrelated,1,-2.5,2.5,200,300,0,1,"1.01737*(1.+0.00646729*x)/(1.+0.00676393*x)-0.0562178467833"
2,mujets,down_uncorrelated,1,-2.5,2.5,300,600,0,1,"1.01737*(1.+0.00646729*x)/(1.+0.00676393*x)-0.0532519238607"
2,mujets,down_uncorrelated,1,-2.5,2.5,140,200,0,1,"1.01737*(1.+0.00646729*x)/(1.+0.00676393*x)-0.0361102750239"
2,mujets,down_uncorrelated,1,-2.5,2.5,50,70,0,1,"1.01737*(1.+0.00646729*x)/(1.+0.00676393*x)-0.034803580753"
2,mujets,down_uncorrelated,1,-2.5,2.5,20,30,0,1,"1.01737*(1.+0.00646729*x)/(1.+0.00676393*x)-0.0697742726558"
2,mujets,down_uncorrelated,1,-2.5,2.5,600,1000,0,1,"1.01737*(1.+0.00646729*x)/(1.+0.00676393*x)-0.296624266086"
2,mujets,down_uncorrelated,1,-2.5,2.5,30,50,0,1,"1.01737*(1.+0.00646729*x)/(1.+0.00676393*x)-0.0347739872942"
2,mujets,down_uncorrelated,0,-2.5,2.5,100,140,0,1,"1.01737*(1.+0.00646729*x)/(1.+0.00676393*x)-0.0113256609702"
2,mujets,down_uncorrelated,0,-2.5,2.5,70,100,0,1,"1.01737*(1.+0.00646729*x)/(1.+0.00676393*x)-0.0098966991914"
2,mujets,down_uncorrelated,0,-2.5,2.5,200,300,0,1,"1.01737*(1.+0.00646729*x)/(1.+0.00676393*x)-0.0160622416866"
2,mujets,down_uncorrelated,0,-2.5,2.5,300,600,0,1,"1.01737*(1.+0.00646729*x)/(1.+0.00676393*x)-0.0152148352701"
2,mujets,down_uncorrelated,0,-2.5,2.5,140,200,0,1,"1.01737*(1.+0.00646729*x)/(1.+0.00676393*x)-0.0103172213013"
2,mujets,down_uncorrelated,0,-2.5,2.5,50,70,0,1,"1.01737*(1.+0.00646729*x)/(1.+0.00676393*x)-0.00994388007536"
2,mujets,down_uncorrelated,0,-2.5,2.5,20,30,0,1,"1.01737*(1.+0.00646729*x)/(1.+0.00676393*x)-0.0199355072015"
2,mujets,down_uncorrelated,0,-2.5,2.5,600,1000,0,1,"1.01737*(1.+0.00646729*x)/(1.+0.00676393*x)-0.0847497881859"
2,mujets,down_uncorrelated,0,-2.5,2.5,30,50,0,1,"1.01737*(1.+0.00646729*x)/(1.+0.00676393*x)-0.00993542492631"
2,mujets,up,1,-2.5,2.5,20,30,0,1,"1.01737*(1.+0.00646729*x)/(1.+0.00676393*x)+0.1817590743303299"
2,mujets,up,1,-2.5,2.5,30,50,0,1,"1.01737*(1.+0.00646729*x)/(1.+0.00676393*x)+0.081958852708339691"
2,mujets,up,1,-2.5,2.5,50,70,0,1,"1.01737*(1.+0.00646729*x)/(1.+0.00676393*x)+0.080553032457828522"
2,mujets,up,1,-2.5,2.5,70,100,0,1,"1.01737*(1.+0.00646729*x)/(1.+0.00676393*x)+0.083740919828414917"
2,mujets,up,1,-2.5,2.5,100,140,0,1,"1.01737*(1.+0.00646729*x)/(1.+0.00676393*x)+0.11873060464859009"
2,mujets,up,1,-2.5,2.5,140,200,0,1,"1.01737*(1.+0.00646729*x)/(1.+0.00676393*x)+0.21702873706817627"
2,mujets,up,1,-2.5,2.5,200,300,0,1,"1.01737*(1.+0.00646729*x)/(1.+0.00676393*x)+0.24156391620635986"
2,mujets,up,1,-2.5,2.5,300,600,0,1,"1.01737*(1.+0.00646729*x)/(1.+0.00676393*x)+0.18823352456092834"
2,mujets,up,1,-2.5,2.5,600,1000,0,1,"1.01737*(1.+0.00646729*x)/(1.+0.00676393*x)+0.34949707984924316"
2,mujets,up,0,-2.5,2.5,20,30,0,1,"1.01737*(1.+0.00646729*x)/(1.+0.00676393*x)+0.051931165158748627"
2,mujets,up,0,-2.5,2.5,30,50,0,1,"1.01737*(1.+0.00646729*x)/(1.+0.00676393*x)+0.02341681532561779"
2,mujets,up,0,-2.5,2.5,50,70,0,1,"1.01737*(1.+0.00646729*x)/(1.+0.00676393*x)+0.023015152662992477"
2,mujets,up,0,-2.5,2.5,70,100,0,1,"1.01737*(1.+0.00646729*x)/(1.+0.00676393*x)+0.023925976827740669"
2,mujets,up,0,-2.5,2.5,100,140,0,1,"1.01737*(1.+0.00646729*x)/(1.+0.00676393*x)+0.033923029899597168"
2,mujets,up,0,-2.5,2.5,140,200,0,1,"1.01737*(1.+0.00646729*x)/(1.+0.00676393*x)+0.062008209526538849"
2,mujets,up,0,-2.5,2.5,200,300,0,1,"1.01737*(1.+0.00646729*x)/(1.+0.00676393*x)+0.069018259644508362"
2,mujets,up,0,-2.5,2.5,300,600,0,1,"1.01737*(1.+0.00646729*x)/(1.+0.00676393*x)+0.05378100648522377"
2,mujets,up,0,-2.5,2.5,600,1000,0,1,"1.01737*(1.+0.00646729*x)/(1.+0.00676393*x)+0.099856309592723846"
2,mujets,up_correlated,1,-2.5,2.5,100,140,0,1,"1.01737*(1.+0.00646729*x)/(1.+0.00676393*x)+0.111918013493"
2,mujets,up_correlated,1,-2.5,2.5,70,100,0,1,"1.01737*(1.+0.00646729*x)/(1.+0.00676393*x)+0.0762411939844"
2,mujets,up_correlated,1,-2.5,2.5,200,300,0,1,"1.01737*(1.+0.00646729*x)/(1.+0.00676393*x)+0.234931222523"
2,mujets,up_correlated,1,-2.5,2.5,300,600,0,1,"1.01737*(1.+0.00646729*x)/(1.+0.00676393*x)+0.180543879358"
2,mujets,up_correlated,1,-2.5,2.5,140,200,0,1,"1.01737*(1.+0.00646729*x)/(1.+0.00676393*x)+0.214003553127"
2,mujets,up_correlated,1,-2.5,2.5,50,70,0,1,"1.01737*(1.+0.00646729*x)/(1.+0.00676393*x)+0.0726464163254"
2,mujets,up_correlated,1,-2.5,2.5,20,30,0,1,"1.01737*(1.+0.00646729*x)/(1.+0.00676393*x)+0.167832988345"
2,mujets,up_correlated,1,-2.5,2.5,600,1000,0,1,"1.01737*(1.+0.00646729*x)/(1.+0.00676393*x)+0.184830337316"
2,mujets,up_correlated,1,-2.5,2.5,30,50,0,1,"1.01737*(1.+0.00646729*x)/(1.+0.00676393*x)+0.0742160585381"
2,mujets,up_correlated,0,-2.5,2.5,100,140,0,1,"1.01737*(1.+0.00646729*x)/(1.+0.00676393*x)+0.0319765751943"
2,mujets,up_correlated,0,-2.5,2.5,70,100,0,1,"1.01737*(1.+0.00646729*x)/(1.+0.00676393*x)+0.021783197935"
2,mujets,up_correlated,0,-2.5,2.5,200,300,0,1,"1.01737*(1.+0.00646729*x)/(1.+0.00676393*x)+0.0671232043064"
2,mujets,up_correlated,0,-2.5,2.5,300,600,0,1,"1.01737*(1.+0.00646729*x)/(1.+0.00676393*x)+0.0515839650111"
2,mujets,up_correlated,0,-2.5,2.5,140,200,0,1,"1.01737*(1.+0.00646729*x)/(1.+0.00676393*x)+0.0611438712653"
2,mujets,up_correlated,0,-2.5,2.5,50,70,0,1,"1.01737*(1.+0.00646729*x)/(1.+0.00676393*x)+0.0207561196072"
2,mujets,up_correlated,0,-2.5,2.5,20,30,0,1,"1.01737*(1.+0.00646729*x)/(1.+0.00676393*x)+0.0479522832341"
2,mujets,up_correlated,0,-2.5,2.5,600,1000,0,1,"1.01737*(1.+0.00646729*x)/(1.+0.00676393*x)+0.0528086732263"
2,mujets,up_correlated,0,-2.5,2.5,30,50,0,1,"1.01737*(1.+0.00646729*x)/(1.+0.00676393*x)+0.0212045884546"
2,mujets,up_uncorrelated,1,-2.5,2.5,100,140,0,1,"1.01737*(1.+0.00646729*x)/(1.+0.00676393*x)+0.0396398125108"
2,mujets,up_uncorrelated,1,-2.5,2.5,70,100,0,1,"1.01737*(1.+0.00646729*x)/(1.+0.00676393*x)+0.0346384467542"
2,mujets,up_uncorrelated,1,-2.5,2.5,200,300,0,1,"1.01737*(1.+0.00646729*x)/(1.+0.00676393*x)+0.0562178467833"
2,mujets,up_uncorrelated,1,-2.5,2.5,300,600,0,1,"1.01737*(1.+0.00646729*x)/(1.+0.00676393*x)+0.0532519238607"
2,mujets,up_uncorrelated,1,-2.5,2.5,140,200,0,1,"1.01737*(1.+0.00646729*x)/(1.+0.00676393*x)+0.0361102750239"
2,mujets,up_uncorrelated,1,-2.5,2.5,50,70,0,1,"1.01737*(1.+0.00646729*x)/(1.+0.00676393*x)+0.034803580753"
2,mujets,up_uncorrelated,1,-2.5,2.5,20,30,0,1,"1.01737*(1.+0.00646729*x)/(1.+0.00676393*x)+0.0697742726558"
2,mujets,up_uncorrelated,1,-2.5,2.5,600,1000,0,1,"1.01737*(1.+0.00646729*x)/(1.+0.00676393*x)+0.296624266086"
2,mujets,up_uncorrelated,1,-2.5,2.5,30,50,0,1,"1.01737*(1.+0.00646729*x)/(1.+0.00676393*x)+0.0347739872942"
2,mujets,up_uncorrelated,0,-2.5,2.5,100,140,0,1,"1.01737*(1.+0.00646729*x)/(1.+0.00676393*x)+0.0113256609702"
2,mujets,up_uncorrelated,0,-2.5,2.5,70,100,0,1,"1.01737*(1.+0.00646729*x)/(1.+0.00676393*x)+0.0098966991914"
2,mujets,up_uncorrelated,0,-2.5,2.5,200,300,0,1,"1.01737*(1.+0.00646729*x)/(1.+0.00676393*x)+0.0160622416866"
2,mujets,up_uncorrelated,0,-2.5,2.5,300,600,0,1,"1.01737*(1.+0.00646729*x)/(1.+0.00676393*x)+0.0152148352701"
2,mujets,up_uncorrelated,0,-2.5,2.5,140,200,0,1,"1.01737*(1.+0.00646729*x)/(1.+0.00676393*x)+0.0103172213013"
2,mujets,up_uncorrelated,0,-2.5,2.5,50,70,0,1,"1.01737*(1.+0.00646729*x)/(1.+0.00676393*x)+0.00994388007536"
2,mujets,up_uncorrelated,0,-2.5,2.5,20,30,0,1,"1.01737*(1.+0.00646729*x)/(1.+0.00676393*x)+0.0199355072015"
2,mujets,up_uncorrelated,0,-2.5,2.5,600,1000,0,1,"1.01737*(1.+0.00646729*x)/(1.+0.00676393*x)+0.0847497881859"
2,mujets,up_uncorrelated,0,-2.5,2.5,30,50,0,1,"1.01737*(1.+0.00646729*x)/(1.+0.00676393*x)+0.00993542492631"
